A7 R1 X0 Y5000 Z-5000

; generated by PrusaSlicer 2.5.0+win64 on 2023-02-27 at 11:12:53 UTC


;
; thumbnail begin 16x16 672
; iVBORw0KGgoAAAANSUhEUgAAABAAAAAQCAYAAAAf8/9hAAABvUlEQVR4AY2Ty0sCURTG/Usi6EFRFB
; Q9IAiCKOgFQRFBREQ1FLWp7CFCmmQKJSKoZSChUkhio6PNNGNqtShoFWaE1KJauShatcjFzWNcueMo
; OXA4l7n3+93vXM6RcRwXCKY/yDRNn8OaYRgWcnhvM8YaFU980MfBPziD97BGhoWCIPixGATX6rHk5W
; wLgggrRz5Yz1EEnxEB8ALfwO9r77GQjMh8eypk3ojDOdKFjCRGdLNv+cRkhBRDn6z/NOs4UwLYiy51
; f/8nJt1wDstttgT71mrcNlSLLqjmogCG/mqkX5x+EQGUneVI31uFApONBYX0RANa6yhDVGsJ2lmmnu
; EtMiUcaOSPAIBQdVUg52i9xA04BCEOw+pcIgvADsjYTdvkppqQMNOENN2VIrHEwaFOEcsFYDcLbaUS
; sQSQzwGOfGIRAB7Rd3Icsi6NvxYL2KaG388YHwu9kG2kkMD73Wb9nbqv7qcQYL69ImVRyx8ks0AOCe
; 12hU3UQDIXsD7Y9uVx2qNkK3u9Xl6WO12QeY4NOLTyuKqnJgVi0wqVCDD+vwvSgyeaBRABCeohnUD2
; OWxXLqvxBvZyJxYDfgHYamhvbpzoTgAAAABJRU5ErkJggg==
; thumbnail end
;

;
; thumbnail begin 220x124 13288
; iVBORw0KGgoAAAANSUhEUgAAANwAAAB8CAYAAAACRt5vAAAms0lEQVR4Ae2d27NdVZXG11/S1Rdpbe
; 82hYQkEhOQW0AgQiEFoqYjoFwUAYHQUsFghWCHSAgQbh1EgSYYgkHLYEjLpYEWO11qi11qpZqqtkoe
; eOAhVXnIw+l8R7/T43wZY17WZZ+9k2PVLPDsH2vtvdYcc475jTHmbM4///x3Nm/e/PqDDz746uWXX/
; 6HZcuWHTz99NMP3HnnnXu/853vvHTzzTf/dvHixVMeh3b77bf/soa79dZb30hx+BwcePx/cPwu119/
; /b6IO/vss/d34fD98Td8ht/fhsNnYPD7PM4+qxTH79yGw3e1HJo+A4/znpVyuGdbDveo4a6++uo3le
; Mz6MKhz5Vw6Jfoe+D4nS2HPlvLXXzxxW83+KO9+T333PMz/BNt5cqVb+FzNnvRvrmNGzfuxZfCv+NL
; Rty99977s744fH733Xe/jpfQF4f7ksPLG4I7/+RF0025++677985QOj18N+Ce/TRR1+MOHaQcebQh9
; pynBQ87uGHH/63FAejIoe+UMNhQOHA1FgYL+2FF17Y4XUC2+66667/IOf9WMu99NJLT+e4O+644xel
; XMl9a65nOT6Uttxtt932X6+88sr3h+S+ds7CqRe/ePzUc5ceP4V/P3nJ/3Pf+973XrCznTa8ePyOHI
; fPyNnOEnGPP/74T/vm7OzpcXv27PnBk08+uQczW1cOz5YcBreIw6AA7qmnnnoeRtWGmzY4TLEcRW+4
; 4Ybfc4rXh2M5fEnPtVAOhlvClV5POU7dqd/hcXQDwXmuxSg4zwVR7pZbbvlvcN99+IFXt129fD+Mzb
; Znr1m+/7EHNr9OjtfDNXg969Jbjm5YG47PFoMRZ9khOMwYluOzxWCOZ0gO7lotR6NUDn0o4nANegt0
; E2u4xnuo1lXhl1RfmRxdAV7U42j1HkcfOOLUV+7CwX1Qn5ocXYtRcNa1pgvCtazHXXrGwukZTY2N7a
; dXnnjw6rMWutfDNTyXXtfQpRx+o+eqD83x/w/BWW+OmgE4/D3idI1fyjWRL8qb33///a/u3r17Zx8c
; bg6/FtMtZ9CIw4jD6/XNRe4KOLhnQ3EUKJTDfxtxGz99Qmho2sDCxeSMgevBLUzdt4bbtWvXD+HupT
; i8+zacHZw9jm5hxKEzl3I/OvS/Ug5uIYWWPrjGc2ns7IAX8cwzzzznuSoRF/0QjJzgnn322R+Xcp4L
; UsthFMUiFj/Yc1XswKGcugw1HL4LOHSEyFUhh8/4O6ZH10vOe+eZf1hQbGxs//L5BVNfveDUA7we7u
; +5PnrfWk4FMMuhH/TF4dmCe+SRR17m7BRx6PR9cxBdSriHHnrolYij6g+uURfEjmh2tI04lat16uZN
; ++IimbwrpzJ5CYcHXsNZVyXi0H7wzSvfrDU0dTGf/MaVb16w4k/X0/AG7quuf47D91bOCi/q0kdhiz
; YcBgHLWW1BuShs0YbDIBCFLUo5ddUbNbCcPE9uw4YN/5mSyT3Ok79LORrOkJwnp9MgSjk8P9txazhI
; /ZihuhibbY9cssANH+S+H8MgGov1OLjqaH1yEE48V91ykPAjjgZBeb6W81xhy61bt+5XOQ7N42aFBT
; Zt2vRzyu7e1NiGo5ye4tCZyaXCETUc5fQUhwdMLlp3omFQKOVee+21p1LryYiD6NGXodnG8IH9HXDD
; c7J7DVci45dwMKaSsADeKfof1mEpDn2uhMPMU8pR7i/lNBwxExawcrXnWrTlVq9e/btaTmNEynkuiH
; Jr1679dcRZ+dtyGgZRmTwKW6isXcNB7n/0ijP3D2Fstj2+aslB3AszSBS2oHHgsyG4KAyS4nRNzs8o
; 45dweHeRZtCWizSDHNd4srZ1fQinOHvRNhwXzF44opTzZO02HIWNSCbXcEQkayvHNbDl4O79+EsnHh
; za2OzaDiEGjsI2bKGxUztal3B8DlzLRpxqAW046wrXcHatrWvWiNPUwq5c443sFoavDDUu8oHbcFDt
; Ih/Ycjt37tzVF4cfXcLhsxzHl5X7HSlu3fknTL04IkPThnsjfEAhAt+PYQFP5SWH95uS8Zm3meM405
; OjIBNxUEfh7mmMtQ/OU2W5xgfHbJG+uGRYgPI3Zfy+OGuYUUdVA05xuft614s6Vhsu1VF1gFl57mkH
; +hRG2jZ8B3wXuD74fngvqfBGDYfnkgsz4Bq5cARdenCU8btyNDgaeopDOIKG6YUt2nCNuj6EVCZX16
; ILhwdeyqmrEnFe2AJN5e8azgtbaNZ5xKn8jbbj9mv3zbWhqYuJ8MGqSy56OwpvqEtfw3lrd3XVo3BE
; 3xz6ETnPpSSnrn9U5eFxnmag3GGiyZo1a34Tyd/25jmONwcXydClnC0xgQKZkrVHwXmythVDtGQJ7t
; t9F50wNdcGFjWED85atmjW2t2KP6q0KWfFButhWE5FiYjDZ31xXLuXchRhchyygmq5GdHEwoiW5+R+
; cEjjylUVkMtl7ddwiA2VVAHYsEApl5L7SznEXSj3k/vMqYuSeZDj0vAdmY+Jd2rDAtHvRR+xMn6KQ3
; +p4dBJc1yuCqANl6sWAMc0rhTHsIByM4FvneHUZSCnM1yOW79+/S9SnA24l3JRmMFyGuBVjjJ0Hxya
; xz3y5RXvjLuhaUOIguEDvkNPBLMzVxtO19p01Ws4ziApDmvoFEdXGGvJUo4zZhuuiWRyja105TQG48
; nkytk1V8Tp2izHWdm4LWfDG56sfdHypQf3fOXkA5NkaLbtvnb5foYPdI0fyelDct7ajJwXtvBcf+Xs
; JJPjdImAplqA5azqr1zj+aJ68x07djyX4ihs5DjevE8Ond1ynlo4FLd9+/bdyrFAdNKbLXC1qmJK3R
; uSS6mA1ALI2cHe46gqlnBwCyOO2kKOo+c1nbysqoreGOs6yt8pDuuwXBxOZfIhuCgsoOU5Ka70epY7
; d/lpByA+TJJRlTT8pk+d9qfyoZJyGnKpuF4Np2VBqfia5TwDRqvluP5Lcbm4Hhpm5ek4nGZiELAyOX
; 5kKRdVw2rBaRSOUDm9T46ZK144QrkobOFx2//ppt9OkhHVNoQPENKwhZsaBlGXPgoflHLq0vfJ2cLS
; Eg59G5yt8og4XeNr5ktjXSRc9LrrrtsXyeSW09xH5fgZFo4Rp/625yt34VJbNpRyNrbicTUFokfCbG
; cLXPksUnK6XeNbzs5oQ3BWC7jmmmv+ZwhOC05VCyBnM19mhQWsPN+H3A8ZPyfP13Il97VVBZGMDw4y
; flsOeZBtCkQnvWFtR0EFHZ5hgZSMb6sAclxJWIAc3b2IU7m/L45yf8TZagHlDquHQ6f2MjF0hElxaF
; Ym91yQvrhInt+yZctrKY4jURvuW589ZWIVyL7a3StPOTBd6fDooy/aOjd9fnTBwXkZG1041q95ucBW
; ns/Vw3XhdI1PlR5rU49rMCV6crq3gaonk2uVqyeTD8FpOKINx1mylIPc/6OrPnHUGxsbwgda4Mq1vC
; enKxdVXrfhWOXhcTQYu8a379y6wm05O9inuMbzWa1VA/Tk73HgKGyQw7+nuG3btj2vPnUpd6TI/X03
; W+DKNT6eH9zCSCYn98QTT/wrko3tIO5xjz322As5Dn0EHO/rcVy7w3Us5TCT1nDeUsxyjaoqCsKFo5
; zeF8ddu0q5KByBUQQc5fmIw9+QoWJ3FSvhMFIu/8Syg+OcBzkujfmY3AUstWsXWskuYJw1rDxfynkD
; bxuOVdtdr8ddxdx9KTnLcJTHKFXD2UyMPjk7K2lGSxS2sNyqVav+WMN9d8OaNyCJT1LHn8uGZ/XUxj
; VvYJS3YRU7O3hyeo7Du+iDs+p7FN7IcVbub8MdFhZI7ZTcldMRSjnPB1YOP2YU3FwWiE560wJXldPV
; 9dd11xVXXPG/nuvfB6c7NJdydo3fhqNr3ag7ldu7HxwSkku5EhkfsnvJ9SyXkvGRxVAi93tc3ztnHa
; 0Nz5CCCsIHJXI/OiiWEaVcLiwADu5trlqglMPgDM7bHCjiMLDbwb6xPiY63tatW1/2MjaUg0zuZWIo
; R6Yvzt7XW8gyo6UNt/biebm/zwZBBc8U4QN0PoQP8Jy9tTtdenR6hhlyHE+n8Tjm9+Y4uqBtOE8LsJ
; wXLmk8+durho04jZl4Wd1eNWxfnA1bKBeFN5SDMIJDMSapM0+U4d1w7jsXfvK0A15VBp6/uvRDcaoZ
; 6G4FbTlOTPpdPK7xfGB2VsII9tVyOjsOwTFvE0FG9ZV1ile5n9xQ+0HONzE6U+DKNTSkdGQtRXL6KD
; hvCWM5JO+XcKXXaxhjiGRyK8+XcjbJUzlMx7ZavA8uF2bA3+zZcpw9j6Y8yHFpCLFAUMG7suu1SO4n
; lwsLgLPrsIhDX6rhuF5LcQwf6HrN45poE0+V3btymiWuBaklnFW2Ik7DDNYVxuIY3BP3btg7yQWik9
; 6QoYLwAd5FVOWhrn8Jh74XVXlo5kufHJYtURhElzUNjcZeNJLTSzndaUt9YDWaLpwaoZX7Pe6WFfOz
; 2jg0uJh4F0sWLzzMuDw53TNCchzsLWeNBnHViLOaQQmHf0acnqfubRLc2Isiy966Z97UWMrh5uBKZP
; wazmaflFzP7vH/8UMvd8NZfze157KPTlTnPFLb+jPePbV00YKZ94bwAbNPIvfMcszujzhmd/TNpdxH
; agv2zDg3LAAI4gOal4nRlkP5eSrMwMySp59++id9ct59YXD/ePK7ptaccszUU5/5yER1ziOpPfO5v5
; /66ol/NXXZgr+YMTi6/uikqOLXjA1dIoCDUDEXHPQKJmvkONUWGk8m99JUvM1ZPI6HzymnYQYvm9wL
; R6iv7En75HIhgFNOWnoQBsf2wHnvn5/tRtw2n/PeaUNjg8F5crqnBZRyuqmvDR904VhwqhyXK7qrgR
; e2aCI53cIYcUq4e+6552eeb6sc/do+ODAccayv7HF3f/vOvdbg0NYvf8/UD1ceO1GddhIbZrUbl/7N
; LGND27Dutl9GSxNqBpDT2Qe7cNQCajjK/d4ShhzCVzkOxgquSa3D0FkRLc+lXaHNFWfl/igsMMM9/5
; MfqMHRxfzuhR+aqA48SQ2ehBoa2wOb73o92iQKDR2YYYFSLpV2hVmIHIwlx/GQjlQal+WisAC5JrWf
; hy04LeFSCc0pzn7JNhwMLQpHWO7mG7/2e8/g2CCo7Fp13ER15nFuuy89bmrtqX8bGhva6uuucas37B
; IBgyWEkhqOBamWs6p6tNlVKUcjr+Ua3EBjHKlSnDac+spdOLgP6iura0FOd/aiaJJq84JKPw0u5FWL
; /jJpbFzDqRYQnblXw9mdtrxNgjkYeyU2NZzNaCnhGvsl4YfaIk1vajz7z3tQlnI5Gb+Gs1kl0ZG+4F
; AF4HElBjcvqHRvdx7yFHKGZg2OMwtl91T2icr4UdGnJ/f3wVm5P8XxzDjlGjuLUMb3Zpm2HG6syaBt
; OMxYykXbJIDDg1EXpMbg5gWV+hYJIyUGZ+V0nhkXbWtAjmfBpbY/qOFsWCDFIb8yFT5IcY0np3vVsG
; 04jlJe+EB95YhTH7gLp2GBkkZBZX62S7eUMJIzOHX9vb7GwbmW8zYWshv8tOU8zUB3K/C4JiWn2xNr
; +uB4c2SCeL5yitPs7xqOa81vrfvmr2oNbl5QSbcSYSTV1t16yxvRUoJrd8x4trYsxeW2uqvl0Lcijp
; qB5TxX2HKN1+lt27Rp089zZ8ah2WrxaBNZcrnNZms4u+lrKnyAdd3LP93zTFuD42z3xEUfniiDGLJt
; veCDrQ2tNCyAd4r3mwsLoI9wM9cUZzd9LeHgGqY4u+lrKhwBbrpaQDM2rC/KWQNSa4rjZ5bTaljLYZ
; t073jWPrjktuaZsEBpu3fF+456FxN5kF2NjWEBzdhgoweD2S3a1ryGo6dDLtIMLIet+ms5DQtYrvGq
; XNVXtq5ZxPEmXpXrkJw9g46xEMZglKsVTXKCytEYPrB5kH00LyygsVh23LacleetF9SF03TIUm5WWM
; Ae/RTJ7h7nTaPKRdNyWy6avsFhJNm5c+cu9an7NLijUVDRPMi+DI4DJvoS1OXckVjkcjI+Zj57lFR0
; 1FUtx6wSL3k+xzXWx6TsruqL+qIlHL40Fon2zLgUV3o9y3kPGn+DYdr7kuvb4KygciSHD9rI/W3CAj
; AyvF+GBXKHNFLujzo+3j3CV+SiwxJLOXuYY45DVQs5q3001gfmbBBVuZZyWkiqBakRF23iqRktNZyd
; 4ocyODvbTZIhlbS2cn+Nwanr71WD4P2SQ0txuguBt9lVxHmaAfovObqyHqcZLVqQCq6J5HR70TVr1v
; ymllPF0N7cyvjK2TADOM9Xbst1CQvUzHZHgosJub8vYaRENFE53a7dKUrkOHxWykG1LuGwF2rX69k8
; y2RYADCi5bmwgHKps+XsGW99yP01XNewQM1sN8mCSt/CSKrlwgK1Mn7JZq41XMmmr/bMuFxVQeNlbC
; xePFtO58zlcfj3Uo7T+tq1a38dhRksh9ElxUUzXMR59XBDtknMx6zJg+yjrbn5ht9Ga3crp3MG8Tgm
; s9dwnAlTHLSAFEcXF2tOy6m2YLnGZmLwouor2ynUcuoDexxunuO45irlvOxvL2yh3JBruKhNSj7mkM
; JIbg2nWoC3CwFa35xqAd6uBh5nJ5kcp7sazKiUWBjCAnfs2PGc54vqRUs5T55XDrNiKVdy34ibC4Oj
; iznO4YOhhZGcwdGjgicC9RFhgZRKSY4qYCnnqYrUFsjZwd42q1LCfWzLzdq1C9nSVk73/FFPdk9xuf
; iax3mG1Ac3VwbHNm75mF3zIPs0OPQNuIN4bwg7eRkbyjFeF3H2DDotSFUuZ+hoGq9rwzXWV2bJS1S9
; qgWi0eacQ3EMSmpBqvrK5NS1mGuD42w3DvmY2w6JOiUFoqMwOHX9o2qQUk53K9CC1IiLwgya0dKFay
; I53aalQAyJOBVX+uSwEPV8ZeXwmfrK6lrgs5uuv3bfXBsc21zmY45aGEm1666+4s2U7E4vJcqRHJLD
; ZzzTritHbaHJyfhwM3MyvnKpTYlKORs+6IsbVVigtI06H3OUcn9pQ1gAHdF7b/RaWC2A2SPFUe7vi2
; MVQJ9c42VsLF58uOyuhaYeh06d4pipgm3tovABfeAhuIfuv++1cTI4upijEFTmUhhJNdbDeTm5Vk7P
; 1a914VJyf9/cYRXfNsVKZXflMHWWclpwag3Q4zib9smNwxouakMJKhBGvn7o+uNobGinLVsy43JR2P
; DkdHZcu8bXvmZTwEbFWVdYtQXbJ8k1+mO2b9++2/NF23JWno/2KqnhcvdNceNscHa268vY+igQHbpR
; paRmgDP8oBZGsjvX7kgOJpfbg6RPDq4owwc5DhvJKjcrLID0LO7GFW2qCg4uXClnd+NKcZTx++L4/a
; yrMu4GZ2e7ri7mKPIg+zQ4NCvjRwOq5VK7dnEpUcPl7lt7PXK23KexPianTM3YUF+UU2Ybzt48xdmw
; QBsORwqpqzIpBsfZro2gMo7CSM7g1PWPqkE8ztMMLGf3h0yFD3KcVdW7cE0kp1sYP46cLkaVi7Y66M
; qpbKxcdFadjcF89ctXvTkpBsdWk485RIHo0O3qy1f9IZLTbR+h7I73mOLs2XJ2cNc1fhsu2qG5hsuG
; BeCelcju69ev/0XuLAByJddD4nIJh6yDkvtOc8HZAuPecvmYc5UH2UdjtYD33tBgaDa7P+LQ4e3ZAh
; FHeb6Es0cOp6oASjh4ZuAaL2PD+qLoyFu2bHktxTEA2IbzFp7keCpOX9w4hgVKWySojKvcX9rs6Tna
; WZnMDuNAyKlPzm67pxwLTnMcXd9SDmvExquG9WR3r8pVfeAazquG9bK6Pam2LTdJa7ioMXwwDnmQfT
; SGBaxb6cnpXjWInRS6cnQDSzndraCUa9hZCSNxFIC3OYvHqQ+sHIJ9KY55m5CDPR/YTt1duSPB4Djb
; jUMeZB/NhgXQ5+yZbN5SZxw4qPnREibHHRYWoIzvZWzQSEo5uHq2WjzF2TPDI07PFk9x3plxR4rBoU
; 2SUZUYHGcXrHNSh3lw1gDHdVgfnJXxIw6GyDO+azg7cc0KCzDYGJ21pgWiWpBawtmbR5x+Sc18KeGw
; iFZu3uDG0+DU9Y82pxqSQ5+PNrvSzJcobFHCNZGcrjdPye59czZ2oT5wF+7KL172h0kyqqPB4C77/C
; VveUsE1RYi2V01A8upcZHDP8lxsCen2gLiuR6nmkEplwwL4Obqxnmc5+6luBIZ33LRprQ1HMIMe36y
; 69lJMqqjweBYLRAtD1BGQ7cw2qSHnD3jLTpbrpTDIE63MOLoHdZwjZexYX1RK45EQgULRLdu3fpyCV
; d6PeTLpTi6wsXcU08+P0lGdTQY3N133rE3qvKgV6RntylHFbyGQ/iASRMpDvpCpBmQg/GWco2XfuLJ
; 7rpPesR5Va7e5iweh9GhhPOyyfUeymH2m1/DjV9DWMDTDLxQgacZ9MVRC9BdCCxnNYNajqr/rLAAPs
; B+IJHsbjkr92uQu5bj7OT5wH1y8wY3fo0qJYUNyOnsg5HsPlechg9KOZs22djOimm2dDPXkvUaou+5
; 9RqaclF6TA1n08LmwwLjb3Bo6JjoVwwLRO8XfZPpWanNV9tyKbmf1d0w0jZcY62csrt37CrdtlLOFp
; yWcDYBuQ8OOXjKzRvceBqcdf2R86pVHnYQt30p2uxqCM6q6m04ellNFNPSKtc+uVTMTWMm6it34S5d
; +bm3JsmojgaD+/xFn37bWyLoTlt8jxzE7SBr1/gMZ/XFebsfRJzuaqAcjLFRH9M27lXJYs6+OFuUGn
; E2zNAHNx8WGM/GsEAkz9sskJSM35bzikjJYe9Vyv19cNirsvFmBTsrISyAXWQ1GbQLhxuT8w6/87hI
; 7i/hZs60e+bp5ybJqI4Wg4uqPKw8z7PbcpwNC5RynozPbReQxtgn13hVs17mvRc+GJLjqBdxmqkSVe
; Fa7qzTTz0wSUZ1NBgcwgJeMbLd/Jeyu6cF6Oa/NZynBejuB31zjRrYpk2bfk6fOrXV3caNG/d6vu1Q
; HNd89my5Uo6K67xoMn6NKiXX+JjJKM97SwRyCDfZGrS2HNeGuS32LIe+1ZZrLIzC0FxYAA3GUcqVnA
; VnuVT4AA+klHvllVe+73GfXvKRqRtPOmaijOtINbhzF35g1nvDu8L7RVggdRYcudyZcaWcDQv0Ud2d
; 4hrr26KDItdMMzbUBybnHbuq3OrVq3+X4ngvy+nDUUWohLPfT7mLzjlj/7qLTnpnkgzsSDK4G1ac+M
; 4Fnzx91hqfng5mo0jBVg7vONIMunKqBfA71XDYql+5RlNPrGtmhQ31gT0OF23D8cvYglTGYDzOugz8
; ey235Z67X7/01OMOTpKRHQkGd97C903Ztba3uwCarsmt7D5XnPWW2nLTKmWUZQ8Y/rTd4zHFcc/Imu
; t50zI4jBAlR13VcLyvnebPPPGjU9ed9O6JMrZJNLhVC/5y6vRFx86stUv2oOQaH7J7ai/ItlxKxueR
; U8wW8dR0K/eXco2qKrbNyOmHwBIOYYHa63k/GF8ai05y0QOs5XimnXIQU1Yt/cC8wQ3ULj7hmKklh5
; 6xuv54b3gv6pUoh37FsEBqN+a+OGa+oAoFOZFRmIEcjK2Ua6JqWJXdo2pYT57vwmkhabTZZxsODzwK
; H4C777ab3rjljPdPhJs5KcZ215ob3rD5rOr6e9UgEaebXSnH44U9zUB3NYg43YXA2+zK47zQl3LTLi
; UtnzDObvN8WzR7c092txbdhVNlsS2npUPqMnjcaR87furKZe+dN7iO7bMnvGvWQR164L11/e0a33Kq
; 8KU472y5Gg6fpTibF4msJY+jYae4WdUCiJbbTX90aiSnmwN5HJqV+0u5VPgAxlHKRWEB22z4wMZo4G
; J+7uMfHOvwwTgbG4QR+5zxrkrk/lIOfYmbw/bN5eR+VgHkNn2NuJkZzsrznsvlcZ4roJyedqojVilH
; d6KUww7PUXjDzoQwds9VQVtx8uKDt1+8bCzDB+NoaDetWPzOp05bOmvEtzJ5VOWhXFRdohxk964cVX
; rlVAvwOE8zIAdx0OOaSJ7Xalj1lZXjRdVXjjj1gb0pfgguOvtOwxbktj54/6tXnbVo7FLCxs3YPvPx
; Dx+0WoCV+62XoZqBt2tADadawCg5DW/obgUe16TkdKp79uw2T32k3F/C4eY7d+7cNRdc6ffzOIQPxs
; nFHCdjO3PhR2Y8G8xOUB/hFkYyucdFKiU5uHsRR49lCI5yf6RmWs4O9h4HdbTJxa+snJ7iYHCW8zo0
; ORs3S3Gl1xvVfU/+2AlTly9937zB/blBGLEV2+gbWBfjOaPfRNUblkOYKMVByGC8TgtSlcsZsDWQHM
; c4XM4wSzg0co1mYhDwXMWhODsqaCFpFLao5TjaRpxmyERhC+xtedeNX9o31+GDuTa29ddets+u8dWl
; j8IvpZy6/lqQGnFRmKGU090K+uTwvQ8TTVSU0BlgrjgbtijhsGD1fGrl8M/ojDyNrVgOLuZXlr3nqD
; M4zGpnLPvYrFIUKw54snsth1zFvjh8ZjkrctRyXOOXcjzTbpZoYmEU5eVkd3Ilmw3VXK/kLDjLRdXd
; 4LDJkSf3t+UQT0mFD44Wg1O5X7P7vedH74EcOl8Jh1khxzE9K8VR7s9xdhOhHMfq7pLwgXKH1cMxsO
; ylqaS4lOxewiG2l+I4oqY4NHumXSnnuSrK4b5ROAKz3ajDB6M0tOvOPG7/iqXHz3oudNXxXOzen/r8
; rJwenaJrOaz9Uhxdf61f8wLQQ3E2gF/LNd5mKupK2VQs5TS2UsrpDmApTgtO1bVQjrNpWw5MjqObQA
; 7hg+s/uWBk4YNRGdsXlrz34JbNm16nsOHJ5NaVorARyem6xvc2//U4G2Pti4tSsewav2+u8Xxg/ZLb
; t2/fneJ4Uct5ScTkrOzehaNxl3K571fDoWORw39DblQFrqMwtrMXfuiw30t1z5O/KWzkOJtEDI4CSo
; qDu9cXh6Rk3jfa+wQcXEJeL+JgZKXc9FbnnotkQaR72d24Uhzl9BQHF4TyfCkXlfG0Lc+p4bwBBn9L
; ccjHHFpQGdLQIIycvOijs5YSVp6PBl6O8rmyG7RaLlV20+Z6OQ590943JffXcI1mYhDQDBQtSC3htB
; CUHPelrOE0BqP3jcIRer2unMraEYc9MDff9MXBwgdDGdsd1166z47S6vpH4RJ1/Us4uOpRlUeOi2T3
; Pjm732QXzrrWMzsvE8aXiWTyrpzOVMpFWyLYGAzuVbLFguV0RFYuOqtOH1YbDvmYQxS49m1oKBA9Z+
; kJs9Yh0VYHul5JyeRtOE9OJ2fX+LWcdf09zp4tZyeVGs5qAd6ZdrPCAnDjSmT8Us7K7im5H7J7SVjA
; cm1kfOXgJpVcD1zJGXT2epYbosC1T2PTAlEYBn4vskBScj+5XFigbw59xGb3Rxz6ZglnwwIpzlYBpM
; IHMC5uIuSGBdCsTO5lYigHo/NchlqOI0INF4UtLKdhgVJO13alHGXtFHfekmOnvnHOsb0omX0Y2pUn
; HnPw/KXHubI7Kpi5vZy3xh8nztMC6PrDiCj398FhMMhtp4fPMFjx+83aJs+Tv71qWI/zqmEjOT3FWX
; m5DUe535OrSzkvHDEE98/33vV6H+GDrsYGuZ/bjOO7WTmdrr8XBvHeUS1nNQPLsXYs4tSlV45u2yg4
; 70APb8mha/xwq3N7c56CGnG8+bZt26YzpqPNWTTMoD6wcrxeDRdtiV7CMRzRN2d/L/7WR4FrF2Pjfp
; BcQ+N38B173gC5xx577AXsBTJqzp61Vsp5S502HNT3FAebwOwINuI42M6EBTwXiSBuyMMychxl8ijM
; wPWfPVsu4pCh0ienZ4unOHs4SIrLhUvwN7gfvJ6KRl12DGtjaCsX/PUsuR8N3wnfj1n70ZlnN8vZbS
; kOz6VvjuurFGfl+YjDu6/hWLUdhQ9KORjiTFjAuj4EPHmenBc+QMsdQzU054U3bOYLVKM2nJ29Sjnr
; Cqe4T5191v5vX7vyzaEN7lvXfmFf9P3QGaLwhrr0pVxUlaEueN9cKhwxFAdjj8IbGGAtN+tARsrzkf
; xdw9mbzxVnjbVvTo21K3fh8pMO1LiYNcaGPEjbibzNf73OpqVNUWeLZHJwNnTkyeTkrGZQwuGfEafa
; QsTpOtNy1qgjjoN9xK1ateqPys0KC1h3KiX313B041KyeykHub+U8+T5tlwk9/fBWfkba7vSAtcSQ7
; MFoja8Qfcx+n42LJDjrJtZykXuNzjrZua41KY/+BsMg1wqux9c7mw5y1HujzgMphE3Y3Acbbdu3fqy
; 5zLUchwdOWLUcF44wo62JRyEgBRHV7iUwwI/Fbbok0M+Zi58kJP7mQep90UnQFV7FN6gqz5qjt5TDY
; c4L72tiIMRgYvW7nSFazjoEG25xpO1verVUXM2HKHZ5OqqgPOyzr3whpW/Pc5K4sp5YZBI/u76twe+
; fcfer5993IFag7vyEx8+cO+G2/dyTR7J6d4OWqPgPM1AXfq2HN1jL0ThufldOdUCdBcCj2s835ZTMm
; +E2p4ch8/acDqrtOEoYqhP3ZYjE3EUDjhLgYtmsy5cKnzgGRsLRHk9SNU8a827L4UIy3lLBMul5PRS
; jrOP5bwMoyE4yv38vTmu9HqlXBM9FHYuTLMl6zXlIr8aXIk8jyh9jkOr4Wz6WNfrQe6368mI0/SxNp
; wXPrCGZg/K0OthHRZVW5BjWCDFYXsErsNKuagqAw3PNreuQys9u025aH1ludQ6jFxuvQbOpnHluCba
; dFMLSUs5z7VA06zzFGezzks4/JgovGE5JLG24VTJI4fFe6RIduHUVUFD+GDdZee9pQa3+sJT3l5x6D
; N7PbrWer1IaVROlcEunFZ5qOsfhRnUpe+Ds33YyxTJcSlF0t5XOetaT4sm+iUjmVwvmoqRzQWnMRP1
; qfvi8P9Tcr+NYdpO3gd32YpT9sPFhLEhDzLiNHbYlbOdSLlITtedtjyZXI0V77Zvjv1HXWvlvN0PlI
; PxpDirGXi7HzQWhh9qsyy8qbGG06yNUXBDhyOiLHYru/fF0T0jR3cKBa5W7ifH7P7ITS/lKOOnsk88
; GT/i0JnJRW5XGy7lFpLLyf3k7JlxOY7uo5dVkuNmDA4WyDPePJcmxUV5jjwLznNBunLqqlgOHZTfzx
; NwajjK2qUcv1/N9bxwBEfRHMdRFBzPWivlLg+2A6DsnuPwDobgbFggxWHgj8IHQ3JIY0xx6MMR939T
; d9r2XCunKQAAAABJRU5ErkJggg==
; thumbnail end
;
; 

; external perimeters extrusion width = 4.00mm
; perimeters extrusion width = 4.00mm
; infill extrusion width = 4.00mm
; solid infill extrusion width = 4.00mm
; top infill extrusion width = 4.00mm
; first layer extrusion width = 4.00mm

M73 P0 R253
M201 X2500 Y2500 Z2500 E5000 ; sets maximum accelerations, mm/sec^2
M203 X500 Y500 Z500 E500 ; sets maximum feedrates, mm / sec
M204 P1250 R1250 T2500 ; sets acceleration (P, T) and retract acceleration (R), mm/sec^2
M205 X8.00 Y8.00 Z2.00 E10.00 ; sets the jerk limits, mm/sec
M205 S0 T0 ; sets the minimum extruding and travel feed rate, mm/sec
M107
;TYPE:Custom
M862.3 P "MINI" ; printer model check
G90 ; use absolute coordinates
M83 ; extruder relative mode
M104 S170 ; set extruder temp for bed leveling
M140 S60 ; set bed temp
M109 R170 ; wait for bed leveling temp
M190 S60 ; wait for bed temp
M204 T1250 ; set travel acceleration
G28 ; home all without mesh bed level
G29 ; mesh bed leveling 
M204 T2500 ; restore travel acceleration
M104 S225 ; set extruder temp
G92 E0
G1 Y-2 X179 F2400
G1 Z3 F720
M109 S225 ; wait for extruder temp

; intro line
G1 X170 F1000
G1 Z0.2 F720
G1 X110 E8 F900
G1 X40 E10 F700
G92 E0

M221 S95 ; set flow
G21 ; set units to millimeters
G90 ; use absolute coordinates
M83 ; use relative distances for extrusion
M900 K0.2 ; Filament gcode LA 1.5
; ; Filament gcode LA 1.0
M107
;LAYER_CHANGE
;Z:4
;HEIGHT:4
;BEFORE_LAYER_CHANGE
G92 E0.0
;4


G1 E-3 F2700
G1 Z.2 F30000
G1 Z4
;AFTER_LAYER_CHANGE
;4
G1 Z4.2
G1 X390.894 Y391.437
G1 Z4
G1 E3 F1200
M204 P800
;TYPE:Skirt/Brim
;WIDTH:4
G1 F71.62
G1 X392.628 Y390.071 E2.20755
G1 X395.5 Y389.358 E2.95897
G1 X495.5 Y389.358 E100
G1 X497.672 Y389.755 E2.20755
M73 P0 R251
G1 X499.563 Y390.894 E2.20755
G1 X500.929 Y392.628 E2.20755
G1 X501.642 Y395.5 E2.95897
G1 X501.642 Y495.5 E100
G1 X501.245 Y497.672 E2.20755
M73 P1 R250
G1 X500.106 Y499.563 E2.20755
G1 X498.372 Y500.929 E2.20755
G1 X495.5 Y501.642 E2.95897
G1 X395.5 Y501.642 E100
G1 X393.328 Y501.245 E2.20755
M73 P1 R248
G1 X391.437 Y500.106 E2.20755
G1 X390.071 Y498.372 E2.20755
G1 X389.358 Y495.5 E2.95897
G1 X389.358 Y395.5 E100
G1 X389.755 Y393.328 E2.20755
M73 P2 R247
G1 X390.585 Y391.951 E1.60755
M204 P1000
; printing object 20mm_cube.stl id:0 copy 0
G1 E-2.1 F2700
;WIPE_START
G1 F24000
G1 X392.628 Y390.071 E-.29678
G1 X395.5 Y389.358 E-.31624
G1 X397.764 Y389.358 E-.24198
;WIPE_END
G1 E-.045 F2700
G1 Z4.2 F30000
G1 X493.3 Y493.3
G1 Z4
G1 E3 F1200
M204 P800
;TYPE:External perimeter
;WIDTH:4
G1 F71.62
G1 X397.7 Y493.3 E95.59998
G1 X397.7 Y397.7 E95.59998
M73 P3 R245
G1 X493.3 Y397.7 E95.59998
M73 P3 R244
G1 X493.3 Y492.7 E94.99998
M204 P1000
M73 P4 R243
G1 E-2.1 F2700
;WIPE_START
M73 P4 R241
G1 F24000
G1 X485.3 Y492.75 E-.855
;WIPE_END
G1 E-.045 F2700
G1 Z4.2 F30000
G1 X486.09 Y398.485
G1 Z4
G1 E3 F1200
M204 P800
;TYPE:Solid infill
;WIDTH:4.03511
G1 F70.828
G1 X491.101 Y403.496 E7.16584
G1 X491.101 Y407.989 E4.54275
G1 X483.011 Y399.899 E11.56862
G1 X478.519 Y399.899 E4.54275
G1 X491.101 Y412.481 E17.99304
G1 X491.101 Y416.974 E4.54275
G1 X474.026 Y399.899 E24.41747
G1 X469.533 Y399.899 E4.54275
M73 P5 R240
G1 X491.101 Y421.467 E30.84189
G1 X491.101 Y425.959 E4.54275
G1 X465.041 Y399.899 E37.26631
G1 X460.548 Y399.899 E4.54275
M73 P5 R239
G1 X491.101 Y430.452 E43.69074
G1 X491.101 Y434.944 E4.54275
G1 X456.056 Y399.899 E50.11516
G1 X451.563 Y399.899 E4.54275
M73 P6 R238
G1 X491.101 Y439.437 E56.53959
G1 X491.101 Y443.929 E4.54275
M73 P6 R237
G1 X447.071 Y399.899 E62.96401
G1 X442.578 Y399.899 E4.54275
M73 P6 R236
G1 X491.101 Y448.422 E69.38843
G1 X491.101 Y452.914 E4.54275
M73 P7 R235
G1 X438.086 Y399.899 E75.81286
G1 X433.593 Y399.899 E4.54275
M73 P7 R234
G1 X491.101 Y457.407 E82.23728
G1 X491.101 Y461.899 E4.54275
M73 P8 R233
G1 X429.101 Y399.899 E88.6617
G1 X424.608 Y399.899 E4.54275
M73 P8 R231
G1 X491.101 Y466.392 E95.08613
G1 X491.101 Y470.885 E4.54275
M73 P9 R230
G1 X420.115 Y399.899 E101.51055
G1 X415.623 Y399.899 E4.54275
M73 P9 R229
G1 X491.101 Y475.377 E107.93497
M73 P9 R228
G1 X491.101 Y479.87 E4.54275
M73 P10 R227
G1 X411.13 Y399.899 E114.3594
G1 X406.638 Y399.899 E4.54275
M73 P10 R225
G1 X491.101 Y484.362 E120.78382
M73 P11 R225
G1 X491.101 Y488.855 E4.54275
M73 P11 R224
G1 X402.145 Y399.899 E127.20825
M73 P11 R223
G1 X399.899 Y399.899 E2.27133
M73 P12 R222
G1 X399.899 Y402.145 E2.27142
G1 X488.855 Y491.101 E127.20813
G1 X484.362 Y491.101 E4.54275
M73 P13 R220
G1 X399.899 Y406.638 E120.78371
G1 X399.899 Y411.13 E4.54275
M73 P13 R218
G1 X479.87 Y491.101 E114.35928
G1 X475.377 Y491.101 E4.54275
M73 P14 R216
G1 X399.899 Y415.623 E107.93486
G1 X399.899 Y420.116 E4.54275
M73 P15 R215
G1 X470.884 Y491.101 E101.51043
G1 X466.392 Y491.101 E4.54275
M73 P15 R213
G1 X399.899 Y424.608 E95.08601
G1 X399.899 Y429.101 E4.54275
M73 P16 R212
G1 X461.899 Y491.101 E88.66159
G1 X457.407 Y491.101 E4.54275
M73 P16 R211
G1 X399.899 Y433.593 E82.23716
G1 X399.899 Y438.086 E4.54275
M73 P17 R210
G1 X452.914 Y491.101 E75.81274
M73 P17 R209
G1 X448.422 Y491.101 E4.54275
M73 P17 R208
G1 X399.899 Y442.578 E69.38832
G1 X399.899 Y447.071 E4.54275
M73 P18 R207
G1 X443.929 Y491.101 E62.96389
G1 X439.437 Y491.101 E4.54275
M73 P18 R206
G1 X399.899 Y451.563 E56.53947
G1 X399.899 Y456.056 E4.54275
G1 X434.944 Y491.101 E50.11504
G1 X430.452 Y491.101 E4.54275
M73 P19 R205
G1 X399.899 Y460.548 E43.69062
G1 X399.899 Y465.041 E4.54275
M73 P19 R204
G1 X425.959 Y491.101 E37.2662
G1 X421.466 Y491.101 E4.54275
G1 X399.899 Y469.534 E30.84177
M73 P19 R203
G1 X399.899 Y474.026 E4.54275
G1 X416.974 Y491.101 E24.41735
G1 X412.481 Y491.101 E4.54275
G1 X399.899 Y478.519 E17.99292
G1 X399.899 Y483.011 E4.54275
M73 P20 R202
G1 X407.989 Y491.101 E11.5685
G1 X403.496 Y491.101 E4.54275
G1 X398.485 Y486.09 E7.16572
M204 P1000
; stop printing object 20mm_cube.stl id:0 copy 0
M106 S84.15
;LAYER_CHANGE
;Z:7
;HEIGHT:3
;BEFORE_LAYER_CHANGE
G92 E0.0
;7

A3 R1
A7 R0 X0 Y0 Z0
A1 R1
A2 R0