; generated by PrusaSlicer 2.5.0+win64 on 2023-02-27 at 11:12:53 UTC


;
; thumbnail begin 16x16 672
; iVBORw0KGgoAAAANSUhEUgAAABAAAAAQCAYAAAAf8/9hAAABvUlEQVR4AY2Ty0sCURTG/Usi6EFRFB
; Q9IAiCKOgFQRFBREQ1FLWp7CFCmmQKJSKoZSChUkhio6PNNGNqtShoFWaE1KJauShatcjFzWNcueMo
; OXA4l7n3+93vXM6RcRwXCKY/yDRNn8OaYRgWcnhvM8YaFU980MfBPziD97BGhoWCIPixGATX6rHk5W
; wLgggrRz5Yz1EEnxEB8ALfwO9r77GQjMh8eypk3ojDOdKFjCRGdLNv+cRkhBRDn6z/NOs4UwLYiy51
; f/8nJt1wDstttgT71mrcNlSLLqjmogCG/mqkX5x+EQGUneVI31uFApONBYX0RANa6yhDVGsJ2lmmnu
; EtMiUcaOSPAIBQdVUg52i9xA04BCEOw+pcIgvADsjYTdvkppqQMNOENN2VIrHEwaFOEcsFYDcLbaUS
; sQSQzwGOfGIRAB7Rd3Icsi6NvxYL2KaG388YHwu9kG2kkMD73Wb9nbqv7qcQYL69ImVRyx8ks0AOCe
; 12hU3UQDIXsD7Y9uVx2qNkK3u9Xl6WO12QeY4NOLTyuKqnJgVi0wqVCDD+vwvSgyeaBRABCeohnUD2
; OWxXLqvxBvZyJxYDfgHYamhvbpzoTgAAAABJRU5ErkJggg==
; thumbnail end
;

;
; thumbnail begin 220x124 13288
; iVBORw0KGgoAAAANSUhEUgAAANwAAAB8CAYAAAACRt5vAAAms0lEQVR4Ae2d27NdVZXG11/S1Rdpbe
; 82hYQkEhOQW0AgQiEFoqYjoFwUAYHQUsFghWCHSAgQbh1EgSYYgkHLYEjLpYEWO11qi11qpZqqtkoe
; eOAhVXnIw+l8R7/T43wZY17WZZ+9k2PVLPDsH2vtvdYcc475jTHmbM4///x3Nm/e/PqDDz746uWXX/
; 6HZcuWHTz99NMP3HnnnXu/853vvHTzzTf/dvHixVMeh3b77bf/soa79dZb30hx+BwcePx/cPwu119/
; /b6IO/vss/d34fD98Td8ht/fhsNnYPD7PM4+qxTH79yGw3e1HJo+A4/znpVyuGdbDveo4a6++uo3le
; Mz6MKhz5Vw6Jfoe+D4nS2HPlvLXXzxxW83+KO9+T333PMz/BNt5cqVb+FzNnvRvrmNGzfuxZfCv+NL
; Rty99977s744fH733Xe/jpfQF4f7ksPLG4I7/+RF0025++677985QOj18N+Ce/TRR1+MOHaQcebQh9
; pynBQ87uGHH/63FAejIoe+UMNhQOHA1FgYL+2FF17Y4XUC2+66667/IOf9WMu99NJLT+e4O+644xel
; XMl9a65nOT6Uttxtt932X6+88sr3h+S+ds7CqRe/ePzUc5ceP4V/P3nJ/3Pf+973XrCznTa8ePyOHI
; fPyNnOEnGPP/74T/vm7OzpcXv27PnBk08+uQczW1cOz5YcBreIw6AA7qmnnnoeRtWGmzY4TLEcRW+4
; 4Ybfc4rXh2M5fEnPtVAOhlvClV5POU7dqd/hcXQDwXmuxSg4zwVR7pZbbvlvcN99+IFXt129fD+Mzb
; Znr1m+/7EHNr9OjtfDNXg969Jbjm5YG47PFoMRZ9khOMwYluOzxWCOZ0gO7lotR6NUDn0o4nANegt0
; E2u4xnuo1lXhl1RfmRxdAV7U42j1HkcfOOLUV+7CwX1Qn5ocXYtRcNa1pgvCtazHXXrGwukZTY2N7a
; dXnnjw6rMWutfDNTyXXtfQpRx+o+eqD83x/w/BWW+OmgE4/D3idI1fyjWRL8qb33///a/u3r17Zx8c
; bg6/FtMtZ9CIw4jD6/XNRe4KOLhnQ3EUKJTDfxtxGz99Qmho2sDCxeSMgevBLUzdt4bbtWvXD+HupT
; i8+zacHZw9jm5hxKEzl3I/OvS/Ug5uIYWWPrjGc2ns7IAX8cwzzzznuSoRF/0QjJzgnn322R+Xcp4L
; UsthFMUiFj/Yc1XswKGcugw1HL4LOHSEyFUhh8/4O6ZH10vOe+eZf1hQbGxs//L5BVNfveDUA7we7u
; +5PnrfWk4FMMuhH/TF4dmCe+SRR17m7BRx6PR9cxBdSriHHnrolYij6g+uURfEjmh2tI04lat16uZN
; ++IimbwrpzJ5CYcHXsNZVyXi0H7wzSvfrDU0dTGf/MaVb16w4k/X0/AG7quuf47D91bOCi/q0kdhiz
; YcBgHLWW1BuShs0YbDIBCFLUo5ddUbNbCcPE9uw4YN/5mSyT3Ok79LORrOkJwnp9MgSjk8P9txazhI
; /ZihuhibbY9cssANH+S+H8MgGov1OLjqaH1yEE48V91ykPAjjgZBeb6W81xhy61bt+5XOQ7N42aFBT
; Zt2vRzyu7e1NiGo5ye4tCZyaXCETUc5fQUhwdMLlp3omFQKOVee+21p1LryYiD6NGXodnG8IH9HXDD
; c7J7DVci45dwMKaSsADeKfof1mEpDn2uhMPMU8pR7i/lNBwxExawcrXnWrTlVq9e/btaTmNEynkuiH
; Jr1679dcRZ+dtyGgZRmTwKW6isXcNB7n/0ijP3D2Fstj2+aslB3AszSBS2oHHgsyG4KAyS4nRNzs8o
; 45dweHeRZtCWizSDHNd4srZ1fQinOHvRNhwXzF44opTzZO02HIWNSCbXcEQkayvHNbDl4O79+EsnHh
; za2OzaDiEGjsI2bKGxUztal3B8DlzLRpxqAW046wrXcHatrWvWiNPUwq5c443sFoavDDUu8oHbcFDt
; Ih/Ycjt37tzVF4cfXcLhsxzHl5X7HSlu3fknTL04IkPThnsjfEAhAt+PYQFP5SWH95uS8Zm3meM405
; OjIBNxUEfh7mmMtQ/OU2W5xgfHbJG+uGRYgPI3Zfy+OGuYUUdVA05xuft614s6Vhsu1VF1gFl57mkH
; +hRG2jZ8B3wXuD74fngvqfBGDYfnkgsz4Bq5cARdenCU8btyNDgaeopDOIKG6YUt2nCNuj6EVCZX16
; ILhwdeyqmrEnFe2AJN5e8azgtbaNZ5xKn8jbbj9mv3zbWhqYuJ8MGqSy56OwpvqEtfw3lrd3XVo3BE
; 3xz6ETnPpSSnrn9U5eFxnmag3GGiyZo1a34Tyd/25jmONwcXydClnC0xgQKZkrVHwXmythVDtGQJ7t
; t9F50wNdcGFjWED85atmjW2t2KP6q0KWfFButhWE5FiYjDZ31xXLuXchRhchyygmq5GdHEwoiW5+R+
; cEjjylUVkMtl7ddwiA2VVAHYsEApl5L7SznEXSj3k/vMqYuSeZDj0vAdmY+Jd2rDAtHvRR+xMn6KQ3
; +p4dBJc1yuCqANl6sWAMc0rhTHsIByM4FvneHUZSCnM1yOW79+/S9SnA24l3JRmMFyGuBVjjJ0Hxya
; xz3y5RXvjLuhaUOIguEDvkNPBLMzVxtO19p01Ws4ziApDmvoFEdXGGvJUo4zZhuuiWRyja105TQG48
; nkytk1V8Tp2izHWdm4LWfDG56sfdHypQf3fOXkA5NkaLbtvnb5foYPdI0fyelDct7ajJwXtvBcf+Xs
; JJPjdImAplqA5azqr1zj+aJ68x07djyX4ihs5DjevE8Ond1ynlo4FLd9+/bdyrFAdNKbLXC1qmJK3R
; uSS6mA1ALI2cHe46gqlnBwCyOO2kKOo+c1nbysqoreGOs6yt8pDuuwXBxOZfIhuCgsoOU5Ka70epY7
; d/lpByA+TJJRlTT8pk+d9qfyoZJyGnKpuF4Np2VBqfia5TwDRqvluP5Lcbm4Hhpm5ek4nGZiELAyOX
; 5kKRdVw2rBaRSOUDm9T46ZK144QrkobOFx2//ppt9OkhHVNoQPENKwhZsaBlGXPgoflHLq0vfJ2cLS
; Eg59G5yt8og4XeNr5ktjXSRc9LrrrtsXyeSW09xH5fgZFo4Rp/625yt34VJbNpRyNrbicTUFokfCbG
; cLXPksUnK6XeNbzs5oQ3BWC7jmmmv+ZwhOC05VCyBnM19mhQWsPN+H3A8ZPyfP13Il97VVBZGMDw4y
; flsOeZBtCkQnvWFtR0EFHZ5hgZSMb6sAclxJWIAc3b2IU7m/L45yf8TZagHlDquHQ6f2MjF0hElxaF
; Ym91yQvrhInt+yZctrKY4jURvuW589ZWIVyL7a3StPOTBd6fDooy/aOjd9fnTBwXkZG1041q95ucBW
; ns/Vw3XhdI1PlR5rU49rMCV6crq3gaonk2uVqyeTD8FpOKINx1mylIPc/6OrPnHUGxsbwgda4Mq1vC
; enKxdVXrfhWOXhcTQYu8a379y6wm05O9inuMbzWa1VA/Tk73HgKGyQw7+nuG3btj2vPnUpd6TI/X03
; W+DKNT6eH9zCSCYn98QTT/wrko3tIO5xjz322As5Dn0EHO/rcVy7w3Us5TCT1nDeUsxyjaoqCsKFo5
; zeF8ddu0q5KByBUQQc5fmIw9+QoWJ3FSvhMFIu/8Syg+OcBzkujfmY3AUstWsXWskuYJw1rDxfynkD
; bxuOVdtdr8ddxdx9KTnLcJTHKFXD2UyMPjk7K2lGSxS2sNyqVav+WMN9d8OaNyCJT1LHn8uGZ/XUxj
; VvYJS3YRU7O3hyeo7Du+iDs+p7FN7IcVbub8MdFhZI7ZTcldMRSjnPB1YOP2YU3FwWiE560wJXldPV
; 9dd11xVXXPG/nuvfB6c7NJdydo3fhqNr3ag7ldu7HxwSkku5EhkfsnvJ9SyXkvGRxVAi93tc3ztnHa
; 0Nz5CCCsIHJXI/OiiWEaVcLiwADu5trlqglMPgDM7bHCjiMLDbwb6xPiY63tatW1/2MjaUg0zuZWIo
; R6Yvzt7XW8gyo6UNt/biebm/zwZBBc8U4QN0PoQP8Jy9tTtdenR6hhlyHE+n8Tjm9+Y4uqBtOE8LsJ
; wXLmk8+durho04jZl4Wd1eNWxfnA1bKBeFN5SDMIJDMSapM0+U4d1w7jsXfvK0A15VBp6/uvRDcaoZ
; 6G4FbTlOTPpdPK7xfGB2VsII9tVyOjsOwTFvE0FG9ZV1ile5n9xQ+0HONzE6U+DKNTSkdGQtRXL6KD
; hvCWM5JO+XcKXXaxhjiGRyK8+XcjbJUzlMx7ZavA8uF2bA3+zZcpw9j6Y8yHFpCLFAUMG7suu1SO4n
; lwsLgLPrsIhDX6rhuF5LcQwf6HrN45poE0+V3btymiWuBaklnFW2Ik7DDNYVxuIY3BP3btg7yQWik9
; 6QoYLwAd5FVOWhrn8Jh74XVXlo5kufHJYtURhElzUNjcZeNJLTSzndaUt9YDWaLpwaoZX7Pe6WFfOz
; 2jg0uJh4F0sWLzzMuDw53TNCchzsLWeNBnHViLOaQQmHf0acnqfubRLc2Isiy966Z97UWMrh5uBKZP
; wazmaflFzP7vH/8UMvd8NZfze157KPTlTnPFLb+jPePbV00YKZ94bwAbNPIvfMcszujzhmd/TNpdxH
; agv2zDg3LAAI4gOal4nRlkP5eSrMwMySp59++id9ct59YXD/ePK7ptaccszUU5/5yER1ziOpPfO5v5
; /66ol/NXXZgr+YMTi6/uikqOLXjA1dIoCDUDEXHPQKJmvkONUWGk8m99JUvM1ZPI6HzymnYQYvm9wL
; R6iv7En75HIhgFNOWnoQBsf2wHnvn5/tRtw2n/PeaUNjg8F5crqnBZRyuqmvDR904VhwqhyXK7qrgR
; e2aCI53cIYcUq4e+6552eeb6sc/do+ODAccayv7HF3f/vOvdbg0NYvf8/UD1ceO1GddhIbZrUbl/7N
; LGND27Dutl9GSxNqBpDT2Qe7cNQCajjK/d4ShhzCVzkOxgquSa3D0FkRLc+lXaHNFWfl/igsMMM9/5
; MfqMHRxfzuhR+aqA48SQ2ehBoa2wOb73o92iQKDR2YYYFSLpV2hVmIHIwlx/GQjlQal+WisAC5JrWf
; hy04LeFSCc0pzn7JNhwMLQpHWO7mG7/2e8/g2CCo7Fp13ER15nFuuy89bmrtqX8bGhva6uuucas37B
; IBgyWEkhqOBamWs6p6tNlVKUcjr+Ua3EBjHKlSnDac+spdOLgP6iura0FOd/aiaJJq84JKPw0u5FWL
; /jJpbFzDqRYQnblXw9mdtrxNgjkYeyU2NZzNaCnhGvsl4YfaIk1vajz7z3tQlnI5Gb+Gs1kl0ZG+4F
; AF4HElBjcvqHRvdx7yFHKGZg2OMwtl91T2icr4UdGnJ/f3wVm5P8XxzDjlGjuLUMb3Zpm2HG6syaBt
; OMxYykXbJIDDg1EXpMbg5gWV+hYJIyUGZ+V0nhkXbWtAjmfBpbY/qOFsWCDFIb8yFT5IcY0np3vVsG
; 04jlJe+EB95YhTH7gLp2GBkkZBZX62S7eUMJIzOHX9vb7GwbmW8zYWshv8tOU8zUB3K/C4JiWn2xNr
; +uB4c2SCeL5yitPs7xqOa81vrfvmr2oNbl5QSbcSYSTV1t16yxvRUoJrd8x4trYsxeW2uqvl0Lcijp
; qB5TxX2HKN1+lt27Rp089zZ8ah2WrxaBNZcrnNZms4u+lrKnyAdd3LP93zTFuD42z3xEUfniiDGLJt
; veCDrQ2tNCyAd4r3mwsLoI9wM9cUZzd9LeHgGqY4u+lrKhwBbrpaQDM2rC/KWQNSa4rjZ5bTaljLYZ
; t073jWPrjktuaZsEBpu3fF+456FxN5kF2NjWEBzdhgoweD2S3a1ryGo6dDLtIMLIet+ms5DQtYrvGq
; XNVXtq5ZxPEmXpXrkJw9g46xEMZglKsVTXKCytEYPrB5kH00LyygsVh23LacleetF9SF03TIUm5WWM
; Ae/RTJ7h7nTaPKRdNyWy6avsFhJNm5c+cu9an7NLijUVDRPMi+DI4DJvoS1OXckVjkcjI+Zj57lFR0
; 1FUtx6wSL3k+xzXWx6TsruqL+qIlHL40Fon2zLgUV3o9y3kPGn+DYdr7kuvb4KygciSHD9rI/W3CAj
; AyvF+GBXKHNFLujzo+3j3CV+SiwxJLOXuYY45DVQs5q3001gfmbBBVuZZyWkiqBakRF23iqRktNZyd
; 4ocyODvbTZIhlbS2cn+Nwanr71WD4P2SQ0txuguBt9lVxHmaAfovObqyHqcZLVqQCq6J5HR70TVr1v
; ymllPF0N7cyvjK2TADOM9Xbst1CQvUzHZHgosJub8vYaRENFE53a7dKUrkOHxWykG1LuGwF2rX69k8
; y2RYADCi5bmwgHKps+XsGW99yP01XNewQM1sN8mCSt/CSKrlwgK1Mn7JZq41XMmmr/bMuFxVQeNlbC
; xePFtO58zlcfj3Uo7T+tq1a38dhRksh9ElxUUzXMR59XBDtknMx6zJg+yjrbn5ht9Ga3crp3MG8Tgm
; s9dwnAlTHLSAFEcXF2tOy6m2YLnGZmLwouor2ynUcuoDexxunuO45irlvOxvL2yh3JBruKhNSj7mkM
; JIbg2nWoC3CwFa35xqAd6uBh5nJ5kcp7sazKiUWBjCAnfs2PGc54vqRUs5T55XDrNiKVdy34ibC4Oj
; iznO4YOhhZGcwdGjgicC9RFhgZRKSY4qYCnnqYrUFsjZwd42q1LCfWzLzdq1C9nSVk73/FFPdk9xuf
; iax3mG1Ac3VwbHNm75mF3zIPs0OPQNuIN4bwg7eRkbyjFeF3H2DDotSFUuZ+hoGq9rwzXWV2bJS1S9
; qgWi0eacQ3EMSmpBqvrK5NS1mGuD42w3DvmY2w6JOiUFoqMwOHX9o2qQUk53K9CC1IiLwgya0dKFay
; I53aalQAyJOBVX+uSwEPV8ZeXwmfrK6lrgs5uuv3bfXBsc21zmY45aGEm1666+4s2U7E4vJcqRHJLD
; ZzzTritHbaHJyfhwM3MyvnKpTYlKORs+6IsbVVigtI06H3OUcn9pQ1gAHdF7b/RaWC2A2SPFUe7vi2
; MVQJ9c42VsLF58uOyuhaYeh06d4pipgm3tovABfeAhuIfuv++1cTI4upijEFTmUhhJNdbDeTm5Vk7P
; 1a914VJyf9/cYRXfNsVKZXflMHWWclpwag3Q4zib9smNwxouakMJKhBGvn7o+uNobGinLVsy43JR2P
; DkdHZcu8bXvmZTwEbFWVdYtQXbJ8k1+mO2b9++2/NF23JWno/2KqnhcvdNceNscHa268vY+igQHbpR
; paRmgDP8oBZGsjvX7kgOJpfbg6RPDq4owwc5DhvJKjcrLID0LO7GFW2qCg4uXClnd+NKcZTx++L4/a
; yrMu4GZ2e7ri7mKPIg+zQ4NCvjRwOq5VK7dnEpUcPl7lt7PXK23KexPianTM3YUF+UU2Ybzt48xdmw
; QBsORwqpqzIpBsfZro2gMo7CSM7g1PWPqkE8ztMMLGf3h0yFD3KcVdW7cE0kp1sYP46cLkaVi7Y66M
; qpbKxcdFadjcF89ctXvTkpBsdWk485RIHo0O3qy1f9IZLTbR+h7I73mOLs2XJ2cNc1fhsu2qG5hsuG
; BeCelcju69ev/0XuLAByJddD4nIJh6yDkvtOc8HZAuPecvmYc5UH2UdjtYD33tBgaDa7P+LQ4e3ZAh
; FHeb6Es0cOp6oASjh4ZuAaL2PD+qLoyFu2bHktxTEA2IbzFp7keCpOX9w4hgVKWySojKvcX9rs6Tna
; WZnMDuNAyKlPzm67pxwLTnMcXd9SDmvExquG9WR3r8pVfeAazquG9bK6Pam2LTdJa7ioMXwwDnmQfT
; SGBaxb6cnpXjWInRS6cnQDSzndraCUa9hZCSNxFIC3OYvHqQ+sHIJ9KY55m5CDPR/YTt1duSPB4Djb
; jUMeZB/NhgXQ5+yZbN5SZxw4qPnREibHHRYWoIzvZWzQSEo5uHq2WjzF2TPDI07PFk9x3plxR4rBoU
; 2SUZUYHGcXrHNSh3lw1gDHdVgfnJXxIw6GyDO+azg7cc0KCzDYGJ21pgWiWpBawtmbR5x+Sc18KeGw
; iFZu3uDG0+DU9Y82pxqSQ5+PNrvSzJcobFHCNZGcrjdPye59czZ2oT5wF+7KL172h0kyqqPB4C77/C
; VveUsE1RYi2V01A8upcZHDP8lxsCen2gLiuR6nmkEplwwL4Obqxnmc5+6luBIZ33LRprQ1HMIMe36y
; 69lJMqqjweBYLRAtD1BGQ7cw2qSHnD3jLTpbrpTDIE63MOLoHdZwjZexYX1RK45EQgULRLdu3fpyCV
; d6PeTLpTi6wsXcU08+P0lGdTQY3N133rE3qvKgV6RntylHFbyGQ/iASRMpDvpCpBmQg/GWco2XfuLJ
; 7rpPesR5Va7e5iweh9GhhPOyyfUeymH2m1/DjV9DWMDTDLxQgacZ9MVRC9BdCCxnNYNajqr/rLAAPs
; B+IJHsbjkr92uQu5bj7OT5wH1y8wY3fo0qJYUNyOnsg5HsPlechg9KOZs22djOimm2dDPXkvUaou+5
; 9RqaclF6TA1n08LmwwLjb3Bo6JjoVwwLRO8XfZPpWanNV9tyKbmf1d0w0jZcY62csrt37CrdtlLOFp
; yWcDYBuQ8OOXjKzRvceBqcdf2R86pVHnYQt30p2uxqCM6q6m04ellNFNPSKtc+uVTMTWMm6it34S5d
; +bm3JsmojgaD+/xFn37bWyLoTlt8jxzE7SBr1/gMZ/XFebsfRJzuaqAcjLFRH9M27lXJYs6+OFuUGn
; E2zNAHNx8WGM/GsEAkz9sskJSM35bzikjJYe9Vyv19cNirsvFmBTsrISyAXWQ1GbQLhxuT8w6/87hI
; 7i/hZs60e+bp5ybJqI4Wg4uqPKw8z7PbcpwNC5RynozPbReQxtgn13hVs17mvRc+GJLjqBdxmqkSVe
; Fa7qzTTz0wSUZ1NBgcwgJeMbLd/Jeyu6cF6Oa/NZynBejuB31zjRrYpk2bfk6fOrXV3caNG/d6vu1Q
; HNd89my5Uo6K67xoMn6NKiXX+JjJKM97SwRyCDfZGrS2HNeGuS32LIe+1ZZrLIzC0FxYAA3GUcqVnA
; VnuVT4AA+klHvllVe+73GfXvKRqRtPOmaijOtINbhzF35g1nvDu8L7RVggdRYcudyZcaWcDQv0Ud2d
; 4hrr26KDItdMMzbUBybnHbuq3OrVq3+X4ngvy+nDUUWohLPfT7mLzjlj/7qLTnpnkgzsSDK4G1ac+M
; 4Fnzx91hqfng5mo0jBVg7vONIMunKqBfA71XDYql+5RlNPrGtmhQ31gT0OF23D8cvYglTGYDzOugz8
; ey235Z67X7/01OMOTpKRHQkGd97C903Ztba3uwCarsmt7D5XnPWW2nLTKmWUZQ8Y/rTd4zHFcc/Imu
; t50zI4jBAlR13VcLyvnebPPPGjU9ed9O6JMrZJNLhVC/5y6vRFx86stUv2oOQaH7J7ai/ItlxKxueR
; U8wW8dR0K/eXco2qKrbNyOmHwBIOYYHa63k/GF8ai05y0QOs5XimnXIQU1Yt/cC8wQ3ULj7hmKklh5
; 6xuv54b3gv6pUoh37FsEBqN+a+OGa+oAoFOZFRmIEcjK2Ua6JqWJXdo2pYT57vwmkhabTZZxsODzwK
; H4C777ab3rjljPdPhJs5KcZ215ob3rD5rOr6e9UgEaebXSnH44U9zUB3NYg43YXA2+zK47zQl3LTLi
; UtnzDObvN8WzR7c092txbdhVNlsS2npUPqMnjcaR87furKZe+dN7iO7bMnvGvWQR164L11/e0a33Kq
; 8KU472y5Gg6fpTibF4msJY+jYae4WdUCiJbbTX90aiSnmwN5HJqV+0u5VPgAxlHKRWEB22z4wMZo4G
; J+7uMfHOvwwTgbG4QR+5zxrkrk/lIOfYmbw/bN5eR+VgHkNn2NuJkZzsrznsvlcZ4roJyedqojVilH
; d6KUww7PUXjDzoQwds9VQVtx8uKDt1+8bCzDB+NoaDetWPzOp05bOmvEtzJ5VOWhXFRdohxk964cVX
; rlVAvwOE8zIAdx0OOaSJ7Xalj1lZXjRdVXjjj1gb0pfgguOvtOwxbktj54/6tXnbVo7FLCxs3YPvPx
; Dx+0WoCV+62XoZqBt2tADadawCg5DW/obgUe16TkdKp79uw2T32k3F/C4eY7d+7cNRdc6ffzOIQPxs
; nFHCdjO3PhR2Y8G8xOUB/hFkYyucdFKiU5uHsRR49lCI5yf6RmWs4O9h4HdbTJxa+snJ7iYHCW8zo0
; ORs3S3Gl1xvVfU/+2AlTly9937zB/blBGLEV2+gbWBfjOaPfRNUblkOYKMVByGC8TgtSlcsZsDWQHM
; c4XM4wSzg0co1mYhDwXMWhODsqaCFpFLao5TjaRpxmyERhC+xtedeNX9o31+GDuTa29ddets+u8dWl
; j8IvpZy6/lqQGnFRmKGU090K+uTwvQ8TTVSU0BlgrjgbtijhsGD1fGrl8M/ojDyNrVgOLuZXlr3nqD
; M4zGpnLPvYrFIUKw54snsth1zFvjh8ZjkrctRyXOOXcjzTbpZoYmEU5eVkd3Ilmw3VXK/kLDjLRdXd
; 4LDJkSf3t+UQT0mFD44Wg1O5X7P7vedH74EcOl8Jh1khxzE9K8VR7s9xdhOhHMfq7pLwgXKH1cMxsO
; ylqaS4lOxewiG2l+I4oqY4NHumXSnnuSrK4b5ROAKz3ajDB6M0tOvOPG7/iqXHz3oudNXxXOzen/r8
; rJwenaJrOaz9Uhxdf61f8wLQQ3E2gF/LNd5mKupK2VQs5TS2UsrpDmApTgtO1bVQjrNpWw5MjqObQA
; 7hg+s/uWBk4YNRGdsXlrz34JbNm16nsOHJ5NaVorARyem6xvc2//U4G2Pti4tSsewav2+u8Xxg/ZLb
; t2/fneJ4Uct5ScTkrOzehaNxl3K571fDoWORw39DblQFrqMwtrMXfuiw30t1z5O/KWzkOJtEDI4CSo
; qDu9cXh6Rk3jfa+wQcXEJeL+JgZKXc9FbnnotkQaR72d24Uhzl9BQHF4TyfCkXlfG0Lc+p4bwBBn9L
; ccjHHFpQGdLQIIycvOijs5YSVp6PBl6O8rmyG7RaLlV20+Z6OQ590943JffXcI1mYhDQDBQtSC3htB
; CUHPelrOE0BqP3jcIRer2unMraEYc9MDff9MXBwgdDGdsd1166z47S6vpH4RJ1/Us4uOpRlUeOi2T3
; Pjm732QXzrrWMzsvE8aXiWTyrpzOVMpFWyLYGAzuVbLFguV0RFYuOqtOH1YbDvmYQxS49m1oKBA9Z+
; kJs9Yh0VYHul5JyeRtOE9OJ2fX+LWcdf09zp4tZyeVGs5qAd6ZdrPCAnDjSmT8Us7K7im5H7J7SVjA
; cm1kfOXgJpVcD1zJGXT2epYbosC1T2PTAlEYBn4vskBScj+5XFigbw59xGb3Rxz6ZglnwwIpzlYBpM
; IHMC5uIuSGBdCsTO5lYigHo/NchlqOI0INF4UtLKdhgVJO13alHGXtFHfekmOnvnHOsb0omX0Y2pUn
; HnPw/KXHubI7Kpi5vZy3xh8nztMC6PrDiCj398FhMMhtp4fPMFjx+83aJs+Tv71qWI/zqmEjOT3FWX
; m5DUe535OrSzkvHDEE98/33vV6H+GDrsYGuZ/bjOO7WTmdrr8XBvHeUS1nNQPLsXYs4tSlV45u2yg4
; 70APb8mha/xwq3N7c56CGnG8+bZt26YzpqPNWTTMoD6wcrxeDRdtiV7CMRzRN2d/L/7WR4FrF2Pjfp
; BcQ+N38B173gC5xx577AXsBTJqzp61Vsp5S502HNT3FAebwOwINuI42M6EBTwXiSBuyMMychxl8ijM
; wPWfPVsu4pCh0ienZ4unOHs4SIrLhUvwN7gfvJ6KRl12DGtjaCsX/PUsuR8N3wnfj1n70ZlnN8vZbS
; kOz6VvjuurFGfl+YjDu6/hWLUdhQ9KORjiTFjAuj4EPHmenBc+QMsdQzU054U3bOYLVKM2nJ29Sjnr
; Cqe4T5191v5vX7vyzaEN7lvXfmFf9P3QGaLwhrr0pVxUlaEueN9cKhwxFAdjj8IbGGAtN+tARsrzkf
; xdw9mbzxVnjbVvTo21K3fh8pMO1LiYNcaGPEjbibzNf73OpqVNUWeLZHJwNnTkyeTkrGZQwuGfEafa
; QsTpOtNy1qgjjoN9xK1ateqPys0KC1h3KiX313B041KyeykHub+U8+T5tlwk9/fBWfkba7vSAtcSQ7
; MFoja8Qfcx+n42LJDjrJtZykXuNzjrZua41KY/+BsMg1wqux9c7mw5y1HujzgMphE3Y3Acbbdu3fqy
; 5zLUchwdOWLUcF44wo62JRyEgBRHV7iUwwI/Fbbok0M+Zi58kJP7mQep90UnQFV7FN6gqz5qjt5TDY
; c4L72tiIMRgYvW7nSFazjoEG25xpO1verVUXM2HKHZ5OqqgPOyzr3whpW/Pc5K4sp5YZBI/u76twe+
; fcfer5993IFag7vyEx8+cO+G2/dyTR7J6d4OWqPgPM1AXfq2HN1jL0ThufldOdUCdBcCj2s835ZTMm
; +E2p4ch8/acDqrtOEoYqhP3ZYjE3EUDjhLgYtmsy5cKnzgGRsLRHk9SNU8a827L4UIy3lLBMul5PRS
; jrOP5bwMoyE4yv38vTmu9HqlXBM9FHYuTLMl6zXlIr8aXIk8jyh9jkOr4Wz6WNfrQe6368mI0/SxNp
; wXPrCGZg/K0OthHRZVW5BjWCDFYXsErsNKuagqAw3PNreuQys9u025aH1ludQ6jFxuvQbOpnHluCba
; dFMLSUs5z7VA06zzFGezzks4/JgovGE5JLG24VTJI4fFe6RIduHUVUFD+GDdZee9pQa3+sJT3l5x6D
; N7PbrWer1IaVROlcEunFZ5qOsfhRnUpe+Ds33YyxTJcSlF0t5XOetaT4sm+iUjmVwvmoqRzQWnMRP1
; qfvi8P9Tcr+NYdpO3gd32YpT9sPFhLEhDzLiNHbYlbOdSLlITtedtjyZXI0V77Zvjv1HXWvlvN0PlI
; PxpDirGXi7HzQWhh9qsyy8qbGG06yNUXBDhyOiLHYru/fF0T0jR3cKBa5W7ifH7P7ITS/lKOOnsk88
; GT/i0JnJRW5XGy7lFpLLyf3k7JlxOY7uo5dVkuNmDA4WyDPePJcmxUV5jjwLznNBunLqqlgOHZTfzx
; NwajjK2qUcv1/N9bxwBEfRHMdRFBzPWivlLg+2A6DsnuPwDobgbFggxWHgj8IHQ3JIY0xx6MMR939T
; d9r2XCunKQAAAABJRU5ErkJggg==
; thumbnail end
;
; 

; external perimeters extrusion width = 4.00mm
; perimeters extrusion width = 4.00mm
; infill extrusion width = 4.00mm
; solid infill extrusion width = 4.00mm
; top infill extrusion width = 4.00mm
; first layer extrusion width = 4.00mm

M73 P0 R253
M201 X2500 Y2500 Z2500 E5000 ; sets maximum accelerations, mm/sec^2
M203 X500 Y500 Z500 E500 ; sets maximum feedrates, mm / sec
M204 P1250 R1250 T2500 ; sets acceleration (P, T) and retract acceleration (R), mm/sec^2
M205 X8.00 Y8.00 Z2.00 E10.00 ; sets the jerk limits, mm/sec
M205 S0 T0 ; sets the minimum extruding and travel feed rate, mm/sec
M107
;TYPE:Custom
M862.3 P "MINI" ; printer model check
G90 ; use absolute coordinates
M83 ; extruder relative mode
M104 S170 ; set extruder temp for bed leveling
M140 S60 ; set bed temp
M109 R170 ; wait for bed leveling temp
M190 S60 ; wait for bed temp
M204 T1250 ; set travel acceleration
G28 ; home all without mesh bed level
G29 ; mesh bed leveling 
M204 T2500 ; restore travel acceleration
M104 S225 ; set extruder temp
G92 E0
G1 Y-2 X179 F2400
G1 Z3 F720
M109 S225 ; wait for extruder temp

; intro line
G1 X170 F1000
G1 Z0.2 F720
G1 X110 E8 F900
G1 X40 E10 F700
G92 E0

M221 S95 ; set flow
G21 ; set units to millimeters
G90 ; use absolute coordinates
M83 ; use relative distances for extrusion
M900 K0.2 ; Filament gcode LA 1.5
; ; Filament gcode LA 1.0
M107
;LAYER_CHANGE
;Z:4
;HEIGHT:4
;BEFORE_LAYER_CHANGE
G92 E0.0
;4


G1 E-3 F2700
G1 Z.2 F30000
G1 Z4
;AFTER_LAYER_CHANGE
;4
G1 Z4.2
G1 X390.894 Y391.437
G1 Z4
G1 E3 F1200
M204 P800
;TYPE:Skirt/Brim
;WIDTH:4
G1 F71.62
G1 X392.628 Y390.071 E2.20755
G1 X395.5 Y389.358 E2.95897
G1 X495.5 Y389.358 E100
G1 X497.672 Y389.755 E2.20755
M73 P0 R251
G1 X499.563 Y390.894 E2.20755
G1 X500.929 Y392.628 E2.20755
G1 X501.642 Y395.5 E2.95897
G1 X501.642 Y495.5 E100
G1 X501.245 Y497.672 E2.20755
M73 P1 R250
G1 X500.106 Y499.563 E2.20755
G1 X498.372 Y500.929 E2.20755
G1 X495.5 Y501.642 E2.95897
G1 X395.5 Y501.642 E100
G1 X393.328 Y501.245 E2.20755
M73 P1 R248
G1 X391.437 Y500.106 E2.20755
G1 X390.071 Y498.372 E2.20755
G1 X389.358 Y495.5 E2.95897
G1 X389.358 Y395.5 E100
G1 X389.755 Y393.328 E2.20755
M73 P2 R247
G1 X390.585 Y391.951 E1.60755
M204 P1000
; printing object 20mm_cube.stl id:0 copy 0
G1 E-2.1 F2700
;WIPE_START
G1 F24000
G1 X392.628 Y390.071 E-.29678
G1 X395.5 Y389.358 E-.31624
G1 X397.764 Y389.358 E-.24198
;WIPE_END
G1 E-.045 F2700
G1 Z4.2 F30000
G1 X493.3 Y493.3
G1 Z4
G1 E3 F1200
M204 P800
;TYPE:External perimeter
;WIDTH:4
G1 F71.62
G1 X397.7 Y493.3 E95.59998
G1 X397.7 Y397.7 E95.59998
M73 P3 R245
G1 X493.3 Y397.7 E95.59998
M73 P3 R244
G1 X493.3 Y492.7 E94.99998
M204 P1000
M73 P4 R243
G1 E-2.1 F2700
;WIPE_START
M73 P4 R241
G1 F24000
G1 X485.3 Y492.75 E-.855
;WIPE_END
G1 E-.045 F2700
G1 Z4.2 F30000
G1 X486.09 Y398.485
G1 Z4
G1 E3 F1200
M204 P800
;TYPE:Solid infill
;WIDTH:4.03511
G1 F70.828
G1 X491.101 Y403.496 E7.16584
G1 X491.101 Y407.989 E4.54275
G1 X483.011 Y399.899 E11.56862
G1 X478.519 Y399.899 E4.54275
G1 X491.101 Y412.481 E17.99304
G1 X491.101 Y416.974 E4.54275
G1 X474.026 Y399.899 E24.41747
G1 X469.533 Y399.899 E4.54275
M73 P5 R240
G1 X491.101 Y421.467 E30.84189
G1 X491.101 Y425.959 E4.54275
G1 X465.041 Y399.899 E37.26631
G1 X460.548 Y399.899 E4.54275
M73 P5 R239
G1 X491.101 Y430.452 E43.69074
G1 X491.101 Y434.944 E4.54275
G1 X456.056 Y399.899 E50.11516
G1 X451.563 Y399.899 E4.54275
M73 P6 R238
G1 X491.101 Y439.437 E56.53959
G1 X491.101 Y443.929 E4.54275
M73 P6 R237
G1 X447.071 Y399.899 E62.96401
G1 X442.578 Y399.899 E4.54275
M73 P6 R236
G1 X491.101 Y448.422 E69.38843
G1 X491.101 Y452.914 E4.54275
M73 P7 R235
G1 X438.086 Y399.899 E75.81286
G1 X433.593 Y399.899 E4.54275
M73 P7 R234
G1 X491.101 Y457.407 E82.23728
G1 X491.101 Y461.899 E4.54275
M73 P8 R233
G1 X429.101 Y399.899 E88.6617
G1 X424.608 Y399.899 E4.54275
M73 P8 R231
G1 X491.101 Y466.392 E95.08613
G1 X491.101 Y470.885 E4.54275
M73 P9 R230
G1 X420.115 Y399.899 E101.51055
G1 X415.623 Y399.899 E4.54275
M73 P9 R229
G1 X491.101 Y475.377 E107.93497
M73 P9 R228
G1 X491.101 Y479.87 E4.54275
M73 P10 R227
G1 X411.13 Y399.899 E114.3594
G1 X406.638 Y399.899 E4.54275
M73 P10 R225
G1 X491.101 Y484.362 E120.78382
M73 P11 R225
G1 X491.101 Y488.855 E4.54275
M73 P11 R224
G1 X402.145 Y399.899 E127.20825
M73 P11 R223
G1 X399.899 Y399.899 E2.27133
M73 P12 R222
G1 X399.899 Y402.145 E2.27142
G1 X488.855 Y491.101 E127.20813
G1 X484.362 Y491.101 E4.54275
M73 P13 R220
G1 X399.899 Y406.638 E120.78371
G1 X399.899 Y411.13 E4.54275
M73 P13 R218
G1 X479.87 Y491.101 E114.35928
G1 X475.377 Y491.101 E4.54275
M73 P14 R216
G1 X399.899 Y415.623 E107.93486
G1 X399.899 Y420.116 E4.54275
M73 P15 R215
G1 X470.884 Y491.101 E101.51043
G1 X466.392 Y491.101 E4.54275
M73 P15 R213
G1 X399.899 Y424.608 E95.08601
G1 X399.899 Y429.101 E4.54275
M73 P16 R212
G1 X461.899 Y491.101 E88.66159
G1 X457.407 Y491.101 E4.54275
M73 P16 R211
G1 X399.899 Y433.593 E82.23716
G1 X399.899 Y438.086 E4.54275
M73 P17 R210
G1 X452.914 Y491.101 E75.81274
M73 P17 R209
G1 X448.422 Y491.101 E4.54275
M73 P17 R208
G1 X399.899 Y442.578 E69.38832
G1 X399.899 Y447.071 E4.54275
M73 P18 R207
G1 X443.929 Y491.101 E62.96389
G1 X439.437 Y491.101 E4.54275
M73 P18 R206
G1 X399.899 Y451.563 E56.53947
G1 X399.899 Y456.056 E4.54275
G1 X434.944 Y491.101 E50.11504
G1 X430.452 Y491.101 E4.54275
M73 P19 R205
G1 X399.899 Y460.548 E43.69062
G1 X399.899 Y465.041 E4.54275
M73 P19 R204
G1 X425.959 Y491.101 E37.2662
G1 X421.466 Y491.101 E4.54275
G1 X399.899 Y469.534 E30.84177
M73 P19 R203
G1 X399.899 Y474.026 E4.54275
G1 X416.974 Y491.101 E24.41735
G1 X412.481 Y491.101 E4.54275
G1 X399.899 Y478.519 E17.99292
G1 X399.899 Y483.011 E4.54275
M73 P20 R202
G1 X407.989 Y491.101 E11.5685
G1 X403.496 Y491.101 E4.54275
G1 X398.485 Y486.09 E7.16572
M204 P1000
; stop printing object 20mm_cube.stl id:0 copy 0
M106 S84.15
;LAYER_CHANGE
;Z:7
;HEIGHT:3
;BEFORE_LAYER_CHANGE
G92 E0.0
;7


G1 E-2.1 F2700
;WIPE_START
G1 F24000
G1 X403.496 Y491.101 E-.75737
G1 X404.41 Y491.101 E-.09763
;WIPE_END
G1 E-.045 F2700
G1 Z4.2 F30000
G1 Z7
;AFTER_LAYER_CHANGE
;7
G1 Z7.2
G1 X404.41 Y501.642
G1 Z7
G1 E3 F1200
;TYPE:Skirt/Brim
;WIDTH:4
G1 F89.387
G1 X395.5 Y501.642 E7.13882
G1 X393.328 Y501.245 E1.76876
G1 X391.437 Y500.106 E1.76876
G1 X390.071 Y498.372 E1.76876
G1 X389.358 Y495.5 E2.37082
G1 X389.358 Y395.5 E80.12324
G1 X389.755 Y393.328 E1.76876
M73 P20 R201
G1 X390.894 Y391.437 E1.76876
G1 X392.628 Y390.071 E1.76876
G1 X395.5 Y389.358 E2.37082
G1 X495.5 Y389.358 E80.12324
G1 X497.672 Y389.755 E1.76876
M73 P21 R199
G1 X499.563 Y390.894 E1.76876
G1 X500.929 Y392.628 E1.76876
G1 X501.642 Y395.5 E2.37082
G1 X501.642 Y495.5 E80.12324
G1 X501.245 Y497.672 E1.76876
M73 P21 R198
G1 X500.106 Y499.563 E1.76876
G1 X498.372 Y500.929 E1.76876
G1 X495.5 Y501.642 E2.37082
G1 X405.01 Y501.642 E72.50369
; printing object 20mm_cube.stl id:0 copy 0
G1 E-2.1 F2700
;WIPE_START
M73 P22 R197
G1 F24000
G1 X397.01 Y501.642 E-.855
;WIPE_END
G1 E-.045 F2700
G1 Z7.2 F30000
G1 X493.5 Y493.5
G1 Z7
G1 E3 F1200
M204 P800
;TYPE:External perimeter
;WIDTH:4
G1 F89.387
G1 X397.5 Y493.5 E76.9183
G1 X397.5 Y397.5 E76.9183
M73 P22 R196
G1 X493.5 Y397.5 E76.9183
M73 P22 R195
G1 X493.5 Y492.9 E76.43756
M204 P1000
; stop printing object 20mm_cube.stl id:0 copy 0
M106 S170.85
;LAYER_CHANGE
;Z:10
;HEIGHT:3
;BEFORE_LAYER_CHANGE
G92 E0.0
;10


M73 P23 R194
G1 E-2.1 F2700
;WIPE_START
M73 P23 R193
G1 F24000
G1 X485.5 Y492.95 E-.855
;WIPE_END
G1 E-.045 F2700
G1 Z7.2 F30000
G1 Z10
;AFTER_LAYER_CHANGE
;10
; printing object 20mm_cube.stl id:0 copy 0
G1 Z10.2
G1 X493.5 Y493.5
G1 Z10
G1 E3 F1200
M204 P800
G1 F89.387
G1 X397.5 Y493.5 E76.9183
G1 X397.5 Y397.5 E76.9183
M73 P24 R192
G1 X493.5 Y397.5 E76.9183
M73 P24 R191
G1 X493.5 Y492.9 E76.43756
M204 P1000
; stop printing object 20mm_cube.stl id:0 copy 0
M106 S255
;LAYER_CHANGE
;Z:13
;HEIGHT:3
;BEFORE_LAYER_CHANGE
G92 E0.0
;13


M73 P25 R190
G1 E-2.1 F2700
;WIPE_START
M73 P25 R188
G1 F24000
G1 X485.5 Y492.95 E-.855
;WIPE_END
G1 E-.045 F2700
G1 Z10.2 F30000
G1 Z13
;AFTER_LAYER_CHANGE
;13
; printing object 20mm_cube.stl id:0 copy 0
G1 Z13.2
G1 X493.5 Y493.5
G1 Z13
G1 E3 F1200
M204 P800
G1 F89.387
G1 X397.5 Y493.5 E76.9183
G1 X397.5 Y397.5 E76.9183
M73 P25 R187
G1 X493.5 Y397.5 E76.9183
M73 P26 R186
G1 X493.5 Y492.9 E76.43756
M204 P1000
; stop printing object 20mm_cube.stl id:0 copy 0
;LAYER_CHANGE
;Z:16
;HEIGHT:3
;BEFORE_LAYER_CHANGE
G92 E0.0
;16


M73 P26 R185
G1 E-2.1 F2700
;WIPE_START
M73 P27 R184
G1 F24000
G1 X485.5 Y492.95 E-.855
;WIPE_END
G1 E-.045 F2700
G1 Z13.2 F30000
G1 Z16
;AFTER_LAYER_CHANGE
;16
; printing object 20mm_cube.stl id:0 copy 0
G1 Z16.2
G1 X493.5 Y493.5
G1 Z16
G1 E3 F1200
M204 P800
G1 F89.387
G1 X397.5 Y493.5 E76.9183
G1 X397.5 Y397.5 E76.9183
M73 P27 R183
G1 X493.5 Y397.5 E76.9183
M73 P28 R182
G1 X493.5 Y492.9 E76.43756
M204 P1000
; stop printing object 20mm_cube.stl id:0 copy 0
;LAYER_CHANGE
;Z:19
;HEIGHT:3
;BEFORE_LAYER_CHANGE
G92 E0.0
;19


M73 P28 R181
G1 E-2.1 F2700
;WIPE_START
M73 P28 R180
G1 F24000
G1 X485.5 Y492.95 E-.855
;WIPE_END
G1 E-.045 F2700
G1 Z16.2 F30000
G1 Z19
;AFTER_LAYER_CHANGE
;19
; printing object 20mm_cube.stl id:0 copy 0
G1 Z19.2
G1 X493.5 Y493.5
G1 Z19
G1 E3 F1200
M204 P800
G1 F89.387
G1 X397.5 Y493.5 E76.9183
G1 X397.5 Y397.5 E76.9183
M73 P29 R179
G1 X493.5 Y397.5 E76.9183
M73 P29 R178
G1 X493.5 Y492.9 E76.43756
M204 P1000
; stop printing object 20mm_cube.stl id:0 copy 0
;LAYER_CHANGE
;Z:22
;HEIGHT:3
;BEFORE_LAYER_CHANGE
G92 E0.0
;22


M73 P30 R177
G1 E-2.1 F2700
;WIPE_START
M73 P30 R176
G1 F24000
G1 X485.5 Y492.95 E-.855
;WIPE_END
G1 E-.045 F2700
G1 Z19.2 F30000
G1 Z22
;AFTER_LAYER_CHANGE
;22
; printing object 20mm_cube.stl id:0 copy 0
G1 Z22.2
G1 X493.5 Y493.5
G1 Z22
G1 E3 F1200
M204 P800
G1 F89.387
G1 X397.5 Y493.5 E76.9183
G1 X397.5 Y397.5 E76.9183
M73 P31 R174
G1 X493.5 Y397.5 E76.9183
M73 P31 R173
G1 X493.5 Y492.9 E76.43756
M204 P1000
; stop printing object 20mm_cube.stl id:0 copy 0
;LAYER_CHANGE
;Z:25
;HEIGHT:3
;BEFORE_LAYER_CHANGE
G92 E0.0
;25


M73 P31 R172
G1 E-2.1 F2700
;WIPE_START
M73 P32 R171
G1 F24000
G1 X485.5 Y492.95 E-.855
;WIPE_END
G1 E-.045 F2700
G1 Z22.2 F30000
G1 Z25
;AFTER_LAYER_CHANGE
;25
; printing object 20mm_cube.stl id:0 copy 0
G1 Z25.2
G1 X493.5 Y493.5
G1 Z25
G1 E3 F1200
M204 P800
G1 F89.387
G1 X397.5 Y493.5 E76.9183
G1 X397.5 Y397.5 E76.9183
M73 P32 R170
G1 X493.5 Y397.5 E76.9183
M73 P33 R169
G1 X493.5 Y492.9 E76.43756
M204 P1000
; stop printing object 20mm_cube.stl id:0 copy 0
;LAYER_CHANGE
;Z:28
;HEIGHT:3
;BEFORE_LAYER_CHANGE
G92 E0.0
;28


M73 P33 R168
G1 E-2.1 F2700
;WIPE_START
M73 P33 R167
G1 F24000
G1 X485.5 Y492.95 E-.855
;WIPE_END
G1 E-.045 F2700
M73 P34 R167
G1 Z25.2 F30000
G1 Z28
;AFTER_LAYER_CHANGE
;28
; printing object 20mm_cube.stl id:0 copy 0
G1 Z28.2
G1 X493.5 Y493.5
G1 Z28
G1 E3 F1200
M204 P800
G1 F89.387
G1 X397.5 Y493.5 E76.9183
G1 X397.5 Y397.5 E76.9183
M73 P34 R166
G1 X493.5 Y397.5 E76.9183
M73 P34 R165
G1 X493.5 Y492.9 E76.43756
M204 P1000
; stop printing object 20mm_cube.stl id:0 copy 0
;LAYER_CHANGE
;Z:31
;HEIGHT:3
;BEFORE_LAYER_CHANGE
G92 E0.0
;31


M73 P35 R164
G1 E-2.1 F2700
;WIPE_START
M73 P35 R163
G1 F24000
G1 X485.5 Y492.95 E-.855
;WIPE_END
G1 E-.045 F2700
G1 Z28.2 F30000
G1 Z31
;AFTER_LAYER_CHANGE
;31
; printing object 20mm_cube.stl id:0 copy 0
G1 Z31.2
G1 X493.5 Y493.5
G1 Z31
G1 E3 F1200
M204 P800
G1 F89.387
G1 X397.5 Y493.5 E76.9183
G1 X397.5 Y397.5 E76.9183
M73 P36 R162
G1 X493.5 Y397.5 E76.9183
M73 P36 R160
G1 X493.5 Y492.9 E76.43756
M204 P1000
; stop printing object 20mm_cube.stl id:0 copy 0
;LAYER_CHANGE
;Z:34
;HEIGHT:3
;BEFORE_LAYER_CHANGE
G92 E0.0
;34


M73 P36 R159
G1 E-2.1 F2700
;WIPE_START
M73 P37 R158
G1 F24000
G1 X485.5 Y492.95 E-.855
;WIPE_END
G1 E-.045 F2700
G1 Z31.2 F30000
G1 Z34
;AFTER_LAYER_CHANGE
;34
; printing object 20mm_cube.stl id:0 copy 0
G1 Z34.2
G1 X493.5 Y493.5
G1 Z34
G1 E3 F1200
M204 P800
G1 F89.387
G1 X397.5 Y493.5 E76.9183
G1 X397.5 Y397.5 E76.9183
M73 P37 R157
G1 X493.5 Y397.5 E76.9183
M73 P38 R156
G1 X493.5 Y492.9 E76.43756
M204 P1000
; stop printing object 20mm_cube.stl id:0 copy 0
;LAYER_CHANGE
;Z:37
;HEIGHT:3
;BEFORE_LAYER_CHANGE
G92 E0.0
;37


M73 P38 R155
G1 E-2.1 F2700
;WIPE_START
M73 P39 R154
G1 F24000
G1 X485.5 Y492.95 E-.855
;WIPE_END
G1 E-.045 F2700
G1 Z34.2 F30000
G1 Z37
;AFTER_LAYER_CHANGE
;37
; printing object 20mm_cube.stl id:0 copy 0
G1 Z37.2
G1 X493.5 Y493.5
G1 Z37
G1 E3 F1200
M204 P800
G1 F89.387
G1 X397.5 Y493.5 E76.9183
G1 X397.5 Y397.5 E76.9183
M73 P39 R153
G1 X493.5 Y397.5 E76.9183
M73 P39 R152
G1 X493.5 Y492.9 E76.43756
M204 P1000
; stop printing object 20mm_cube.stl id:0 copy 0
;LAYER_CHANGE
;Z:40
;HEIGHT:3
;BEFORE_LAYER_CHANGE
G92 E0.0
;40


M73 P40 R151
G1 E-2.1 F2700
;WIPE_START
M73 P40 R150
G1 F24000
G1 X485.5 Y492.95 E-.855
;WIPE_END
G1 E-.045 F2700
G1 Z37.2 F30000
G1 Z40
;AFTER_LAYER_CHANGE
;40
; printing object 20mm_cube.stl id:0 copy 0
G1 Z40.2
G1 X493.5 Y493.5
G1 Z40
G1 E3 F1200
M204 P800
G1 F89.387
G1 X397.5 Y493.5 E76.9183
G1 X397.5 Y397.5 E76.9183
M73 P41 R149
G1 X493.5 Y397.5 E76.9183
M73 P41 R148
G1 X493.5 Y492.9 E76.43756
M204 P1000
; stop printing object 20mm_cube.stl id:0 copy 0
;LAYER_CHANGE
;Z:43
;HEIGHT:3
;BEFORE_LAYER_CHANGE
G92 E0.0
;43


M73 P42 R147
G1 E-2.1 F2700
;WIPE_START
M73 P42 R145
G1 F24000
G1 X485.5 Y492.95 E-.855
;WIPE_END
G1 E-.045 F2700
G1 Z40.2 F30000
G1 Z43
;AFTER_LAYER_CHANGE
;43
; printing object 20mm_cube.stl id:0 copy 0
G1 Z43.2
G1 X493.5 Y493.5
G1 Z43
G1 E3 F1200
M204 P800
G1 F89.387
G1 X397.5 Y493.5 E76.9183
G1 X397.5 Y397.5 E76.9183
M73 P42 R144
G1 X493.5 Y397.5 E76.9183
M73 P43 R143
G1 X493.5 Y492.9 E76.43756
M204 P1000
; stop printing object 20mm_cube.stl id:0 copy 0
;LAYER_CHANGE
;Z:46
;HEIGHT:3
;BEFORE_LAYER_CHANGE
G92 E0.0
;46


M73 P43 R142
G1 E-2.1 F2700
;WIPE_START
M73 P44 R141
G1 F24000
G1 X485.5 Y492.95 E-.855
;WIPE_END
G1 E-.045 F2700
G1 Z43.2 F30000
G1 Z46
;AFTER_LAYER_CHANGE
;46
; printing object 20mm_cube.stl id:0 copy 0
G1 Z46.2
G1 X493.5 Y493.5
G1 Z46
G1 E3 F1200
M204 P800
G1 F89.387
G1 X397.5 Y493.5 E76.9183
G1 X397.5 Y397.5 E76.9183
M73 P44 R140
G1 X493.5 Y397.5 E76.9183
M73 P45 R139
G1 X493.5 Y492.9 E76.43756
M204 P1000
; stop printing object 20mm_cube.stl id:0 copy 0
;LAYER_CHANGE
;Z:49
;HEIGHT:3
;BEFORE_LAYER_CHANGE
G92 E0.0
;49


M73 P45 R138
G1 E-2.1 F2700
;WIPE_START
M73 P45 R137
G1 F24000
G1 X485.5 Y492.95 E-.855
;WIPE_END
G1 E-.045 F2700
G1 Z46.2 F30000
G1 Z49
;AFTER_LAYER_CHANGE
;49
; printing object 20mm_cube.stl id:0 copy 0
G1 Z49.2
G1 X493.5 Y493.5
G1 Z49
G1 E3 F1200
M204 P800
G1 F89.387
G1 X397.5 Y493.5 E76.9183
G1 X397.5 Y397.5 E76.9183
M73 P46 R136
G1 X493.5 Y397.5 E76.9183
M73 P46 R135
G1 X493.5 Y492.9 E76.43756
M204 P1000
; stop printing object 20mm_cube.stl id:0 copy 0
;LAYER_CHANGE
;Z:52
;HEIGHT:3
;BEFORE_LAYER_CHANGE
G92 E0.0
;52


M73 P47 R134
G1 E-2.1 F2700
;WIPE_START
M73 P47 R133
G1 F24000
G1 X485.5 Y492.95 E-.855
;WIPE_END
G1 E-.045 F2700
G1 Z49.2 F30000
G1 Z52
;AFTER_LAYER_CHANGE
;52
; printing object 20mm_cube.stl id:0 copy 0
G1 Z52.2
G1 X493.5 Y493.5
G1 Z52
G1 E3 F1200
M204 P800
G1 F89.387
G1 X397.5 Y493.5 E76.9183
G1 X397.5 Y397.5 E76.9183
M73 P47 R131
G1 X493.5 Y397.5 E76.9183
M73 P48 R130
G1 X493.5 Y492.9 E76.43756
M204 P1000
; stop printing object 20mm_cube.stl id:0 copy 0
;LAYER_CHANGE
;Z:55
;HEIGHT:3
;BEFORE_LAYER_CHANGE
G92 E0.0
;55


M73 P48 R129
G1 E-2.1 F2700
;WIPE_START
M73 P49 R128
G1 F24000
G1 X485.5 Y492.95 E-.855
;WIPE_END
G1 E-.045 F2700
G1 Z52.2 F30000
G1 Z55
;AFTER_LAYER_CHANGE
;55
; printing object 20mm_cube.stl id:0 copy 0
G1 Z55.2
G1 X493.5 Y493.5
G1 Z55
G1 E3 F1200
M204 P800
G1 F89.387
G1 X397.5 Y493.5 E76.9183
G1 X397.5 Y397.5 E76.9183
M73 P49 R127
G1 X493.5 Y397.5 E76.9183
M73 P50 R126
G1 X493.5 Y492.9 E76.43756
M204 P1000
; stop printing object 20mm_cube.stl id:0 copy 0
;LAYER_CHANGE
;Z:58
;HEIGHT:3
;BEFORE_LAYER_CHANGE
G92 E0.0
;58


M73 P50 R125
G1 E-2.1 F2700
;WIPE_START
M73 P50 R124
G1 F24000
G1 X485.5 Y492.95 E-.855
;WIPE_END
G1 E-.045 F2700
G1 Z55.2 F30000
G1 Z58
;AFTER_LAYER_CHANGE
;58
; printing object 20mm_cube.stl id:0 copy 0
G1 Z58.2
G1 X493.5 Y493.5
G1 Z58
G1 E3 F1200
M204 P800
G1 F89.387
G1 X397.5 Y493.5 E76.9183
G1 X397.5 Y397.5 E76.9183
M73 P51 R123
G1 X493.5 Y397.5 E76.9183
M73 P51 R122
G1 X493.5 Y492.9 E76.43756
M204 P1000
; stop printing object 20mm_cube.stl id:0 copy 0
;LAYER_CHANGE
;Z:61
;HEIGHT:3
;BEFORE_LAYER_CHANGE
G92 E0.0
;61


M73 P52 R121
G1 E-2.1 F2700
;WIPE_START
M73 P52 R120
G1 F24000
G1 X485.5 Y492.95 E-.855
;WIPE_END
G1 E-.045 F2700
G1 Z58.2 F30000
G1 Z61
;AFTER_LAYER_CHANGE
;61
; printing object 20mm_cube.stl id:0 copy 0
G1 Z61.2
G1 X493.5 Y493.5
G1 Z61
G1 E3 F1200
M204 P800
G1 F89.387
G1 X397.5 Y493.5 E76.9183
G1 X397.5 Y397.5 E76.9183
M73 P53 R119
G1 X493.5 Y397.5 E76.9183
M73 P53 R117
G1 X493.5 Y492.9 E76.43756
M204 P1000
; stop printing object 20mm_cube.stl id:0 copy 0
;LAYER_CHANGE
;Z:64
;HEIGHT:3
;BEFORE_LAYER_CHANGE
G92 E0.0
;64


M73 P53 R116
G1 E-2.1 F2700
;WIPE_START
M73 P54 R115
G1 F24000
G1 X485.5 Y492.95 E-.855
;WIPE_END
G1 E-.045 F2700
G1 Z61.2 F30000
G1 Z64
;AFTER_LAYER_CHANGE
;64
; printing object 20mm_cube.stl id:0 copy 0
G1 Z64.2
G1 X493.5 Y493.5
G1 Z64
G1 E3 F1200
M204 P800
G1 F89.387
G1 X397.5 Y493.5 E76.9183
G1 X397.5 Y397.5 E76.9183
M73 P54 R114
G1 X493.5 Y397.5 E76.9183
M73 P55 R113
G1 X493.5 Y492.9 E76.43756
M204 P1000
; stop printing object 20mm_cube.stl id:0 copy 0
;LAYER_CHANGE
;Z:67
;HEIGHT:3
;BEFORE_LAYER_CHANGE
G92 E0.0
;67


M73 P55 R112
G1 E-2.1 F2700
;WIPE_START
M73 P56 R111
G1 F24000
G1 X485.5 Y492.95 E-.855
;WIPE_END
G1 E-.045 F2700
G1 Z64.2 F30000
G1 Z67
;AFTER_LAYER_CHANGE
;67
; printing object 20mm_cube.stl id:0 copy 0
G1 Z67.2
G1 X493.5 Y493.5
G1 Z67
G1 E3 F1200
M204 P800
G1 F89.387
G1 X397.5 Y493.5 E76.9183
G1 X397.5 Y397.5 E76.9183
M73 P56 R110
G1 X493.5 Y397.5 E76.9183
M73 P56 R109
G1 X493.5 Y492.9 E76.43756
M204 P1000
; stop printing object 20mm_cube.stl id:0 copy 0
;LAYER_CHANGE
;Z:70
;HEIGHT:3
;BEFORE_LAYER_CHANGE
G92 E0.0
;70


M73 P57 R108
G1 E-2.1 F2700
;WIPE_START
M73 P57 R107
G1 F24000
G1 X485.5 Y492.95 E-.855
;WIPE_END
G1 E-.045 F2700
G1 Z67.2 F30000
G1 Z70
;AFTER_LAYER_CHANGE
;70
; printing object 20mm_cube.stl id:0 copy 0
G1 Z70.2
G1 X493.5 Y493.5
G1 Z70
G1 E3 F1200
M204 P800
G1 F89.387
G1 X397.5 Y493.5 E76.9183
G1 X397.5 Y397.5 E76.9183
M73 P58 R106
G1 X493.5 Y397.5 E76.9183
M73 P58 R105
G1 X493.5 Y492.9 E76.43756
M204 P1000
; stop printing object 20mm_cube.stl id:0 copy 0
;LAYER_CHANGE
;Z:73
;HEIGHT:3
;BEFORE_LAYER_CHANGE
G92 E0.0
;73


M73 P58 R104
G1 E-2.1 F2700
;WIPE_START
M73 P59 R102
G1 F24000
G1 X485.5 Y492.95 E-.855
;WIPE_END
G1 E-.045 F2700
G1 Z70.2 F30000
G1 Z73
;AFTER_LAYER_CHANGE
;73
; printing object 20mm_cube.stl id:0 copy 0
G1 Z73.2
G1 X493.5 Y493.5
G1 Z73
G1 E3 F1200
M204 P800
G1 F89.387
G1 X397.5 Y493.5 E76.9183
G1 X397.5 Y397.5 E76.9183
M73 P59 R101
G1 X493.5 Y397.5 E76.9183
M73 P60 R100
G1 X493.5 Y492.9 E76.43756
M204 P1000
; stop printing object 20mm_cube.stl id:0 copy 0
;LAYER_CHANGE
;Z:76
;HEIGHT:3
;BEFORE_LAYER_CHANGE
G92 E0.0
;76


M73 P60 R99
G1 E-2.1 F2700
;WIPE_START
M73 P61 R98
G1 F24000
G1 X485.5 Y492.95 E-.855
;WIPE_END
G1 E-.045 F2700
G1 Z73.2 F30000
G1 Z76
;AFTER_LAYER_CHANGE
;76
; printing object 20mm_cube.stl id:0 copy 0
G1 Z76.2
G1 X493.5 Y493.5
G1 Z76
G1 E3 F1200
M204 P800
G1 F89.387
G1 X397.5 Y493.5 E76.9183
G1 X397.5 Y397.5 E76.9183
M73 P61 R97
G1 X493.5 Y397.5 E76.9183
M73 P61 R96
G1 X493.5 Y492.9 E76.43756
M204 P1000
; stop printing object 20mm_cube.stl id:0 copy 0
;LAYER_CHANGE
;Z:79
;HEIGHT:3
;BEFORE_LAYER_CHANGE
G92 E0.0
;79


M73 P62 R95
G1 E-2.1 F2700
;WIPE_START
M73 P62 R94
G1 F24000
G1 X485.5 Y492.95 E-.855
;WIPE_END
G1 E-.045 F2700
G1 Z76.2 F30000
G1 Z79
;AFTER_LAYER_CHANGE
;79
; printing object 20mm_cube.stl id:0 copy 0
G1 Z79.2
G1 X493.5 Y493.5
G1 Z79
G1 E3 F1200
M204 P800
G1 F89.387
G1 X397.5 Y493.5 E76.9183
G1 X397.5 Y397.5 E76.9183
M73 P63 R93
G1 X493.5 Y397.5 E76.9183
M73 P63 R92
G1 X493.5 Y492.9 E76.43756
M204 P1000
; stop printing object 20mm_cube.stl id:0 copy 0
;LAYER_CHANGE
;Z:82
;HEIGHT:3
;BEFORE_LAYER_CHANGE
G92 E0.0
;82


M73 P64 R91
G1 E-2.1 F2700
;WIPE_START
M73 P64 R90
G1 F24000
G1 X485.5 Y492.95 E-.855
;WIPE_END
G1 E-.045 F2700
G1 Z79.2 F30000
G1 Z82
;AFTER_LAYER_CHANGE
;82
; printing object 20mm_cube.stl id:0 copy 0
G1 Z82.2
G1 X493.5 Y493.5
G1 Z82
G1 E3 F1200
M204 P800
G1 F89.387
G1 X397.5 Y493.5 E76.9183
G1 X397.5 Y397.5 E76.9183
M73 P64 R88
G1 X493.5 Y397.5 E76.9183
M73 P65 R87
G1 X493.5 Y492.9 E76.43756
M204 P1000
; stop printing object 20mm_cube.stl id:0 copy 0
;LAYER_CHANGE
;Z:85
;HEIGHT:3
;BEFORE_LAYER_CHANGE
G92 E0.0
;85


M73 P65 R86
G1 E-2.1 F2700
;WIPE_START
M73 P66 R85
G1 F24000
G1 X485.5 Y492.95 E-.855
;WIPE_END
G1 E-.045 F2700
G1 Z82.2 F30000
G1 Z85
;AFTER_LAYER_CHANGE
;85
; printing object 20mm_cube.stl id:0 copy 0
G1 Z85.2
G1 X493.5 Y493.5
G1 Z85
G1 E3 F1200
M204 P800
G1 F89.387
G1 X397.5 Y493.5 E76.9183
G1 X397.5 Y397.5 E76.9183
M73 P66 R84
G1 X493.5 Y397.5 E76.9183
M73 P67 R83
G1 X493.5 Y492.9 E76.43756
M204 P1000
; stop printing object 20mm_cube.stl id:0 copy 0
;LAYER_CHANGE
;Z:88
;HEIGHT:3
;BEFORE_LAYER_CHANGE
G92 E0.0
;88


M73 P67 R82
G1 E-2.1 F2700
;WIPE_START
M73 P67 R81
G1 F24000
G1 X485.5 Y492.95 E-.855
;WIPE_END
G1 E-.045 F2700
G1 Z85.2 F30000
G1 Z88
;AFTER_LAYER_CHANGE
;88
; printing object 20mm_cube.stl id:0 copy 0
G1 Z88.2
G1 X493.5 Y493.5
G1 Z88
G1 E3 F1200
M204 P800
G1 F89.387
G1 X397.5 Y493.5 E76.9183
G1 X397.5 Y397.5 E76.9183
M73 P68 R80
G1 X493.5 Y397.5 E76.9183
M73 P68 R79
G1 X493.5 Y492.9 E76.43756
M204 P1000
; stop printing object 20mm_cube.stl id:0 copy 0
;LAYER_CHANGE
;Z:91
;HEIGHT:3
;BEFORE_LAYER_CHANGE
G92 E0.0
;91


M73 P69 R78
G1 E-2.1 F2700
;WIPE_START
M73 P69 R77
G1 F24000
G1 X485.5 Y492.95 E-.855
;WIPE_END
G1 E-.045 F2700
G1 Z88.2 F30000
G1 Z91
;AFTER_LAYER_CHANGE
;91
; printing object 20mm_cube.stl id:0 copy 0
G1 Z91.2
G1 X493.5 Y493.5
G1 Z91
G1 E3 F1200
M204 P800
G1 F89.387
G1 X397.5 Y493.5 E76.9183
G1 X397.5 Y397.5 E76.9183
M73 P70 R76
G1 X493.5 Y397.5 E76.9183
M73 P70 R75
G1 X493.5 Y492.9 E76.43756
M204 P1000
; stop printing object 20mm_cube.stl id:0 copy 0
;LAYER_CHANGE
;Z:94
;HEIGHT:3
;BEFORE_LAYER_CHANGE
G92 E0.0
;94


M73 P70 R73
G1 E-2.1 F2700
;WIPE_START
M73 P71 R72
G1 F24000
G1 X485.5 Y492.95 E-.855
;WIPE_END
G1 E-.045 F2700
G1 Z91.2 F30000
G1 Z94
;AFTER_LAYER_CHANGE
;94
; printing object 20mm_cube.stl id:0 copy 0
G1 Z94.2
G1 X493.5 Y493.5
G1 Z94
G1 E3 F1200
M204 P800
G1 F89.387
G1 X397.5 Y493.5 E76.9183
G1 X397.5 Y397.5 E76.9183
M73 P71 R71
G1 X493.5 Y397.5 E76.9183
M73 P72 R70
G1 X493.5 Y492.9 E76.43756
M204 P1000
; stop printing object 20mm_cube.stl id:0 copy 0
;LAYER_CHANGE
;Z:97
;HEIGHT:3
;BEFORE_LAYER_CHANGE
G92 E0.0
;97


M73 P72 R69
G1 E-2.1 F2700
;WIPE_START
M73 P72 R68
G1 F24000
G1 X485.5 Y492.95 E-.855
;WIPE_END
G1 E-.045 F2700
G1 Z94.2 F30000
G1 Z97
;AFTER_LAYER_CHANGE
;97
; printing object 20mm_cube.stl id:0 copy 0
G1 Z97.2
G1 X493.5 Y493.5
G1 Z97
G1 E3 F1200
M204 P800
G1 F89.387
G1 X397.5 Y493.5 E76.9183
G1 X397.5 Y397.5 E76.9183
M73 P73 R67
G1 X493.5 Y397.5 E76.9183
M73 P73 R66
G1 X493.5 Y492.9 E76.43756
M204 P1000
M73 P74 R65
G1 E-2.1 F2700
;WIPE_START
M73 P74 R64
G1 F24000
G1 X485.5 Y492.95 E-.855
;WIPE_END
G1 E-.045 F2700
G1 Z97.2 F30000
G1 X492.637 Y484.669
G1 Z97
G1 E3 F1200
;TYPE:Bridge infill
;WIDTH:3.88723
;HEIGHT:3.79473
G1 F75.835
G1 X486.399 Y490.906 E8.33093
G1 X480.831 Y490.906 E5.25857
G1 X490.906 Y480.831 E13.45691
G1 X490.906 Y475.263 E5.25856
M73 P74 R63
G1 X475.263 Y490.906 E20.89364
G1 X469.695 Y490.906 E5.25857
G1 X490.906 Y469.695 E28.33038
G1 X490.906 Y464.127 E5.25856
M73 P75 R63
G1 X464.127 Y490.906 E35.76711
M73 P75 R62
G1 X458.558 Y490.906 E5.25857
G1 X490.906 Y458.558 E43.20385
G1 X490.906 Y452.99 E5.25856
M73 P75 R61
G1 X452.99 Y490.906 E50.64058
G1 X447.422 Y490.906 E5.25857
G1 X490.906 Y447.422 E58.07732
M73 P75 R60
G1 X490.906 Y441.854 E5.25856
M73 P76 R60
G1 X441.854 Y490.906 E65.51405
G1 X436.286 Y490.906 E5.25857
M73 P76 R59
G1 X490.906 Y436.286 E72.95078
G1 X490.906 Y430.718 E5.25856
M73 P77 R58
G1 X430.718 Y490.906 E80.38752
M73 P77 R57
G1 X425.15 Y490.906 E5.25857
M73 P77 R56
G1 X490.906 Y425.15 E87.82425
G1 X490.906 Y419.582 E5.25856
M73 P78 R55
G1 X419.582 Y490.906 E95.26099
G1 X414.014 Y490.906 E5.25857
M73 P78 R54
G1 X490.906 Y414.014 E102.69772
G1 X490.906 Y408.446 E5.25856
M73 P79 R52
G1 X408.446 Y490.906 E110.13445
G1 X402.878 Y490.906 E5.25857
M73 P79 R51
G1 X490.906 Y402.878 E117.57119
M73 P79 R50
G1 X490.906 Y400.094 E2.62925
M73 P80 R49
G1 X488.122 Y400.094 E2.62931
G1 X400.094 Y488.122 E117.57106
G1 X400.094 Y482.554 E5.25856
M73 P81 R47
G1 X482.554 Y400.094 E110.13433
G1 X476.986 Y400.094 E5.25857
M73 P81 R45
G1 X400.094 Y476.986 E102.69759
G1 X400.094 Y471.418 E5.25856
M73 P82 R44
G1 X471.418 Y400.094 E95.26086
G1 X465.85 Y400.094 E5.25857
M73 P83 R43
G1 X400.094 Y465.85 E87.82412
G1 X400.094 Y460.282 E5.25856
M73 P83 R41
G1 X460.282 Y400.094 E80.38739
G1 X454.714 Y400.094 E5.25857
M73 P84 R40
G1 X400.094 Y454.714 E72.95065
G1 X400.094 Y449.146 E5.25856
M73 P84 R39
G1 X449.146 Y400.094 E65.51392
G1 X443.578 Y400.094 E5.25857
M73 P84 R38
G1 X400.094 Y443.578 E58.07719
G1 X400.094 Y438.01 E5.25856
M73 P85 R37
G1 X438.01 Y400.094 E50.64045
G1 X432.441 Y400.094 E5.25857
M73 P85 R36
G1 X400.094 Y432.441 E43.20372
G1 X400.094 Y426.873 E5.25856
G1 X426.873 Y400.094 E35.76698
G1 X421.305 Y400.094 E5.25857
M73 P85 R35
G1 X400.094 Y421.305 E28.33025
M73 P86 R35
G1 X400.094 Y415.737 E5.25856
G1 X415.737 Y400.094 E20.89351
G1 X410.169 Y400.094 E5.25857
M73 P86 R34
G1 X400.094 Y410.169 E13.45678
G1 X400.094 Y404.601 E5.25856
G1 X406.331 Y398.363 E8.33081
; stop printing object 20mm_cube.stl id:0 copy 0
;LAYER_CHANGE
;Z:100
;HEIGHT:3
;BEFORE_LAYER_CHANGE
G92 E0.0
;100


G1 E-2.1 F2700
;WIPE_START
G1 F24000
G1 X400.674 Y404.02 E-.855
;WIPE_END
G1 E-.045 F2700
G1 Z97.2 F30000
G1 Z100
;AFTER_LAYER_CHANGE
;100
; printing object 20mm_cube.stl id:0 copy 0
G1 Z100.2
G1 X493.5 Y493.5
G1 Z100
G1 E3 F1200
M204 P800
;TYPE:External perimeter
;WIDTH:4
G1 F89.387
G1 X397.5 Y493.5 E76.9183
G1 X397.5 Y397.5 E76.9183
M73 P86 R33
G1 X493.5 Y397.5 E76.9183
M73 P87 R32
G1 X493.5 Y492.9 E76.43756
M204 P1000
M73 P87 R31
G1 E-2.1 F2700
;WIPE_START
M73 P88 R30
G1 F24000
G1 X485.5 Y492.95 E-.855
;WIPE_END
G1 E-.045 F2700
G1 Z100.2 F30000
G1 X485.715 Y398.339
G1 Z100
M73 P88 R29
G1 E3 F1200
;TYPE:Top solid infill
;WIDTH:4.07627
G1 F87.401
G1 X491.151 Y403.775 E6.29901
G1 X491.151 Y408.629 E3.97775
G1 X482.371 Y399.849 E10.17419
G1 X477.517 Y399.849 E3.97775
G1 X491.151 Y413.483 E15.79957
G1 X491.151 Y418.337 E3.97775
G1 X472.663 Y399.849 E21.42496
G1 X467.809 Y399.849 E3.97775
G1 X491.151 Y423.191 E27.05035
G1 X491.151 Y428.046 E3.97775
M73 P88 R28
G1 X462.954 Y399.849 E32.67574
G1 X458.1 Y399.849 E3.97775
G1 X491.151 Y432.9 E38.30113
G1 X491.151 Y437.754 E3.97775
M73 P89 R27
G1 X453.246 Y399.849 E43.92652
G1 X448.392 Y399.849 E3.97775
M73 P89 R26
G1 X491.151 Y442.608 E49.55191
G1 X491.151 Y447.463 E3.97775
G1 X443.537 Y399.849 E55.1773
G1 X438.683 Y399.849 E3.97775
M73 P90 R25
G1 X491.151 Y452.317 E60.80269
G1 X491.151 Y457.171 E3.97775
M73 P90 R24
G1 X433.829 Y399.849 E66.42808
G1 X428.975 Y399.849 E3.97775
M73 P90 R23
G1 X491.151 Y462.025 E72.05347
G1 X491.151 Y466.88 E3.97775
M73 P91 R22
G1 X424.12 Y399.849 E77.67886
G1 X419.266 Y399.849 E3.97775
M73 P91 R21
G1 X491.151 Y471.734 E83.30425
G1 X491.151 Y476.588 E3.97775
M73 P92 R19
G1 X414.412 Y399.849 E88.92964
G1 X409.558 Y399.849 E3.97775
M73 P92 R18
G1 X491.151 Y481.442 E94.55503
G1 X491.151 Y486.297 E3.97775
M73 P93 R17
G1 X404.703 Y399.849 E100.18041
G1 X399.849 Y399.849 E3.97769
M73 P93 R15
G1 X491.151 Y491.151 E105.80564
G1 X486.296 Y491.151 E3.97775
M73 P94 R14
G1 X399.849 Y404.704 E100.18025
G1 X399.849 Y409.558 E3.97775
M73 P94 R12
G1 X481.442 Y491.151 E94.55486
G1 X476.588 Y491.151 E3.97775
M73 P95 R11
G1 X399.849 Y414.412 E88.92948
G1 X399.849 Y419.266 E3.97775
M73 P95 R10
G1 X471.734 Y491.151 E83.30409
M73 P96 R10
G1 X466.879 Y491.151 E3.97775
M73 P96 R8
G1 X399.849 Y424.121 E77.6787
G1 X399.849 Y428.975 E3.97775
M73 P96 R7
G1 X462.025 Y491.151 E72.05331
G1 X457.171 Y491.151 E3.97775
M73 P97 R6
G1 X399.849 Y433.829 E66.42792
G1 X399.849 Y438.683 E3.97775
M73 P97 R5
G1 X452.317 Y491.151 E60.80253
G1 X447.463 Y491.151 E3.97775
M73 P98 R4
G1 X399.849 Y443.537 E55.17714
G1 X399.849 Y448.392 E3.97775
G1 X442.608 Y491.151 E49.55175
G1 X437.754 Y491.151 E3.97775
M73 P98 R3
G1 X399.849 Y453.246 E43.92636
G1 X399.849 Y458.1 E3.97775
M73 P98 R2
G1 X432.9 Y491.151 E38.30097
G1 X428.046 Y491.151 E3.97775
M73 P99 R2
G1 X399.849 Y462.954 E32.67558
G1 X399.849 Y467.809 E3.97775
M73 P99 R1
G1 X423.191 Y491.151 E27.05019
G1 X418.337 Y491.151 E3.97775
G1 X399.849 Y472.663 E21.4248
G1 X399.849 Y477.517 E3.97775
M73 P99 R0
G1 X413.483 Y491.151 E15.79941
G1 X408.629 Y491.151 E3.97775
G1 X399.849 Y482.371 E10.17403
G1 X399.849 Y487.226 E3.97775
G1 X405.285 Y492.661 E6.29885
; stop printing object 20mm_cube.stl id:0 copy 0
G1 E-2.1 F2700
;WIPE_START
G1 F24000;_WIPE
G1 X399.849 Y487.226 E-.82152
G1 F24000;_WIPE
G1 X399.849 Y486.912 E-.03348
;WIPE_END
G1 E-.045 F2700
G1 Z100.2 F30000
M107
;TYPE:Custom
; Filament-specific end gcode
G1 E-1 F2100 ; retract
G1 Z102 F720 ; Move print head up
G1 X178 Y178 F4200 ; park print head
G1 Z130 F720 ; Move print head further up
G4 ; wait
M104 S0 ; turn off temperature
M140 S0 ; turn off heatbed
M107 ; turn off fan
M221 S100 ; reset flow
M900 K0 ; reset LA
M84 ; disable motors
M73 P100 R0
; filament used [mm] = 18111.39
; filament used [cm3] = 227.59
; filament used [g] = 282.22
; filament cost = 10.24
; total filament used [g] = 282.22
; total filament cost = 10.24
; estimated printing time (normal mode) = 4h 13m 41s

; prusaslicer_config = begin
; avoid_crossing_perimeters = 0
; avoid_crossing_perimeters_max_detour = 0
; bed_custom_model = 
; bed_custom_texture = 
; bed_shape = 0x0,891x0,891x891,0x891
; bed_temperature = 60
; before_layer_gcode = ;BEFORE_LAYER_CHANGE\nG92 E0.0\n;[layer_z]\n\n
; between_objects_gcode = 
; bottom_fill_pattern = monotonic
; bottom_solid_layers = 1
; bottom_solid_min_thickness = 4
; bridge_acceleration = 1000
; bridge_angle = 0
; bridge_fan_speed = 100
; bridge_flow_ratio = 0.9
; bridge_speed = 500
; brim_separation = 0.1
; brim_type = outer_only
; brim_width = 0
; clip_multipart_objects = 1
; color_change_gcode = M600
; compatible_printers_condition_cummulative = "printer_model==\"MINI\" and nozzle_diameter[0]==0.8";"nozzle_diameter[0]==0.8 and ! (printer_notes=~/.*PRINTER_VENDOR_PRUSA3D.*/ and printer_notes=~/.*PRINTER_MODEL_MK(2.5|3).*/ and single_extruder_multi_material)"
; complete_objects = 0
; cooling = 1
; cooling_tube_length = 5
; cooling_tube_retraction = 91.5
; default_acceleration = 1000
; default_filament_profile = "Prusament PLA @0.8 nozzle"
; default_print_profile = 0.40mm QUALITY @0.8 nozzle MINI
; deretract_speed = 20
; disable_fan_first_layers = 1
; dont_support_bridges = 0
; draft_shield = disabled
; duplicate_distance = 6
; elefant_foot_compensation = 0.2
; end_filament_gcode = "; Filament-specific end gcode"
; end_gcode = G1 E-1 F2100 ; retract\n{if max_layer_z < max_print_height}G1 Z{z_offset+min(max_layer_z+2, max_print_height)} F720 ; Move print head up{endif}\nG1 X178 Y178 F4200 ; park print head\n{if max_layer_z < max_print_height}G1 Z{z_offset+min(max_layer_z+30, max_print_height)} F720 ; Move print head further up{endif}\nG4 ; wait\nM104 S0 ; turn off temperature\nM140 S0 ; turn off heatbed\nM107 ; turn off fan\nM221 S100 ; reset flow\nM900 K0 ; reset LA\nM84 ; disable motors
; ensure_vertical_shell_thickness = 1
; external_perimeter_extrusion_width = 4
; external_perimeter_speed = 500
; external_perimeters_first = 0
; extra_loading_move = -2
; extra_perimeters = 0
; extruder_clearance_height = 20
; extruder_clearance_radius = 45
; extruder_colour = ""
; extruder_offset = 0x0
; extrusion_axis = E
; extrusion_multiplier = 1
; extrusion_width = 4
; fan_always_on = 1
; fan_below_layer_time = 100
; filament_colour = #FF8000
; filament_cooling_final_speed = 3.4
; filament_cooling_initial_speed = 2.2
; filament_cooling_moves = 4
; filament_cost = 36.29
; filament_density = 1.24
; filament_diameter = 4
; filament_load_time = 0
; filament_loading_speed = 28
; filament_loading_speed_start = 3
; filament_max_volumetric_speed = 15
; filament_minimal_purge_on_wipe_tower = 15
; filament_notes = "Affordable filament for everyday printing in premium quality manufactured in-house by Josef Prusa"
; filament_ramming_parameters = "120 100 6.6 6.8 7.2 7.6 7.9 8.2 8.7 9.4 9.9 10.0| 0.05 6.6 0.45 6.8 0.95 7.8 1.45 8.3 1.95 9.7 2.45 10 2.95 7.6 3.45 7.6 3.95 7.6 4.45 7.6 4.95 7.6"
; filament_settings_id = "Prusament PLA @0.8 nozzle"
; filament_soluble = 0
; filament_spool_weight = 201
; filament_toolchange_delay = 0
; filament_type = PLA
; filament_unload_time = 0
; filament_unloading_speed = 90
; filament_unloading_speed_start = 100
; filament_vendor = Prusa Polymers
; fill_angle = 45
; fill_density = 0%
; fill_pattern = gyroid
; first_layer_acceleration = 800
; first_layer_acceleration_over_raft = 0
; first_layer_bed_temperature = 60
; first_layer_extrusion_width = 4
; first_layer_height = 4
; first_layer_speed = 500
; first_layer_speed_over_raft = 30
; first_layer_temperature = 225
; full_fan_speed_layer = 4
; fuzzy_skin = none
; fuzzy_skin_point_dist = 0.8
; fuzzy_skin_thickness = 0.3
; gap_fill_enabled = 1
; gap_fill_speed = 500
; gcode_comments = 0
; gcode_flavor = marlin2
; gcode_label_objects = 1
; gcode_resolution = 0.0125
; gcode_substitutions = 
; high_current_on_filament_swap = 0
; host_type = octoprint
; infill_acceleration = 1000
; infill_anchor = 2.5
; infill_anchor_max = 20
; infill_every_layers = 1
; infill_extruder = 1
; infill_extrusion_width = 4
; infill_first = 0
; infill_only_where_needed = 0
; infill_overlap = 30%
; infill_speed = 500
; interface_shells = 0
; ironing = 0
; ironing_flowrate = 15%
; ironing_spacing = 0.1
; ironing_speed = 15
; ironing_type = top
; layer_gcode = ;AFTER_LAYER_CHANGE\n;[layer_z]
; layer_height = 3
; machine_limits_usage = emit_to_gcode
; machine_max_acceleration_e = 5000
; machine_max_acceleration_extruding = 1250
; machine_max_acceleration_retracting = 1250
; machine_max_acceleration_travel = 2500
; machine_max_acceleration_x = 2500
; machine_max_acceleration_y = 2500
; machine_max_acceleration_z = 2500
; machine_max_feedrate_e = 500
; machine_max_feedrate_x = 500
; machine_max_feedrate_y = 500
; machine_max_feedrate_z = 500
; machine_max_jerk_e = 10
; machine_max_jerk_x = 8
; machine_max_jerk_y = 8
; machine_max_jerk_z = 2
; machine_min_extruding_rate = 0
; machine_min_travel_rate = 0
; max_fan_speed = 100
; max_layer_height = 0.55
; max_print_height = 891
; max_print_speed = 50
; max_volumetric_extrusion_rate_slope_negative = 0
; max_volumetric_extrusion_rate_slope_positive = 0
; max_volumetric_speed = 0
; min_bead_width = 85%
; min_fan_speed = 100
; min_feature_size = 25%
; min_layer_height = 0.2
; min_print_speed = 15
; min_skirt_length = 4
; mmu_segmented_region_max_width = 0
; notes = 
; nozzle_diameter = 4
; only_retract_when_crossing_perimeters = 0
; ooze_prevention = 0
; output_filename_format = {input_filename_base}_{nozzle_diameter[0]}n_{layer_height}mm_{initial_filament_type}_{printer_model}_{print_time}.gcode
; overhangs = 0
; parking_pos_retraction = 92
; pause_print_gcode = M601
; perimeter_acceleration = 800
; perimeter_extruder = 1
; perimeter_extrusion_width = 4
; perimeter_generator = arachne
; perimeter_speed = 500
; perimeters = 1
; physical_printer_settings_id = 
; post_process = 
; print_settings_id = 0.40mm QUALITY @0.8 nozzle MINI
; printer_model = MINI
; printer_notes = Don't remove the following keywords! These keywords are used in the "compatible printer" condition of the print and filament profiles to link the particular print and filament profiles to this printer profile.\nPRINTER_VENDOR_PRUSA3D\nPRINTER_MODEL_MINI\n
; printer_settings_id = Original Prusa MINI & MINI+ 0.8 nozzle
; printer_technology = FFF
; printer_variant = 0.8
; printer_vendor = 
; raft_contact_distance = 0.2
; raft_expansion = 1.5
; raft_first_layer_density = 90%
; raft_first_layer_expansion = 3
; raft_layers = 0
; remaining_times = 1
; resolution = 0
; retract_before_travel = 1.5
; retract_before_wipe = 70%
; retract_layer_change = 1
; retract_length = 3
; retract_length_toolchange = 4
; retract_lift = 0.2
; retract_lift_above = 0
; retract_lift_below = 179
; retract_restart_extra = 0
; retract_restart_extra_toolchange = 0
; retract_speed = 45
; seam_position = aligned
; silent_mode = 0
; single_extruder_multi_material = 0
; single_extruder_multi_material_priming = 0
; skirt_distance = 3
; skirt_height = 2
; skirts = 1
; slice_closing_radius = 0.049
; slicing_mode = regular
; slowdown_below_layer_time = 20
; small_perimeter_speed = 500
; solid_infill_below_area = 0
; solid_infill_every_layers = 0
; solid_infill_extruder = 1
; solid_infill_extrusion_width = 4
; solid_infill_speed = 500
; spiral_vase = 0
; standby_temperature_delta = -5
; start_filament_gcode = "M900 K{if printer_notes=~/.*PRINTER_MODEL_MINI.*/ and nozzle_diameter[0]==0.6}0.12{elsif printer_notes=~/.*PRINTER_MODEL_MINI.*/ and nozzle_diameter[0]==0.8}0.06{elsif printer_notes=~/.*PRINTER_MODEL_MINI.*/}0.2{elsif nozzle_diameter[0]==0.8}0.01{elsif nozzle_diameter[0]==0.6}0.04{else}0.05{endif} ; Filament gcode LA 1.5\n{if printer_notes=~/.*PRINTER_MODEL_MINI.*/};{elsif printer_notes=~/.*PRINTER_HAS_BOWDEN.*/}M900 K200{elsif nozzle_diameter[0]==0.6}M900 K18{elsif nozzle_diameter[0]==0.8};{else}M900 K30{endif} ; Filament gcode LA 1.0"
; start_gcode = M862.3 P "[printer_model]" ; printer model check\nG90 ; use absolute coordinates\nM83 ; extruder relative mode\nM104 S170 ; set extruder temp for bed leveling\nM140 S[first_layer_bed_temperature] ; set bed temp\nM109 R170 ; wait for bed leveling temp\nM190 S[first_layer_bed_temperature] ; wait for bed temp\nM204 T1250 ; set travel acceleration\nG28 ; home all without mesh bed level\nG29 ; mesh bed leveling \nM204 T[machine_max_acceleration_travel] ; restore travel acceleration\nM104 S[first_layer_temperature] ; set extruder temp\nG92 E0\nG1 Y-2 X179 F2400\nG1 Z3 F720\nM109 S[first_layer_temperature] ; wait for extruder temp\n\n; intro line\nG1 X170 F1000\nG1 Z0.2 F720\nG1 X110 E8 F900\nG1 X40 E10 F700\nG92 E0\n\nM221 S95 ; set flow
; support_material = 0
; support_material_angle = 0
; support_material_auto = 1
; support_material_bottom_contact_distance = 0
; support_material_bottom_interface_layers = 0
; support_material_buildplate_only = 0
; support_material_closing_radius = 2
; support_material_contact_distance = 0.25
; support_material_enforce_layers = 0
; support_material_extruder = 0
; support_material_extrusion_width = 0.7
; support_material_interface_contact_loops = 0
; support_material_interface_extruder = 0
; support_material_interface_layers = 2
; support_material_interface_pattern = rectilinear
; support_material_interface_spacing = 0.4
; support_material_interface_speed = 100%
; support_material_pattern = rectilinear
; support_material_spacing = 2
; support_material_speed = 500
; support_material_style = grid
; support_material_synchronize_layers = 0
; support_material_threshold = 50
; support_material_with_sheath = 0
; support_material_xy_spacing = 80%
; temperature = 225
; template_custom_gcode = 
; thick_bridges = 1
; thin_walls = 0
; threads = 12
; thumbnails = 16x16,220x124
; thumbnails_format = PNG
; toolchange_gcode = 
; top_fill_pattern = monotonic
; top_infill_extrusion_width = 4
; top_solid_infill_speed = 500
; top_solid_layers = 1
; top_solid_min_thickness = 4
; travel_speed = 500
; travel_speed_z = 500
; use_firmware_retraction = 0
; use_relative_e_distances = 1
; use_volumetric_e = 0
; variable_layer_height = 1
; wall_distribution_count = 1
; wall_transition_angle = 10
; wall_transition_filter_deviation = 25%
; wall_transition_length = 0.8
; wipe = 1
; wipe_into_infill = 0
; wipe_into_objects = 0
; wipe_tower = 1
; wipe_tower_bridging = 10
; wipe_tower_brim_width = 2
; wipe_tower_no_sparse_layers = 0
; wipe_tower_rotation_angle = 0
; wipe_tower_width = 60
; wipe_tower_x = 170
; wipe_tower_y = 140
; wiping_volumes_extruders = 70,70
; wiping_volumes_matrix = 0
; xy_size_compensation = 0
; z_offset = 0
; prusaslicer_config = end
