; generated by PrusaSlicer 2.5.0+win64 on 2023-02-27 at 21:45:21 UTC


;
; thumbnail begin 16x16 744
; iVBORw0KGgoAAAANSUhEUgAAABAAAAAQCAYAAAAf8/9hAAAB80lEQVR4AY2T2ytsURzH919yOnWO0z
; kdpcil1ESJInmg5Inchhopd2MwJTJukdS4i0bD1swesyfb7IttaryY0iTXkEcS3jyYh8V3Z23jMrHq
; 29pr7fX99Put9fsxLMtKkO95CILAi6K4jhnrjVHzsbu/8dznXhOxJ8uyB7PX691wuVx+juM2GVVV3T
; gMI2b8gGG7u+RmuzaVQJK56I5fWVJhgCgMHga06E3/ZF+YGqO1ZTJENsc7D3HW9zLg1QGYA4Omy8/M
; 0VIsxbeIUAfgQ/KwktqY8/CVmSpQn/EoOuw7SJ9BztM9zYdTRfFENqZ8CzCS/4/YGqrOtQiQOwCWrN
; /ElveX8OVJMY1cWSJpy/xFjGk/yFi76QReDbDQb94HALJmx5GlkoQP0SBCGKmGmoxnGgA1YLc2HFMA
; 1fBzmEJlMhGrk0lPzp83ZggpaHWAp5vrbT14D6DR1KX//GCGxi31R3odxAJAn5lpCnoduJ0OZaat4u
; K7AGtp/pXg41/rAKGIon/dOTGwa839H4kFMBniIrO2rj3aL1od4CJQC6DhPvhVhzxmLLh+DzAXGu55
; dlmizUSrlwkGg2sgYqF3GrsiTXfUnCEa7c1bak5ph9JewFp7xnA47AiFQk5FUThsaN34ctCzOBVg5+
; 0B2qnUTJsP+0+EhmjnBkygEgAAAABJRU5ErkJggg==
; thumbnail end
;

;
; thumbnail begin 220x124 16032
; iVBORw0KGgoAAAANSUhEUgAAANwAAAB8CAYAAAACRt5vAAAuvUlEQVR4Ae19+7Md1Xll/yVTMzWTzG
; SS8TwyTqYqM0xSCUn5kdhxQtkODsQUQTgghLEwWAhJGIQk9EYSQgLxEAj5SsEIxEPoAUJgETAkPAIE
; x8QkkMQVOwmVokKV/YOidZ11s7T87Uf36XPOPdJVVZdu33vO/navXru/1bt3f6u57bbbjq9YseKVqa
; mpI3v27Dl89913H1uzZs2f3HvvvUf379//GPbXr1//4o4dO57h/i233PLc5s2bn8c+fo9t48aNL+zd
; u/fwzp07n0Kbq1ategn7X//61w9i//rrr/9TxNi9e/cTGmPfvn2PY3/t2rV/vHXr1j965OQ/fB4x1q
; 1b96LGuOmmm6bbRDu5frPNm2+++ZtRjAMHDjzMGNjH3++6666nEQNtIga2mhg12CBGDTa7du06msIG
; 7QyCDbFAzFpscByKDT7TBhvEUGw2bdr0vGKDdlPYMEYJG+KfwybFTXKxT2xK3GweeOCBxwnIOeec8x
; 46gYax/7nPfe77CH706NEHsH/ZZZe9fd111732jW984w+xf80117x55ZVXvnXs2LGvo/GVK1e+jO/g
; +yQT9u+///5DAIRtArxDhw49hP2LL774XYCGNjwGOoif8Tv0ATEAJmMQEPQbB8Z+f+ITn3j/1ltvff
; bIkSMPMsYNN9zwKvuNPjPGfffd9yT6jc+gTwCNMXLYYF+x8RiKDWOUsGGMEjZP7586vGfbhhfwM2IQ
; G41BbBijCzaKfwkbxR/7iOHY8DgQY1BsLrjggu+meIN9/HzVVVf9ecRNYIMYaEOxYb8VG1zItN812K
; DPKWwaBEbHMAh4cF/84he/c/vtt3+DB7dkyZI3cJXgPsBDMOwjMP6GNvB9BMboR+dwYAiMGJdccsk7
; uMIwxsKFC99CDHZk2bJlr6NdxsCBgrT4O04KY6BNnhT8HT+zTcTQNvH5bdu2HdfjQAwCijbRT3weJw
; X7+Axi8KSksGEMYsM2I2wQo4SNxshh88DKL7311Bd+/sSTl571w8c3Xfv6fXf96AqOfqK9Ejbc7wsb
; jRFhg6xWwgafd2wYI4UN+01sNAaOHX9X3hAbx78GG7SnMcDNFDbE37FhjOkBh3SoadtT6pYtW56jxP
; SUinSKgURpgEbxO6RtlZD4DtpIpfFIGlDuuTRDDEqDSDZxn/3mcaBNfI/Hof0uySbHhv1OYUNJE2GD
; Y42wScXA/p3bt/7RU8sv+BsMNt0ev+o337t326bna7FhzBpscByKDQYP9tFPjVGLjUvKHDZss4QNYy
; hv2nITWa0tNs4bYuP4e78bNMKRjnSo6Q/7CEZpgFHt8gOjn2lb5R5HOtO2SgP8XqWBp23GQAfRPq4W
; uLogBsBk2nZpoLIVv+cVCWnfY7DfuAriqquSkpJGsXH54dggRgobyia0gRg5bHDyFBtcPY/t3vosMp
; oPNm7HFvziD/atX/yGSpoUNsSf2ET4s9+UTbg64/MRNpE0i7Ap4R9hg/ZT2CDGNDYBb7iPrEPeDIKN
; 8l+xwc9tsWmYtnGg/CX2XW7gys+OYJ8Hk5KUADmSTSm5x7TNg8PPOEBKA1xRXBowBq9uiHHnnXc+zT
; ZLsonSAH/nYEabiKGSxrFx2VTCpkZS4m9sE9KM/X5kyfnfTQ00347ceNE7939t19EcNo6/9lvxL2GD
; /QsvvPBvGaMLNowRYaP4KzbOTXweMZQ3ODaXlIjhvFH8c9g4N3PYMIZiwxjTkjJK20yx+BkbyK7SAJ
; 3D/2i8qzRgDF7RsOH3BFrb9BhoC7/D/xojJw3QJv6O/zUGgEWb+B/yAP+jTXy2CzYaI4UN+8022KbG
; wKTIsSs/8n7tYON26Esfe3/3msVvOP4ew7Eh/pFsAibEitjgu44NvpfDhtJMsSH+jg3xj7DRGPiO84
; ZSuMRN/K1vbIhJCptGr+bnnXfe3+GXHOlIh9CmmlJVGmDkY1O5B2nmklKlGf6O/102aQxcBTVt44rv
; MXLSAPsuKV1+IAZiUtLgCqSSUvtdgw1lk0tK9AExIGkYI8IG+7gqIsbTW5e83nagucR8eN3V39qxdf
; PzLs0cmxnZatiopCT+KWwgo2qwcUlJbBT/FDbEP8cbnQmNeIPvOG9qsKnhZi02DdMfZRM+BIBwNVDC
; qjRg2nbZpLNNEZnwNwKGjuKkqDTABEVKGoCw6IdKA8TwtA1w2U98X/uNfcxq8aT4bJMP5hw27DexYb
; 9xQhAH+ylsEIPYaIxDe3c+hQw1yGDzCZVH77v9GZVmir9jA/wVG/xOsSH+jg3xx3G1wUbxd2xS+Kvc
; jmIoN1O8wSCIJH0KG3KT2DBGhI1KygibBgeOH/A/U6xKA/zMtM2rDyUbOonUqtIAqRTSDL/DAWNf0z
; bkaC4GJm2wj1SM32kM/K9pG79Ltan76C9lgR6HS8pIGrTFhrOCKmkUG+xj0xjABpMefQ003TDZgkcJ
; 7LdjhS3Cv0ZSEpuUpMzxJpKU2Mf/iIGLMbGpwZ9ZizOozs2IN+Rmn9g4b35MUmqKxUjHH5n+MCrRQG
; q2jw93dSYIbUSzlPrMQyc20KbLD05sqKTRG9T58+f/pT8kBRh+8+6SkjH0uQqvgoyhV1rHRh98Ozb+
; kFSx0RiOzUP37zn85Mov/NUwBptuhxf99j/cs2P78RI2lGbEH7OrJWxwHDXYKP412KhCIjd1UUDEG+
; KvUpjcJG/Y77a8cWyUmylsfOa/odyLZJMejMo9ndFCYBwM790Y2KdHVVIyBm5e9eAUsEga4CTwpKg0
; 0LSNGHqifZZMY4AEOpgZQwGLsMEVTWOUsOFFSLFBjMe/duexI5f/ygfDHmya7Q7cvvZFYqXYAAfHhp
; Ke2Ljcxn2VyiZgo5I+hQ3vgTCYU9ik8Ec/nTeR3FPe6LxCJClxzpWbjo1zM4cNY6SwaaIUixSqadtl
; msqmKG1zBkhna5DVNG1jY+rVNikJsI+/RzFw1eEMnMZwucGfOauqMQAK/of8RQxcLSn3cKIoaXgcOM
; k5bDibhWzOGDlsHr3h4ndGNdB823/d7797zx0/ktgRNi7pFRuVe7W8ITYao8QbxiBvwJOaW5EabqZ4
; Q27meOPYUFJSCoObOWxmZimZUvFBpj8uo3FJyX2kVC6j4UinNNDJE5eUGgNtqvzgejWmbbSpN6jYR7
; 9UfuDqAkmTWprmN9bRDKL2m/KDV9qo34xRg80psvXkxMjRr3zyvXENNm5PfPnX/2n3LWtfzGFD/CNs
; VJoBf33G2hUbzUIp3ug5jW53uI/s6VnIeUMpXOKNcrMLNiq3G+pMTdvYx+j2xafcx4GobEot/lVJSb
; nHtI2DddnqGpwzWjwp0QJXTusyBvqtkgZLbLzfjEFJozofqw1U0lAaEBv022PUYvPYhkV/Nu6B5hLz
; 8Jalr+HerhYbJZPLpgh/lZRteKP3h3zwHfHGF0bjZ8bQhekuKVPcjHjjq1hy2JCbwMZvd4BNoykWso
; mzM2iYco8yiQ8uXTZRmkVyj21yH2vKVBZ4DMxKARTsMzWzTcTgVLvGADhsL5I0fBjtkhL7OCmUSS5p
; ohjc2mCz8/Ztxw9ee+7fzabBphseH0zd8aMHzYoNjrMNNpRNlGJ6TiNJqbzxNpFZlDfgUYk3jj94gj
; 6XuEnesN81vElhk+Imt1BS6spsECm1ahojnSv6I0nJNK4rs/F3l60qDdCeS0rcbGsMpG1dGY/s6Cv6
; XX4AXD0Orlpn9nTZyhgpbFx+pLA5tOvW47l1kLNlw8Py+9d85U3FJiXpHRtcvSO5rdgg03F/BptAUg
; 7CG8U/4o1KSj47c0kZydaIN46NSkrFhtw8RVLyAXJKUvpMEBcU62wTvsMn7jgYSjOdCcJ3dfFpJCl1
; 6lglpb8zxRiatrGvkoYrHthvn4nz98lSC1wjbFKzZIrNOCdGOg+81Ze+DYnZBhviX8KGaymVN2gj4k
; 3qkUOKN46/84arWFKzlMpN7GOg6bt2Nbzx+8MIm8bTH2QBU2gkmyj3sE+5h4bRDlcPeJt8FQL7ePNV
; Z7MoxfBCY05S4oQAQE3bbJNpW1/10X5j0KVkK9pEDPab0kBfWWqLDSYjRjnd3/eG1S4PbLrhVeLfFz
; Yqzcgb4I/NecPXovQca4wcb5Sb4ESON/gbJaLzxm8TctzM8V/73eRetvSX/XD18JkgjHaXlLhycG3Z
; okWLvoWfS9KA+5QGTNuIQWlA+eGSEm14DH+BU1+gxTGw32zT5Qf6XfMiqmPz1Pblr0zS4EpmupMSEy
; tUNqxe8XIJG1ztS9go/soblfR8ayDiDfGv4Q1jOG/wnYg3LimVN7hYcx/nN8XNHG80RsMUiwb0VXOf
; CVJpBoBVUvJ9MpcGOhOEfXxWJSWeYeRkq76Gz7St0oAxVFLiuyopESPqN2Og35QGxIIzcTlsdCYO2D
; zz5OEHMfkwSYOqalv62e/tuXPb8Rw2+j6Zz1K25Y3LVvJGJaXzBhk3xxvKVueNctMlpfMGg0/LZ2jZ
; D/bbZauuYiE2TZS2ecOHfU3blAa6jysXOo52WMwmkpSUexhUGgNglSQlriQqW3GV8X7jc9pvxFBJ6f
; 1moRmcFC/Ck5M0ETaYbJioQdRyw6QP3j7IYYOZQGajFG9UqpE3jj82jQHe8JxHvHnooYcOKG8Yswtv
; yE0eB2Jom4hB3uD7OGb0G99nv1Mx2GaDD/Jqsnjx4j/T9EdJyf0aacaXRF0aaIrV2T60yYpIlAJoF/
; tM2zgIjYHvaP0I9ruNpPQ22W+AFfXbsWGMUayDnC0bMjhe+QGeig2xcmycNy7NeI5reIN9nJsUb9Cm
; xoh4gwGlvFHZqtx03mgM5SbaRAz0ibwpYTMtKT/ykY984FWXXFJqitW0XZIGPBhUi8pJSj4k1bSN36
; k0YIxc2o4kpcoPAOAxVBrow90cNk/t2/3EJE+MdN2myzlsWf6KYqP4q9xOSXqtehXxRvEHb7zsh3IT
; MbrwhqtYyM1IUvrtzrPPPrs34g1jqKRkv0NJSbmH0arpD+REinVpwDSOfVxJVFKiDZUGpbSNK4K3iQ
; NARzmz5DFwo6pyw2OglmFOGmgMlTQqDdCvFDYPLr/07UkaJMPY8MgD5RxyvCHZMPvn+POcEn+0wexD
; /PWcMoZmuIg3HJgp3uD8Om+Ui9pvcDXHTWRY8IaZGb9zbjo2DTuAkb506dJpkmkHWJyVxE1JA15NCF
; xKGkCa5aSBxuCAQ5s8OWiDxVojScmYDmRKfgBg9lslJaWBYvPAHVuee/qa3/rHSRoYw9zw+ODuDSte
; 5jkl3rzfUt4ojyJpRrlH3rg0a8MbDrgSb1xS+nE4/3HhUN6wPJ7yJuKmttkwpfrDRX3wjRSrM0GQBk
; izlAZcr+bSAFcGHgzkhxbypDTwCklayFOlga6707StpRWw7w++o4eklAaMEUkDnmjGwJrDSRoMo9og
; MbFGNJqljHgDOQb8lTfAnys1sA/eKP4RNz2GlrbAefZqaSop0aYWsgU3tTixy1a+z5fiTQ03ZySlpm
; 2MVpcGnuE8bSM4bxqZtlUaQN5pDEoFtskYbJNyQzMcYrg0QPs5KYwZJL35dWnAfrOyE6+GfBsZ38FJ
; wAuijy36zPcnaRCMY8OEysNT9xyNzimwTPGGFdmYKVKSktxM8QbZJ4rhvOEzsojv0aQJYjhvIvVF3q
; BN8CYlhUNJ6dPrei+kNdYRkNOkILimVJcGfF9p+fLlr2oMrZvv0oBpm/dXlAap+vPabwDi/U5JA2px
; TiHzOPbv2PhNXMEnifjj3PD4YO/6Za8R/5SkjOr/R54OKimdm5wL8BjKTd5fkZvOG96npzw12Cb3I0
; kZ8SYrKSnFfCbOH2BG0iAlKfmQmpKSbbqkjF5zUUnp9ec9baNNSAOVlLi6sE3EAEgqDdCuSgN9gMkY
; 6PeRNZf/xSSRfTZth1bNn16PSfxTvhG+lpLrHikpeU7d08F5E1VLc98ISsoUN11Sum9ExBv1LfBqdd
; HtDmI0OBgenD8jQ9rWCkkYvVwtzbSNg6OkjGqsM8X60i6Noc/IcIK8/rzGUEnp/VZJGdX/Tz0/1Jvf
; B+/e+myflbPO2EF3EkOUkKA08wmNFP7qjRDxhm1QUvKcInvVcpNZ0yWlP78Fr3yS0CWlPj9UbrpMPU
; VSar1/ADAK2x62yRiR/FNLI/QpJQ28VnyNpVFktwVzjEki9WzfWDFs/aobX3ErMse/L94oN92KzHkz
; Dpu2mTe+3bYnStttbXtqLI1cUqbqz1N++BvfNZZGObut6bV9hx/f/8TiT//9JJF5oraln/3eru0/ev
; 8sZUWmvOGD74g3Xa3IyJsuVmR92LRRtjaa/ty2xyVlqjY/V0u3se1Ruad13PmKfGRphBi4auGAVRpA
; CuTecvB+q6XRsOpBzm2nbsh2B7fd+DJ5M6gVmfOG51glpfOm1opsmDZtjaa7Gtseplg0lrPt0RTLxc
; wqBbpYGgFg1obHvvoW4MS1tTSC+cUkkfZ02PCI5Y5tW37Miixl91Sy22KyUN6kuEneuKRMuat2sSIr
; 2bTNvPHd1rYHI30Q2x6+VZsqMtvF0ggxI0sjLwYDB9EzcR3kbNmwWgePD9SKLPV6TmRFNihv3IqsZN
; OWsyLLvfEdjanG098wbXsiaeD1/3OWRhpDpYFbGuEF1ZSl0dw6yNmxQWIeWv/lb92147ZnIisy3Hdp
; iYKIN+quqryJbndSvImsyEo2bTlJWbLCavjqvErKUdj24OdU2sb/lBte/7+rpdG0xNw7dXjtr//UiS
; Pzfm6iyHm6bqs++p9PbN+88Xn3X4jszlK3OxFvyM0Sb9pakVHuKjfbuts2kTQbhW0PC/yUpEEflkaM
; 8ZUrv/TW4l/5TyeW/epPnNj7u/9zosh5Om37fu9/nbjirP9wYt7/+XcnLrv4wncj3qikxPlXbtZIys
; iKzHmj9TUjbqZs2pSblJQ+g+42bSxU9GOSUgtiDtO2p4ulEWN0tTQ6cvDAfgw4btt/+2fmst2It82f
; /K/TA40bMlzEm8iKTHnjzqdaESwlKUu8QR/0FqrGps0lZWRComOqoexTuTcK2x6mbcrUGksjr+Pe1t
; IIklIHHLZVH/svJx6+4GcnirSTuCGrXf1L//GUwYZt07qbXqzhjcs9bHq7Q97krMjIm65WZLQ9i7ip
; Nm2MEd3uzDz4HrVtD6WBlpcelqURj+OKBfPf9gFHiXnPZ//7RBF4kjYoCR9o3CAplTc4h8x0ETf5yp
; WeY7cic/cc501kRYbvkpvOmz5t2hoviKn1/0u2PepSqu+TqTSosTRyaZCyNNIKSQpYraXR0cMHH4wG
; HDdMqBy48MMTRebZvB266MMnrv+1n0wONkrKiDduRdaGN5SU7itY4k1kEOJ2W7Sq5ouzbW3aGp1JdE
; nJ9DoM2x6Vkyovc5ZGUY179pcSoa2kjLLd3ITK4Bsk5Pxf+PfZwaaSUnnDRQzR7U4NbyIrMvJGrcgo
; KcmblN0WpWQfNm0zs5Satkdh2xPFUElJS6OUNOhiaXTpF+a9WxpwcxMqg2/rTiqF0kDjtvCyS96OeD
; MMKzLyJuUb4dz0tcR92LQ1mv4i2x5d/NunbU8bSyNO6+pTfZ3WxX6NpVFJUs5NqAy2pSZGaiSl86bW
; iowSUnmT4qZLysimLeRNwt22i03btKQs2fakHES72Pa0dcnMWRpRGqj9kEphd1e9fdvWZ9sMOJ1Qmc
; t2+S03MZLb1q644eUa3uh5LfEmZUWmvNH9Udq0NXwG4pIysntyS6k2tj0pl0yXBlqP3i2NUjFSLym6
; 3RYffHfZ5iZU4q1mYiS3LVr4xbeiczoMK7IUN0dp0/Zjs5TIZqOw7UmVb4hmKb2yVmRppGviUnZbTz
; 95ZF/XAcdst/vc/zFRA2KY252f/lDngaaSssaKLKrWhUzF25s+rciGadPWaNpmPXSmv5S7ZM6ldCpj
; 24P/3dLI7Yc8bas08DZpm1SyNGKbXSRltN3yqZ8+4yUm1kEOOtgoKdXToa0VmZ9jDBi1IsvxZhw2bd
; OzlCXbHryIqtZAbtsziN1Tqu5IytJIZ4IYQ2vDR5ZGfUjKaELlTHx8oOsg+9goKcmbYVqRUe6VuDlM
; m7ZTZilrbHu8jntk26PSIHrVPOdSmrI08hg+26SLTyOXTMQYVFKe6RMqvg6yj42zlF2tyPQdtb6syI
; Zp0zYjKXP1/+kg6rY9lJS07QFYnmJLlkaptN3G0sglpRaW0X73JSmjCZXT+fFBl+n+2m3FdUteq7F7
; SlmRRRZqKSuyEm9GYdPWePpjim1j20NrIL4kijbwHZay0xguKbk/iKWR1obXGCyXx/3VK5a/MowBp9
; lukgZSzdZ1ur92W3bNVafM9g3Tiiznd6G8GaZNW6NPw/uw7dHX2XO2PW0tjXLSoGRpRGnQt6RMZbvT
; QWJiur+viZEaSdnVikxn0NWKLOJNrRWZemoMYtNGbhYlZVfbHpUGbtuDNiJLI60BOAxLI7XbGpakjL
; LdJE+o9D0xUpKUXkg1JyndiiziTSQpnTcq90Zp09akpNlUC9sezgSxA2gjZynFg9R7upylkVpK5SyN
; WH9eB5y2OUxJGW2TuB6zzTrIPjbMUtbyRqUZeYPPuxVZxBuVe5EVWY7vfdq0NVoQk/XPu9r2pJwgc7
; OU/uAb0iBlaaQxulgajUJS+jYp6zGHOTFSkpRdrchcUnaxIuvDpo2FbCkpOaYQw23aGj4DG7Vtj1th
; QSrkLI28/nwkKVOWRtzftGHdi6MecJSYs/nxwbAnRnIbJk0i3pTknvOmxooMbdKKDG0yRlebNpWUtT
; ZtDVPslFgBjcK2p2QpFVkaqU7WGCVLI8YYtaT0bbatxxx0HWRfAy7iDc8xeTOIFZnLPedmiTfqW8AB
; x3u4kk0buUmbtmZctj0aQy2NGCOyNNI67l0sjcYhKaNsNxvWY+45OalT84LoOCTlILwhN/1WRK3IlD
; clm7aoWlcbmzZyc0ZS4uDGYdvjllLDtDTi/tqbVr407gHHbZzrMUc9MZLbOGnivKm1IvNnZCXeqLtt
; zqZNrbCQvTC4+rBpa5gOp0Zs2+N13FUa4PORpOSKgamWlkbcH7ek9G3U6zFHOd1fu+GxQMQbSjPyJl
; X/Xx10S7xxScnSCSmbtkhSMkZXm7amjW2Pyj3sD2Lb42+Vp1wyI5fSrpZGs0FSRhJzFBMq45wYqZGU
; ba3Icrzh7Y6+nhPxpsamTV/PSdm0uaTMjakmt5J/mLY9XD6j0kDthvqwNKI3Atv86pLFb8y2AcdtWB
; MqmBi59mT7s3GwUVKSN8gi5I2WsItW8pd4wxdQ9XbHeaP1RtrYtLkVVo1NG8fUKZJylLY9bikVuZS6
; pRFla8nSiPtut7Vx7eo/nq0DTrNdX4OtjxdEh73xfTivza9WZCxVEPEG+5G7LXlDB92IN87Fkk0bY4
; DviNHFpq3REgWjtO3R9Zo5d1Ut7Jl7c9djuKScrgjWsojQOLPdoBJzFOsg+5KUKSsyP6dqRUbfCOWN
; c7MLb/D7Wps2FkBuY9PWMG33bdsTSUq17fH6/143Aj/TCiuSBmoNxCuP93uSJGWU7bpMqMzGiZFaSa
; m8SVmROW/4jiYHRYo3iOG8SXHTeVOyaUMGrbVpa6K0XbLt8bTdxrYnJSnRLv5XuyG2WYpRsjRim+Na
; aTLI1mY95jBeEB21pGRBVRZOTVmR8RxHvKHcK/FmHDZtp7zxHdn2uKcARrdLyja2Pe5S2sYKi1OuJW
; mA/UmWlL6V1mOOax1kHxtnKdtakaXcbfVVGuUNi7M6b/hWOXnjkrJvm7ami20PLaVytj10sNS07VZY
; JWmgpgy1lkb6yMHdVSdJUvqWmlCZrdP9tZuWyStZSqV4o5WXnTdIAine5LiZs2nDxburTdv0+3BtbX
; voLZCy7eHvmGJz0sBj0ApLfQtYxx3/T021s8JSabBty6bnJmmQRRsfH8yGdZB9bCopB7Ei4zlWbkb1
; /9kWZZ+2WbJpi2532tq0NZpia2x7PG3X2PZoinVLKRb48ZlQlpNWKyxeTWhp5FZYlAa8mqiknJYGEy
; opo2w3G9ZB9rHxje+uVmTOm5SkjPwuxmHTNj1LGUlKD+xyb1DbnqSlVEYa6MLoyNIIf58KLI1mKkZf
; /eU/n6SBldsmaVDltsv/YN47zhslbK0VmVuo1fBGp+5HZdN2iqQcpW2PS4MoBn4XxcCVrcbSiD/TG+
; Fr9+48OkmD6kwYcPQWcN60tSLjrUgNN5U3lI3KTedNnzZt02sptcZ6VP8/Z9ujzyNqbXvcU0AtpTxt
; syKSxuhqaeQe35O8TdKgym2RpGxjRebVCJSbzhssC/P1mpGkHKZNW8MpV03bSbunHm17eJ+V0uAqWy
; kNooXRWiyUhiFuaTRjRzsnKWfdBkkZ8Uan7musyJQ35CZ44+9oRrc7o7Rpa1Saqd0T0zg+3KdtD30K
; mLY9htaGp6Rkm4jB1QORb4HKAY3BmHOScvZtcECN5F6tFVnK/yJy0E1xk+2OwqatKdn2eI31NrY96F
; zKtsfr/7sVlqZt9y3Ad3iDyhvSGkujA4/sf3SSBtWZMOBcUqo068ob7Kd4o5muq02b3+7krLCQ2bTf
; M5bDo7btier/q2xlDJUGkW9BjaXRzALXKy7/ziQNqjNhwF128YXvRrxRSemVtXK3IineaEWwaIFxW5
; s2xvCF0SWbtmbUtj18nYJpmzJVfQsiKyycEACoaTuyNKJU0H7TG2HP7l1PTtKgOlMy3NRUvRVZDW+U
; mzW8GcSmzSVlyaatGZdtj0sD7lO28k0ExKA04ORJjaVR6I0wJyln5YBLWZHpS6Ild1vlDblZyxuXlF
; oTR7nJCZmcTRtvoTimMOGiY6oZl20PYka+BVEdd52l7GJpxDb79IebG3D9bJCUXkjVZymVm5Gk7Mob
; 5abf7rjfhc5SMkbJpi3y1GjGZdujRWBKkhJXK5WtbS2NcLGYbnNq95FJGlRnSoaLeOOWUs6byELNJS
; UGWxvetLVpw3drbNq0zWZctj3appayw+CKrLA0RldLozlJOTsHXI0Vmd/u4JwiCylvtMxiDW/8dqfG
; pk0t1FS2MtOVbNqacdn2uKRkhSRN2/idSoOulkaMccWC+W9P0qA6Ewacz1LqWkrlTU5SQiW5K2+JN7
; qKJeX8qzEwkCJu6rt2NTZtzbhse9SpJGeFpWWltY77VAtLI5yQOUk5ezMceQMekje0N1NvCvUUcN5Q
; 7vHvkIMRb1grNeIN7c2cNyluqhWW27SpFNYx1YzLticlKTUGBxwr5yIG2mhraaQxNl79B28t+ejP/H
; CSBtfpOuDWLJz3bc724ZzmrMja8Ab7+Blt5njjshX7tfzvatM2/eA7chAdtm0PpYFbSnna1geYUdrO
; WRpFM6G4IDx18LH915/zC+9P0gA7nQbcot866x9v27zh+Yg3OMdqRUbeuKRM8YbcpKRMWWG1tWmrtc
; Iq2bQ1atsTScph2fawTcbwtK0ZLicNclI4JT8QY+niRW9u+8q8b0/SIDsdBtyyiz79rluRRbyptSIj
; F7HYwbkZ8YbPyLTN3KSJ82ZQm7aspOT9lg64QW173BqolLZphRVJgz4sjTbfuOTV6z75vz+YpME2iQ
; Pukv//kz/cdtNX/4T3V1r/PzqntVZkETfx+Yg37lvgNm0p3qjHxqA2baGkjIzv+7bt4fo1f9cuNduk
; MdTSCDFUUurrObQ0Stltoc3p2vAHD+xff+ln/npuwA1nu/Z3fvV7O+++axp/5w2tyJw3ba3IlDeMEf
; Em4uYobdoaTX+ltI3Riw6XbHt0+UxkhVWSBp62NUZkaRQ5WEZ2WyVLo/s2r3rhuo9/6AdzA66f7dKz
; fuKHaxYteJO88VsRx7+LFRnPKbIT/S4ibuKzJUnZxaaN/a61aWvUtocujaOw7eFBuxWWxmDapscAZW
; vK0qhkt8WDzlka7dy68bnl5/7ye3MDbrDtqk+d9d7uu3ccc0lP3jj+bXlTw03lDf0uXLbW8Ib7fdi0
; NUypbtvjb07nbHtmpFkL2x5aYbmllEsDl5S+Xg0xdCbIZ0JVUqYsjdxu67FHH3lk+7WXfms2Pz6YzY
; Nt7cKLvs1zWmtFBt4MYkWms5SMEfGmDTeHYdPWuG2Pyz0tuklrILXt0RdQU7Y9OJhU2sbntRRfZIWF
; g0tJg9xbDhoD7WiMyNII3+fVb3qV99b1z637/K/9/dyAq9sWnP2hD7auXfmiv2VSY0XmvKm1ItNzqj
; FyllIp3ozCpq1pY9vjllKs4w5gUpIyZQ0UyVZ8nguN9wdWWIyBfmCfVZTcY8CdT3kcKmly3gja7107
; 7zq2Zv657y776E/Pqmw32wbbted/4rt+jlO8iazIaPfU1opMFxqTN+RmijcuKUdp0zbzxvegtj0qKb
; XAj9ZYV9lKKyyt/RfNhFJSpiyNtDY811bqTKgWC01ZGkVv7rpvwZ7bNx+fTRJzNg227f863T+IFZne
; ikT46zlWSdmFN8rNSLa2tWmLJGVqTDV92/ZgX2ebaIWVkgYpKyzWjWAMSsqUpZHWn8eLhu5g6fXnab
; cVScqUpdH2Teu/eevC82fFAujZMNCu+ezZ30cRoBRvtBZIzooMvKm1IkvFcJdS8uaA1f/P8WYUNm3N
; MGx76DHAlMrKYNjXqkiptI3/Ve6xTfyvlkbob9RvtzRyuy2Vwm2tsO65c8fTWI+5/FM/989n8oBbse
; CC77hsSkl68iZnRcZz7NKsZEXmvNFzXOLNOGzamkiauW3PTG3+jG0P6/SlbHuwj4HHkU65V5IGLFkN
; adDW0oh2Q1rIU2O4u2obS6N99+54apzrMcc10K76zf/73l23bnrW8acUc0nZ1u4peuO7xoosJynJzR
; JvlJttbNr4AN8lpWODAdmM2rYnVd1Wi8zyvkolpcZoa2nkMbz+vM6E6iLaEjarVyx/Zefyha+fKQNu
; 5YLPf6fWikwvpikrMkrKWisyd7d13rBwcEpS5niDGLRpS1Ve7sOmbdpboGTbw7rtfdr2MG1zn1cGpt
; 5Ibngd974tjSiF2RbIkMKGMaeBv/6a12469xdH+rB8lANt4cc//P66xVe8QSsy4l+yIsOm+JNHypuU
; pZTzxuWeS0r+XrmZ4g3b0nMdcbONTZs7uKawaZjGR23bw9p/Wl5aZ0LVCovv2nW1NMrZbbmlEe22VN
; KU6s9Py9aDB/av/PzHvn+6DThIyHtP3remsOGb0zpB4Ng4byIrMudNqv4/eVO63SFvIPcYw3kziE0b
; Z+WdNyVuNinbHgYelm2PW0q5b4EWmeXBaIUkHcx9Whrp+3yKjdttpbDZe8vq50fx+GAUgw3rILtYkb
; kUS1mRUVJGvEGMrrzR2x31FfT780hS+qOqqN+D2LQ1mlpdNjG9DsO2R2evVF5qjMimSotujtPSiFtY
; f37V9S+vOu/sf5jUAYfp/ju2bHiuFhvKJsVG8Sc2XLMbuduWeOPnNMcbSko88EYM8AT7dOUlb0rOv/
; y5T5u2rKQcpm1PZCnlklJnKQexNMrZbXmGdtmawobHkcLm8KGDD61f8LvvDCvbDWuwrb78gr8gNikr
; MsdG8XdsfPJEn7HmeNPWiqwNb9DPnE2bG5L67c4gNm2Npr/IUmpYtj2+MJoxMADcCouPA3Q1iGpw7K
; PflAYlSyO12/IFrilp0BWbh/fsOnL9EJ7Z9T3Q8ILo5hVLXy5ZkQ2Cjco9EFStyJw3kbut8wbP6tim
; 8kbxd96opHSbNrdQa2vTVoPNtKQch21PlMIjSalWWIzR1tKIbfZpaZSVlIbNutWrXtpwMtv1uR6zz8
; G29Pzf+O6Wmzd8M4VNyYpMZVOEjbap2ICIbLPEG5epOd4gBrJijjc5mzY/pyneRDZtPI6UTVszLtue
; lDTQZWS6oj+SH/PmzftrfbhISXkgU3++ZGnk8iOFjcoPxYbrBSNsdqxc/GpfErOvwXbztVe8Tmx0aR
; T6nbIiIzbYV0kZYePutiXe4Jzp0sDIiqzEG67o1+LEEW/a2LRBhfVh09b4apC+bXtKllL+rh2lgc5S
; 8hV5la2+GkSlQWS3VWtplJIGg2CjMfZ97Z4nb77knL8Z94DDdP8d2289zpk4fddLZ+JqscF3S9joPV
; DOigxt4hyXeKPVupQ3jMF37XK8aWPTpg/XFZtUAeQIm0bTttv2AIwopdbY9qSkgVthcZ9r4VxSYh/9
; QFttLY0il8y+LI0YowYbtjn1r/XnITG3XD3vrUHKOXQdaCh7cMOl579diw0GQA4b/G1QbPg6V443fJ
; 3LXXgjV17K1hJvutq04XtdbdqmZylTtj0clW4p5S/ipWx7dGLDbXv8RVRaYandUORboNIAL8h62tbZ
; ppSlkUqDSFKqpClZGjk2vLHOYUO5jRdcu1YM6zLYLjv7Qx/cs33L8VpsUlZktTZhbazIHJtcjMg3Is
; cbxnDe9GnTlvNGSErKWtse9xhwSellECgN8J2o6hKyo7+j5r4FkTXQIJZGjKGWRioN8Cp/G2wiaUZs
; NIZj8+D9ew/tWLbgzWEPuFWXnfd2ChsvwOv4a2WtFDb4bAmbiDcpSynKVkrKyDcixRtKyhxvIpu2qA
; Bs3zZtjaa/QW17VBqUbHtohZVK22qFxWKhjIENbbqlkUsDlxuUNDyOnIOrthlhU2ObRGxwRSxZGm1d
; dd0rqz7z//6p7wF3+dn/7YPViy5/063I6BLr/e6CTR9WZDynJUspvj3uvFH/CxYoassbrU+p/S7ZtO
; UkpWPT5NKfp20tF1Zj26Np2217kpZSB9K+BSVLI+y7pFS7LbTn8iMVI1V/PrLbKmHDfaqAFDbIdrXr
; MWsG2xUf//n3UTkLMdpakaUkfYSNSrOuVmSOTVsrMq2XUssb9S1og80gNm2NVy9S2dSHbQ9fX09JSr
; fCYtrWyk46S5myNMrZbXHFQ1R1yYuFRrNN+I7bbXm/KZtYLDSy26I0y2EzfVO+dulLpccHpcG2cenC
; 12uwcWnmVmQlbCIrMsdmmFZkij9IHnlTkDd8uE7ejMOmrYnSdsq2x9M2GubD7JJtD2OwTY9RIw0iSy
; OVe/g7HkTqlSmSwhojZbdVa2mEPpQsjVw21dht3bLmxpdu/sKn/rbtgEM9yG0bVr/gZbzdf4HH4XKv
; xooshc0gVmRtsNEYkJg1knKf+Rao3BulTVuTkmaR3ROJXGPbE9kNaQyvehtZYan8iKywai2Non4zBo
; CgNACojJGSlKUYWn9eZykVG6+bn7LbgsRExbAo20WDbfkln/vLFDZ9WpGlJOUgVmSOTRcrMueNc9Ox
; GYdNW6MLLEdp2+OzlCopARBiqKTRGEj1Dz/88KM8mMjSyGVrZGkU1Z9XaaB2W+6N0AYblU1t7LbweU
; iaR6buecIfH+hAm/9LP/WD2zasekFjEJtaK7IIG8c/hU3KiiwVw7EZxIrMH67XcLMtNn3atDWUZm7b
; A2mmN6Z92fZ42iagSMEAhTEwCNXSSAvAtrU00uzTxtIIMWi3xX57DF4NXW4oNrT0Umx49avBBn1Ys/
; LGl29b9G/2WhxsN1x0zrtrb1r5EvEvYaMxStikrMgcG5XbXa3IHJtaKzL0IeImeaPcZNEo9nMcNm2N
; yw+SH51Vude3bU/JUopTr9inpZHew0XSLGVp5DG4lEctjdxui/12aYZioRojZ4XVFhvFP4XNpiVXvP
; nVT/7sB1gxgnWQiIG/uaQZBBu/GNViE8WosSKLsOFxDGJFxhgpbMZh09a4pZRKSqTUYdn2eP1/ndFy
; 3wJfS6kumWyzjaWR2m1FkrLG0ojVo3KSMufEOQg2cHC9e8dtzzg23HdsclZkOWyiWcqUFZljo9Ksqx
; VZhI1bkTk2akWmktKxiSRlNIPuknJQbJpIbkBSDtu2xy2lcIVwj+acpZHK1tTzQ7fCKlkaef35CBs+
; B9Lj0H7jBDk2LI5bwkYlTe4ZZQ02+I5iE+Hv2IBAtdjoxBexiqzItN8pK7IIG7Y5TGxKtyLKTbdpo2
; xVbPQZZQqbfwHSWWCsgSXbOwAAAABJRU5ErkJggg==
; thumbnail end
;
; 

; external perimeters extrusion width = 4.00mm
; perimeters extrusion width = 4.00mm
; infill extrusion width = 4.00mm
; solid infill extrusion width = 4.00mm
; top infill extrusion width = 4.00mm
; first layer extrusion width = 4.00mm

M73 P0 R1481
M201 X2500 Y2500 Z2500 E5000 ; sets maximum accelerations, mm/sec^2
M203 X1000 Y1000 Z1000 E1000 ; sets maximum feedrates, mm / sec
M204 P1250 R1250 T2500 ; sets acceleration (P, T) and retract acceleration (R), mm/sec^2
M205 X8.00 Y8.00 Z2.00 E10.00 ; sets the jerk limits, mm/sec
M205 S0 T0 ; sets the minimum extruding and travel feed rate, mm/sec
M107
;TYPE:Custom
M862.3 P "MINI" ; printer model check
G90 ; use absolute coordinates
M83 ; extruder relative mode
M104 S170 ; set extruder temp for bed leveling
M140 S60 ; set bed temp
M109 R170 ; wait for bed leveling temp
M190 S60 ; wait for bed temp
M204 T1250 ; set travel acceleration
G28 ; home all without mesh bed level
G29 ; mesh bed leveling 
M204 T2500 ; restore travel acceleration
M104 S225 ; set extruder temp
G92 E0
G1 Y-2 X179 F2400
G1 Z3 F720
M109 S225 ; wait for extruder temp

; intro line
G1 X170 F1000
G1 Z0.2 F720
G1 X110 E8 F900
G1 X40 E10 F700
G92 E0

M221 S95 ; set flow
G21 ; set units to millimeters
G90 ; use absolute coordinates
M83 ; use relative distances for extrusion
M900 K0.2 ; Filament gcode LA 1.5
; ; Filament gcode LA 1.0
M107
;LAYER_CHANGE
;Z:4
;HEIGHT:4
;BEFORE_LAYER_CHANGE
G92 E0.0
;4


G1 E-3 F2700
G1 Z.2 F60000
G1 Z4
;AFTER_LAYER_CHANGE
;4
G1 Z4.2
G1 X475.394 Y475.937
G1 Z4
G1 E3 F1200
M204 P800
;TYPE:Skirt/Brim
;WIDTH:4
G1 F71.62
G1 X477.128 Y474.571 E2.20755
G1 X480 Y473.858 E2.95897
G1 X720 Y473.858 E240.00001
G1 X722.172 Y474.255 E2.20755
M73 P0 R1477
G1 X724.063 Y475.394 E2.20755
G1 X725.429 Y477.128 E2.20755
G1 X726.142 Y480 E2.95897
G1 X726.142 Y720 E240.00001
G1 X725.745 Y722.172 E2.20755
M73 P0 R1474
G1 X724.606 Y724.063 E2.20755
G1 X722.872 Y725.429 E2.20755
G1 X720 Y726.142 E2.95897
G1 X480 Y726.142 E240.00001
G1 X477.828 Y725.745 E2.20755
M73 P0 R1470
G1 X475.937 Y724.606 E2.20755
G1 X474.571 Y722.872 E2.20755
G1 X473.858 Y720 E2.95897
G1 X473.858 Y480 E240.00001
G1 X474.255 Y477.828 E2.20755
M73 P0 R1467
G1 X475.085 Y476.451 E1.60755
M204 P1000
; printing object 20mm_cube.stl id:0 copy 0
G1 E-2.1 F2700
;WIPE_START
G1 F48000
G1 X477.128 Y474.571 E-.14839
G1 X480 Y473.858 E-.15812
G1 X490.264 Y473.858 E-.54849
;WIPE_END
G1 E-.045 F2700
G1 Z4.2 F60000
G1 X717.8 Y717.8
G1 Z4
G1 E3 F1200
M204 P800
;TYPE:External perimeter
;WIDTH:4
G1 F71.62
G1 X482.2 Y717.8 E235.59995
G1 X482.2 Y482.2 E235.59995
M73 P1 R1464
G1 X717.8 Y482.2 E235.59995
M73 P1 R1460
G1 X717.8 Y717.2 E234.99995
M204 P1000
M73 P1 R1457
G1 E-2.1 F2700
;WIPE_START
M73 P1 R1454
G1 F48000
G1 X701.8 Y717.241 E-.855
;WIPE_END
G1 E-.045 F2700
G1 Z4.2 F60000
G1 X710.633 Y482.985
G1 Z4
G1 E3 F1200
M204 P800
;TYPE:Solid infill
;WIDTH:4.01471
G1 F71.286
G1 X715.601 Y487.953 E7.0583
G1 X715.601 Y492.417 E4.48458
G1 X707.583 Y484.399 E11.3918
G1 X703.12 Y484.399 E4.48458
M73 P1 R1453
G1 X715.601 Y496.88 E17.73395
G1 X715.601 Y501.344 E4.48458
G1 X698.656 Y484.399 E24.0761
G1 X694.192 Y484.399 E4.48458
G1 X715.601 Y505.808 E30.41826
G1 X715.601 Y510.272 E4.48458
M73 P1 R1452
G1 X689.728 Y484.399 E36.76041
G1 X685.265 Y484.399 E4.48458
G1 X715.601 Y514.735 E43.10256
G1 X715.601 Y519.199 E4.48458
M73 P2 R1451
G1 X680.801 Y484.399 E49.44472
G1 X676.337 Y484.399 E4.48458
M73 P2 R1450
G1 X715.601 Y523.663 E55.78687
G1 X715.601 Y528.126 E4.48458
M73 P2 R1449
G1 X671.874 Y484.399 E62.12902
G1 X667.41 Y484.399 E4.48458
M73 P2 R1448
G1 X715.601 Y532.59 E68.47118
G1 X715.601 Y537.054 E4.48458
M73 P2 R1447
G1 X662.946 Y484.399 E74.81333
G1 X658.483 Y484.399 E4.48458
M73 P2 R1446
G1 X715.601 Y541.517 E81.15548
G1 X715.601 Y545.981 E4.48458
M73 P2 R1445
G1 X654.019 Y484.399 E87.49764
G1 X649.555 Y484.399 E4.48458
M73 P2 R1444
G1 X715.601 Y550.445 E93.83979
G1 X715.601 Y554.908 E4.48458
M73 P2 R1442
G1 X645.092 Y484.399 E100.18194
G1 X640.628 Y484.399 E4.48458
M73 P2 R1441
G1 X715.601 Y559.372 E106.52409
G1 X715.601 Y563.836 E4.48458
M73 P2 R1439
G1 X636.164 Y484.399 E112.86625
G1 X631.701 Y484.399 E4.48458
M73 P2 R1438
G1 X715.601 Y568.299 E119.2084
G1 X715.601 Y572.763 E4.48458
M73 P3 R1436
G1 X627.237 Y484.399 E125.55055
G1 X622.773 Y484.399 E4.48458
M73 P3 R1434
G1 X715.601 Y577.227 E131.89271
G1 X715.601 Y581.69 E4.48458
M73 P3 R1432
G1 X618.31 Y484.399 E138.23486
G1 X613.846 Y484.399 E4.48458
M73 P3 R1430
G1 X715.601 Y586.154 E144.57701
G1 X715.601 Y590.618 E4.48458
M73 P3 R1428
G1 X609.382 Y484.399 E150.91917
G1 X604.919 Y484.399 E4.48458
M73 P3 R1426
G1 X715.601 Y595.081 E157.26132
G1 X715.601 Y599.545 E4.48458
M73 P3 R1424
G1 X600.455 Y484.399 E163.60347
G1 X595.991 Y484.399 E4.48458
M73 P4 R1421
G1 X715.601 Y604.009 E169.94562
G1 X715.601 Y608.473 E4.48458
M73 P4 R1419
G1 X591.527 Y484.399 E176.28778
G1 X587.064 Y484.399 E4.48458
M73 P4 R1417
G1 X715.601 Y612.936 E182.62993
M73 P4 R1416
G1 X715.601 Y617.4 E4.48458
M73 P4 R1414
G1 X582.6 Y484.399 E188.97208
G1 X578.136 Y484.399 E4.48458
M73 P4 R1411
G1 X715.601 Y621.864 E195.31424
G1 X715.601 Y626.327 E4.48458
M73 P4 R1408
G1 X573.673 Y484.399 E201.65639
G1 X569.209 Y484.399 E4.48458
M73 P5 R1406
G1 X715.601 Y630.791 E207.99854
M73 P5 R1405
G1 X715.601 Y635.255 E4.48458
M73 P5 R1403
G1 X564.745 Y484.399 E214.3407
G1 X560.282 Y484.399 E4.48458
M73 P5 R1400
G1 X715.601 Y639.718 E220.68285
M73 P5 R1399
G1 X715.601 Y644.182 E4.48458
M73 P5 R1396
G1 X555.818 Y484.399 E227.025
G1 X551.354 Y484.399 E4.48458
M73 P5 R1393
G1 X715.601 Y648.646 E233.36715
G1 X715.601 Y653.109 E4.48458
M73 P6 R1390
G1 X546.891 Y484.399 E239.70931
G1 X542.427 Y484.399 E4.48458
M73 P6 R1386
G1 X715.601 Y657.573 E246.05146
G1 X715.601 Y662.037 E4.48458
M73 P6 R1383
G1 X537.963 Y484.399 E252.39361
G1 X533.5 Y484.399 E4.48458
M73 P6 R1379
G1 X715.601 Y666.5 E258.73577
G1 X715.601 Y670.964 E4.48458
M73 P7 R1376
G1 X529.036 Y484.399 E265.07792
G1 X524.572 Y484.399 E4.48458
M73 P7 R1372
G1 X715.601 Y675.428 E271.42007
G1 X715.601 Y679.891 E4.48458
M73 P7 R1368
G1 X520.109 Y484.399 E277.76223
G1 X515.645 Y484.399 E4.48458
M73 P7 R1364
G1 X715.601 Y684.355 E284.10438
G1 X715.601 Y688.819 E4.48458
M73 P8 R1360
G1 X511.181 Y484.399 E290.44653
G1 X506.718 Y484.399 E4.48458
M73 P8 R1356
G1 X715.601 Y693.282 E296.78868
G1 X715.601 Y697.746 E4.48458
M73 P8 R1352
G1 X502.254 Y484.399 E303.13084
G1 X497.79 Y484.399 E4.48458
M73 P9 R1347
G1 X715.601 Y702.21 E309.47299
G1 X715.601 Y706.674 E4.48458
M73 P9 R1343
G1 X493.326 Y484.399 E315.81514
G1 X488.863 Y484.399 E4.48458
M73 P9 R1339
G1 X715.601 Y711.137 E322.1573
G1 X715.601 Y715.601 E4.48457
M73 P9 R1334
G1 X484.399 Y484.399 E328.49944
G1 X484.399 Y488.863 E4.48458
M73 P10 R1329
G1 X711.137 Y715.601 E322.15728
G1 X706.674 Y715.601 E4.48458
M73 P10 R1325
G1 X484.399 Y493.326 E315.81513
G1 X484.399 Y497.79 E4.48458
M73 P10 R1320
G1 X702.21 Y715.601 E309.47297
G1 X697.746 Y715.601 E4.48458
M73 P11 R1316
G1 X484.399 Y502.254 E303.13082
G1 X484.399 Y506.718 E4.48458
M73 P11 R1312
G1 X693.282 Y715.601 E296.78867
G1 X688.819 Y715.601 E4.48458
M73 P11 R1307
G1 X484.399 Y511.181 E290.44652
G1 X484.399 Y515.645 E4.48458
M73 P11 R1303
G1 X684.355 Y715.601 E284.10436
M73 P12 R1303
G1 X679.891 Y715.601 E4.48458
M73 P12 R1299
G1 X484.399 Y520.109 E277.76221
G1 X484.399 Y524.572 E4.48458
M73 P12 R1295
G1 X675.428 Y715.601 E271.42006
G1 X670.964 Y715.601 E4.48458
M73 P12 R1292
G1 X484.399 Y529.036 E265.0779
M73 P12 R1291
G1 X484.399 Y533.5 E4.48458
M73 P13 R1288
G1 X666.5 Y715.601 E258.73575
G1 X662.037 Y715.601 E4.48458
M73 P13 R1284
G1 X484.399 Y537.963 E252.3936
G1 X484.399 Y542.427 E4.48458
M73 P13 R1280
G1 X657.573 Y715.601 E246.05145
G1 X653.109 Y715.601 E4.48458
M73 P13 R1277
G1 X484.399 Y546.891 E239.70929
G1 X484.399 Y551.354 E4.48458
M73 P14 R1274
G1 X648.646 Y715.601 E233.36714
G1 X644.182 Y715.601 E4.48458
M73 P14 R1270
G1 X484.399 Y555.818 E227.02499
G1 X484.399 Y560.282 E4.48458
M73 P14 R1267
G1 X639.718 Y715.601 E220.68283
G1 X635.255 Y715.601 E4.48458
M73 P14 R1264
G1 X484.399 Y564.745 E214.34068
G1 X484.399 Y569.209 E4.48458
M73 P14 R1261
G1 X630.791 Y715.601 E207.99853
G1 X626.327 Y715.601 E4.48458
M73 P15 R1258
G1 X484.399 Y573.673 E201.65637
G1 X484.399 Y578.136 E4.48458
M73 P15 R1255
G1 X621.864 Y715.601 E195.31422
G1 X617.4 Y715.601 E4.48458
M73 P15 R1252
G1 X484.399 Y582.6 E188.97207
G1 X484.399 Y587.064 E4.48458
M73 P15 R1250
G1 X612.936 Y715.601 E182.62991
M73 P15 R1249
G1 X608.473 Y715.601 E4.48458
M73 P15 R1247
G1 X484.399 Y591.527 E176.28776
G1 X484.399 Y595.991 E4.48458
M73 P15 R1244
G1 X604.009 Y715.601 E169.94561
G1 X599.545 Y715.601 E4.48458
M73 P16 R1242
G1 X484.399 Y600.455 E163.60345
G1 X484.399 Y604.919 E4.48458
M73 P16 R1240
G1 X595.081 Y715.601 E157.2613
G1 X590.618 Y715.601 E4.48458
M73 P16 R1237
G1 X484.399 Y609.382 E150.91915
G1 X484.399 Y613.846 E4.48458
M73 P16 R1235
G1 X586.154 Y715.601 E144.577
G1 X581.69 Y715.601 E4.48458
M73 P16 R1233
G1 X484.399 Y618.31 E138.23484
G1 X484.399 Y622.773 E4.48458
M73 P16 R1231
G1 X577.227 Y715.601 E131.89269
G1 X572.763 Y715.601 E4.48458
M73 P17 R1229
G1 X484.399 Y627.237 E125.55054
G1 X484.399 Y631.701 E4.48458
M73 P17 R1227
G1 X568.299 Y715.601 E119.20838
G1 X563.836 Y715.601 E4.48458
M73 P17 R1226
G1 X484.399 Y636.164 E112.86623
G1 X484.399 Y640.628 E4.48458
M73 P17 R1224
G1 X559.372 Y715.601 E106.52408
G1 X554.908 Y715.601 E4.48458
M73 P17 R1222
G1 X484.399 Y645.092 E100.18193
G1 X484.399 Y649.555 E4.48458
M73 P17 R1221
G1 X550.445 Y715.601 E93.83977
G1 X545.981 Y715.601 E4.48458
M73 P17 R1220
G1 X484.399 Y654.019 E87.49762
G1 X484.399 Y658.483 E4.48458
M73 P17 R1218
G1 X541.517 Y715.601 E81.15547
G1 X537.054 Y715.601 E4.48458
M73 P17 R1217
G1 X484.399 Y662.946 E74.81331
G1 X484.399 Y667.41 E4.48458
M73 P17 R1216
G1 X532.59 Y715.601 E68.47116
G1 X528.126 Y715.601 E4.48458
M73 P17 R1215
G1 X484.399 Y671.874 E62.12901
G1 X484.399 Y676.337 E4.48458
M73 P18 R1214
G1 X523.663 Y715.601 E55.78685
G1 X519.199 Y715.601 E4.48458
M73 P18 R1213
G1 X484.399 Y680.801 E49.4447
G1 X484.399 Y685.265 E4.48458
M73 P18 R1212
G1 X514.735 Y715.601 E43.10255
G1 X510.272 Y715.601 E4.48458
G1 X484.399 Y689.728 E36.76039
G1 X484.399 Y694.192 E4.48458
M73 P18 R1211
G1 X505.808 Y715.601 E30.41824
G1 X501.344 Y715.601 E4.48458
G1 X484.399 Y698.656 E24.07609
G1 X484.399 Y703.12 E4.48458
M73 P18 R1210
G1 X496.88 Y715.601 E17.73394
G1 X492.417 Y715.601 E4.48458
G1 X484.399 Y707.583 E11.39178
G1 X484.399 Y712.047 E4.48458
G1 X489.367 Y717.015 E7.05829
M204 P1000
; stop printing object 20mm_cube.stl id:0 copy 0
M106 S84.15
;LAYER_CHANGE
;Z:7
;HEIGHT:3
;BEFORE_LAYER_CHANGE
G92 E0.0
;7


G1 E-2.1 F2700
;WIPE_START
G1 F48000
G1 X484.399 Y712.047 E-.37542
G1 X484.399 Y707.583 E-.23853
G1 X487.589 Y710.773 E-.24105
;WIPE_END
G1 E-.045 F2700
G1 Z4.2 F60000
G1 Z7
;AFTER_LAYER_CHANGE
;7
G1 Z7.2
G1 X473.858 Y710.773
G1 Z7
G1 E3 F1200
;TYPE:Skirt/Brim
;WIDTH:4
G1 F89.387
G1 X473.858 Y480 E184.90275
G1 X474.255 Y477.828 E1.76876
M73 P18 R1207
G1 X475.394 Y475.937 E1.76876
G1 X477.128 Y474.571 E1.76876
G1 X480 Y473.858 E2.37082
G1 X720 Y473.858 E192.29578
G1 X722.172 Y474.255 E1.76876
M73 P18 R1204
G1 X724.063 Y475.394 E1.76876
G1 X725.429 Y477.128 E1.76876
G1 X726.142 Y480 E2.37082
G1 X726.142 Y720 E192.29578
G1 X725.745 Y722.172 E1.76876
M73 P18 R1201
G1 X724.606 Y724.063 E1.76876
G1 X722.872 Y725.429 E1.76876
G1 X720 Y726.142 E2.37082
G1 X480 Y726.142 E192.29578
G1 X477.828 Y725.745 E1.76876
M73 P19 R1199
G1 X475.937 Y724.606 E1.76876
G1 X474.571 Y722.872 E1.76876
G1 X473.858 Y720 E2.37082
G1 X473.858 Y711.373 E6.91229
; printing object 20mm_cube.stl id:0 copy 0
G1 E-2.1 F2700
;WIPE_START
M73 P19 R1198
G1 F48000
G1 X473.858 Y695.373 E-.855
;WIPE_END
G1 E-.045 F2700
G1 Z7.2 F60000
G1 X718 Y718
G1 Z7
G1 E3 F1200
M204 P800
;TYPE:External perimeter
;WIDTH:4
G1 F89.387
G1 X482 Y718 E189.09081
G1 X482 Y482 E189.09081
M73 P19 R1196
G1 X718 Y482 E189.09081
M73 P19 R1193
G1 X718 Y717.4 E188.61008
M204 P1000
; stop printing object 20mm_cube.stl id:0 copy 0
M106 S170.85
;LAYER_CHANGE
;Z:10
;HEIGHT:3
;BEFORE_LAYER_CHANGE
G92 E0.0
;10


M73 P19 R1191
G1 E-2.1 F2700
;WIPE_START
M73 P19 R1188
G1 F48000
G1 X702 Y717.441 E-.855
;WIPE_END
G1 E-.045 F2700
G1 Z7.2 F60000
G1 Z10
;AFTER_LAYER_CHANGE
;10
; printing object 20mm_cube.stl id:0 copy 0
G1 Z10.2
G1 X718 Y718
G1 Z10
G1 E3 F1200
M204 P800
G1 F89.387
G1 X482 Y718 E189.09081
G1 X482 Y482 E189.09081
M73 P19 R1185
G1 X718 Y482 E189.09081
M73 P20 R1183
G1 X718 Y717.4 E188.61008
M204 P1000
; stop printing object 20mm_cube.stl id:0 copy 0
M106 S255
;LAYER_CHANGE
;Z:13
;HEIGHT:3
;BEFORE_LAYER_CHANGE
G92 E0.0
;13


M73 P20 R1180
G1 E-2.1 F2700
;WIPE_START
M73 P20 R1177
G1 F48000
G1 X702 Y717.441 E-.855
;WIPE_END
G1 E-.045 F2700
G1 Z10.2 F60000
G1 Z13
;AFTER_LAYER_CHANGE
;13
; printing object 20mm_cube.stl id:0 copy 0
G1 Z13.2
G1 X718 Y718
G1 Z13
G1 E3 F1200
M204 P800
G1 F89.387
G1 X482 Y718 E189.09081
G1 X482 Y482 E189.09081
M73 P20 R1175
G1 X718 Y482 E189.09081
M73 P20 R1172
G1 X718 Y717.4 E188.61008
M204 P1000
; stop printing object 20mm_cube.stl id:0 copy 0
;LAYER_CHANGE
;Z:16
;HEIGHT:3
;BEFORE_LAYER_CHANGE
G92 E0.0
;16


M73 P21 R1169
G1 E-2.1 F2700
;WIPE_START
M73 P21 R1167
G1 F48000
G1 X702 Y717.441 E-.855
;WIPE_END
G1 E-.045 F2700
G1 Z13.2 F60000
G1 Z16
;AFTER_LAYER_CHANGE
;16
; printing object 20mm_cube.stl id:0 copy 0
G1 Z16.2
G1 X718 Y718
G1 Z16
G1 E3 F1200
M204 P800
G1 F89.387
G1 X482 Y718 E189.09081
G1 X482 Y482 E189.09081
M73 P21 R1164
G1 X718 Y482 E189.09081
M73 P21 R1161
G1 X718 Y717.4 E188.61008
M204 P1000
; stop printing object 20mm_cube.stl id:0 copy 0
;LAYER_CHANGE
;Z:19
;HEIGHT:3
;BEFORE_LAYER_CHANGE
G92 E0.0
;19


M73 P21 R1159
G1 E-2.1 F2700
;WIPE_START
M73 P21 R1156
G1 F48000
G1 X702 Y717.441 E-.855
;WIPE_END
G1 E-.045 F2700
G1 Z16.2 F60000
G1 Z19
;AFTER_LAYER_CHANGE
;19
; printing object 20mm_cube.stl id:0 copy 0
G1 Z19.2
G1 X718 Y718
G1 Z19
G1 E3 F1200
M204 P800
G1 F89.387
G1 X482 Y718 E189.09081
G1 X482 Y482 E189.09081
M73 P22 R1154
G1 X718 Y482 E189.09081
M73 P22 R1151
G1 X718 Y717.4 E188.61008
M204 P1000
; stop printing object 20mm_cube.stl id:0 copy 0
;LAYER_CHANGE
;Z:22
;HEIGHT:3
;BEFORE_LAYER_CHANGE
G92 E0.0
;22


M73 P22 R1148
G1 E-2.1 F2700
;WIPE_START
M73 P22 R1146
G1 F48000
G1 X702 Y717.441 E-.855
;WIPE_END
G1 E-.045 F2700
G1 Z19.2 F60000
G1 Z22
;AFTER_LAYER_CHANGE
;22
; printing object 20mm_cube.stl id:0 copy 0
G1 Z22.2
G1 X718 Y718
G1 Z22
G1 E3 F1200
M204 P800
G1 F89.387
G1 X482 Y718 E189.09081
G1 X482 Y482 E189.09081
M73 P22 R1143
G1 X718 Y482 E189.09081
M73 P22 R1140
G1 X718 Y717.4 E188.61008
M204 P1000
; stop printing object 20mm_cube.stl id:0 copy 0
;LAYER_CHANGE
;Z:25
;HEIGHT:3
;BEFORE_LAYER_CHANGE
G92 E0.0
;25


M73 P23 R1138
G1 E-2.1 F2700
;WIPE_START
M73 P23 R1135
G1 F48000
G1 X702 Y717.441 E-.855
;WIPE_END
G1 E-.045 F2700
G1 Z22.2 F60000
G1 Z25
;AFTER_LAYER_CHANGE
;25
; printing object 20mm_cube.stl id:0 copy 0
G1 Z25.2
G1 X718 Y718
G1 Z25
G1 E3 F1200
M204 P800
G1 F89.387
G1 X482 Y718 E189.09081
G1 X482 Y482 E189.09081
M73 P23 R1132
G1 X718 Y482 E189.09081
M73 P23 R1130
G1 X718 Y717.4 E188.61008
M204 P1000
; stop printing object 20mm_cube.stl id:0 copy 0
;LAYER_CHANGE
;Z:28
;HEIGHT:3
;BEFORE_LAYER_CHANGE
G92 E0.0
;28


M73 P23 R1127
G1 E-2.1 F2700
;WIPE_START
M73 P24 R1125
G1 F48000
G1 X702 Y717.441 E-.855
;WIPE_END
G1 E-.045 F2700
G1 Z25.2 F60000
G1 Z28
;AFTER_LAYER_CHANGE
;28
; printing object 20mm_cube.stl id:0 copy 0
G1 Z28.2
G1 X718 Y718
G1 Z28
G1 E3 F1200
M204 P800
G1 F89.387
G1 X482 Y718 E189.09081
G1 X482 Y482 E189.09081
M73 P24 R1122
G1 X718 Y482 E189.09081
M73 P24 R1119
G1 X718 Y717.4 E188.61008
M204 P1000
; stop printing object 20mm_cube.stl id:0 copy 0
;LAYER_CHANGE
;Z:31
;HEIGHT:3
;BEFORE_LAYER_CHANGE
G92 E0.0
;31


M73 P24 R1117
G1 E-2.1 F2700
;WIPE_START
M73 P24 R1114
G1 F48000
G1 X702 Y717.441 E-.855
;WIPE_END
G1 E-.045 F2700
G1 Z28.2 F60000
G1 Z31
;AFTER_LAYER_CHANGE
;31
; printing object 20mm_cube.stl id:0 copy 0
G1 Z31.2
G1 X718 Y718
G1 Z31
G1 E3 F1200
M204 P800
G1 F89.387
G1 X482 Y718 E189.09081
G1 X482 Y482 E189.09081
M73 P24 R1111
G1 X718 Y482 E189.09081
M73 P25 R1109
G1 X718 Y717.4 E188.61008
M204 P1000
; stop printing object 20mm_cube.stl id:0 copy 0
;LAYER_CHANGE
;Z:34
;HEIGHT:3
;BEFORE_LAYER_CHANGE
G92 E0.0
;34


M73 P25 R1106
G1 E-2.1 F2700
;WIPE_START
M73 P25 R1103
G1 F48000
G1 X702 Y717.441 E-.855
;WIPE_END
G1 E-.045 F2700
G1 Z31.2 F60000
G1 Z34
;AFTER_LAYER_CHANGE
;34
; printing object 20mm_cube.stl id:0 copy 0
G1 Z34.2
G1 X718 Y718
G1 Z34
G1 E3 F1200
M204 P800
G1 F89.387
G1 X482 Y718 E189.09081
G1 X482 Y482 E189.09081
M73 P25 R1101
G1 X718 Y482 E189.09081
M73 P25 R1098
G1 X718 Y717.4 E188.61008
M204 P1000
; stop printing object 20mm_cube.stl id:0 copy 0
;LAYER_CHANGE
;Z:37
;HEIGHT:3
;BEFORE_LAYER_CHANGE
G92 E0.0
;37


M73 P26 R1095
G1 E-2.1 F2700
;WIPE_START
M73 P26 R1093
G1 F48000
G1 X702 Y717.441 E-.855
;WIPE_END
G1 E-.045 F2700
G1 Z34.2 F60000
G1 Z37
;AFTER_LAYER_CHANGE
;37
; printing object 20mm_cube.stl id:0 copy 0
G1 Z37.2
G1 X718 Y718
G1 Z37
G1 E3 F1200
M204 P800
G1 F89.387
G1 X482 Y718 E189.09081
G1 X482 Y482 E189.09081
M73 P26 R1090
G1 X718 Y482 E189.09081
M73 P26 R1088
G1 X718 Y717.4 E188.61008
M204 P1000
; stop printing object 20mm_cube.stl id:0 copy 0
;LAYER_CHANGE
;Z:40
;HEIGHT:3
;BEFORE_LAYER_CHANGE
G92 E0.0
;40


M73 P26 R1085
G1 E-2.1 F2700
;WIPE_START
M73 P26 R1082
G1 F48000
G1 X702 Y717.441 E-.855
;WIPE_END
G1 E-.045 F2700
G1 Z37.2 F60000
G1 Z40
;AFTER_LAYER_CHANGE
;40
; printing object 20mm_cube.stl id:0 copy 0
G1 Z40.2
G1 X718 Y718
G1 Z40
G1 E3 F1200
M204 P800
G1 F89.387
G1 X482 Y718 E189.09081
G1 X482 Y482 E189.09081
M73 P27 R1080
G1 X718 Y482 E189.09081
M73 P27 R1077
G1 X718 Y717.4 E188.61008
M204 P1000
; stop printing object 20mm_cube.stl id:0 copy 0
;LAYER_CHANGE
;Z:43
;HEIGHT:3
;BEFORE_LAYER_CHANGE
G92 E0.0
;43


M73 P27 R1074
G1 E-2.1 F2700
;WIPE_START
M73 P27 R1072
G1 F48000
G1 X702 Y717.441 E-.855
;WIPE_END
G1 E-.045 F2700
G1 Z40.2 F60000
G1 Z43
;AFTER_LAYER_CHANGE
;43
; printing object 20mm_cube.stl id:0 copy 0
G1 Z43.2
G1 X718 Y718
G1 Z43
G1 E3 F1200
M204 P800
G1 F89.387
G1 X482 Y718 E189.09081
G1 X482 Y482 E189.09081
M73 P27 R1069
G1 X718 Y482 E189.09081
M73 P27 R1066
G1 X718 Y717.4 E188.61008
M204 P1000
; stop printing object 20mm_cube.stl id:0 copy 0
;LAYER_CHANGE
;Z:46
;HEIGHT:3
;BEFORE_LAYER_CHANGE
G92 E0.0
;46


M73 P28 R1064
G1 E-2.1 F2700
;WIPE_START
M73 P28 R1061
G1 F48000
G1 X702 Y717.441 E-.855
;WIPE_END
G1 E-.045 F2700
G1 Z43.2 F60000
G1 Z46
;AFTER_LAYER_CHANGE
;46
; printing object 20mm_cube.stl id:0 copy 0
G1 Z46.2
G1 X718 Y718
G1 Z46
G1 E3 F1200
M204 P800
G1 F89.387
G1 X482 Y718 E189.09081
G1 X482 Y482 E189.09081
M73 P28 R1058
G1 X718 Y482 E189.09081
M73 P28 R1056
G1 X718 Y717.4 E188.61008
M204 P1000
; stop printing object 20mm_cube.stl id:0 copy 0
;LAYER_CHANGE
;Z:49
;HEIGHT:3
;BEFORE_LAYER_CHANGE
G92 E0.0
;49


M73 P28 R1053
G1 E-2.1 F2700
;WIPE_START
M73 P29 R1051
G1 F48000
G1 X702 Y717.441 E-.855
;WIPE_END
G1 E-.045 F2700
G1 Z46.2 F60000
G1 Z49
;AFTER_LAYER_CHANGE
;49
; printing object 20mm_cube.stl id:0 copy 0
G1 Z49.2
G1 X718 Y718
G1 Z49
G1 E3 F1200
M204 P800
G1 F89.387
G1 X482 Y718 E189.09081
G1 X482 Y482 E189.09081
M73 P29 R1048
G1 X718 Y482 E189.09081
M73 P29 R1045
G1 X718 Y717.4 E188.61008
M204 P1000
; stop printing object 20mm_cube.stl id:0 copy 0
;LAYER_CHANGE
;Z:52
;HEIGHT:3
;BEFORE_LAYER_CHANGE
G92 E0.0
;52


M73 P29 R1043
G1 E-2.1 F2700
;WIPE_START
M73 P29 R1040
G1 F48000
G1 X702 Y717.441 E-.855
;WIPE_END
G1 E-.045 F2700
G1 Z49.2 F60000
G1 Z52
;AFTER_LAYER_CHANGE
;52
; printing object 20mm_cube.stl id:0 copy 0
G1 Z52.2
G1 X718 Y718
G1 Z52
G1 E3 F1200
M204 P800
G1 F89.387
G1 X482 Y718 E189.09081
G1 X482 Y482 E189.09081
M73 P29 R1037
G1 X718 Y482 E189.09081
M73 P30 R1035
G1 X718 Y717.4 E188.61008
M204 P1000
; stop printing object 20mm_cube.stl id:0 copy 0
;LAYER_CHANGE
;Z:55
;HEIGHT:3
;BEFORE_LAYER_CHANGE
G92 E0.0
;55


M73 P30 R1032
G1 E-2.1 F2700
;WIPE_START
M73 P30 R1029
G1 F48000
G1 X702 Y717.441 E-.855
;WIPE_END
G1 E-.045 F2700
G1 Z52.2 F60000
G1 Z55
;AFTER_LAYER_CHANGE
;55
; printing object 20mm_cube.stl id:0 copy 0
G1 Z55.2
G1 X718 Y718
G1 Z55
G1 E3 F1200
M204 P800
G1 F89.387
G1 X482 Y718 E189.09081
G1 X482 Y482 E189.09081
M73 P30 R1027
G1 X718 Y482 E189.09081
M73 P30 R1024
G1 X718 Y717.4 E188.61008
M204 P1000
; stop printing object 20mm_cube.stl id:0 copy 0
;LAYER_CHANGE
;Z:58
;HEIGHT:3
;BEFORE_LAYER_CHANGE
G92 E0.0
;58


M73 P31 R1021
G1 E-2.1 F2700
;WIPE_START
M73 P31 R1019
G1 F48000
G1 X702 Y717.441 E-.855
;WIPE_END
G1 E-.045 F2700
G1 Z55.2 F60000
G1 Z58
;AFTER_LAYER_CHANGE
;58
; printing object 20mm_cube.stl id:0 copy 0
G1 Z58.2
G1 X718 Y718
G1 Z58
G1 E3 F1200
M204 P800
G1 F89.387
G1 X482 Y718 E189.09081
G1 X482 Y482 E189.09081
M73 P31 R1016
G1 X718 Y482 E189.09081
M73 P31 R1014
G1 X718 Y717.4 E188.61008
M204 P1000
; stop printing object 20mm_cube.stl id:0 copy 0
;LAYER_CHANGE
;Z:61
;HEIGHT:3
;BEFORE_LAYER_CHANGE
G92 E0.0
;61


M73 P31 R1011
G1 E-2.1 F2700
;WIPE_START
M73 P31 R1008
G1 F48000
G1 X702 Y717.441 E-.855
;WIPE_END
G1 E-.045 F2700
G1 Z58.2 F60000
G1 Z61
;AFTER_LAYER_CHANGE
;61
; printing object 20mm_cube.stl id:0 copy 0
G1 Z61.2
G1 X718 Y718
G1 Z61
G1 E3 F1200
M204 P800
G1 F89.387
G1 X482 Y718 E189.09081
G1 X482 Y482 E189.09081
M73 P32 R1006
G1 X718 Y482 E189.09081
M73 P32 R1003
G1 X718 Y717.4 E188.61008
M204 P1000
; stop printing object 20mm_cube.stl id:0 copy 0
;LAYER_CHANGE
;Z:64
;HEIGHT:3
;BEFORE_LAYER_CHANGE
G92 E0.0
;64


M73 P32 R1000
G1 E-2.1 F2700
;WIPE_START
M73 P32 R998
G1 F48000
G1 X702 Y717.441 E-.855
;WIPE_END
G1 E-.045 F2700
G1 Z61.2 F60000
G1 Z64
;AFTER_LAYER_CHANGE
;64
; printing object 20mm_cube.stl id:0 copy 0
G1 Z64.2
G1 X718 Y718
G1 Z64
G1 E3 F1200
M204 P800
G1 F89.387
G1 X482 Y718 E189.09081
G1 X482 Y482 E189.09081
M73 P32 R995
G1 X718 Y482 E189.09081
M73 P32 R992
G1 X718 Y717.4 E188.61008
M204 P1000
; stop printing object 20mm_cube.stl id:0 copy 0
;LAYER_CHANGE
;Z:67
;HEIGHT:3
;BEFORE_LAYER_CHANGE
G92 E0.0
;67


M73 P33 R990
G1 E-2.1 F2700
;WIPE_START
M73 P33 R987
G1 F48000
G1 X702 Y717.441 E-.855
;WIPE_END
G1 E-.045 F2700
G1 Z64.2 F60000
G1 Z67
;AFTER_LAYER_CHANGE
;67
; printing object 20mm_cube.stl id:0 copy 0
G1 Z67.2
G1 X718 Y718
G1 Z67
G1 E3 F1200
M204 P800
G1 F89.387
G1 X482 Y718 E189.09081
G1 X482 Y482 E189.09081
M73 P33 R985
G1 X718 Y482 E189.09081
M73 P33 R982
G1 X718 Y717.4 E188.61008
M204 P1000
; stop printing object 20mm_cube.stl id:0 copy 0
;LAYER_CHANGE
;Z:70
;HEIGHT:3
;BEFORE_LAYER_CHANGE
G92 E0.0
;70


M73 P33 R979
G1 E-2.1 F2700
;WIPE_START
M73 P34 R977
G1 F48000
G1 X702 Y717.441 E-.855
;WIPE_END
G1 E-.045 F2700
G1 Z67.2 F60000
G1 Z70
;AFTER_LAYER_CHANGE
;70
; printing object 20mm_cube.stl id:0 copy 0
G1 Z70.2
G1 X718 Y718
G1 Z70
G1 E3 F1200
M204 P800
G1 F89.387
G1 X482 Y718 E189.09081
G1 X482 Y482 E189.09081
M73 P34 R974
G1 X718 Y482 E189.09081
M73 P34 R971
G1 X718 Y717.4 E188.61008
M204 P1000
; stop printing object 20mm_cube.stl id:0 copy 0
;LAYER_CHANGE
;Z:73
;HEIGHT:3
;BEFORE_LAYER_CHANGE
G92 E0.0
;73


M73 P34 R969
G1 E-2.1 F2700
;WIPE_START
M73 P34 R966
G1 F48000
G1 X702 Y717.441 E-.855
;WIPE_END
G1 E-.045 F2700
G1 Z70.2 F60000
G1 Z73
;AFTER_LAYER_CHANGE
;73
; printing object 20mm_cube.stl id:0 copy 0
G1 Z73.2
G1 X718 Y718
G1 Z73
G1 E3 F1200
M204 P800
G1 F89.387
G1 X482 Y718 E189.09081
G1 X482 Y482 E189.09081
M73 P34 R963
G1 X718 Y482 E189.09081
M73 P35 R961
G1 X718 Y717.4 E188.61008
M204 P1000
; stop printing object 20mm_cube.stl id:0 copy 0
;LAYER_CHANGE
;Z:76
;HEIGHT:3
;BEFORE_LAYER_CHANGE
G92 E0.0
;76


M73 P35 R958
G1 E-2.1 F2700
;WIPE_START
M73 P35 R955
G1 F48000
G1 X702 Y717.441 E-.855
;WIPE_END
G1 E-.045 F2700
G1 Z73.2 F60000
G1 Z76
;AFTER_LAYER_CHANGE
;76
; printing object 20mm_cube.stl id:0 copy 0
G1 Z76.2
G1 X718 Y718
G1 Z76
G1 E3 F1200
M204 P800
G1 F89.387
G1 X482 Y718 E189.09081
G1 X482 Y482 E189.09081
M73 P35 R953
G1 X718 Y482 E189.09081
M73 P35 R950
G1 X718 Y717.4 E188.61008
M204 P1000
; stop printing object 20mm_cube.stl id:0 copy 0
;LAYER_CHANGE
;Z:79
;HEIGHT:3
;BEFORE_LAYER_CHANGE
G92 E0.0
;79


M73 P36 R948
G1 E-2.1 F2700
;WIPE_START
M73 P36 R945
G1 F48000
G1 X702 Y717.441 E-.855
;WIPE_END
G1 E-.045 F2700
G1 Z76.2 F60000
G1 Z79
;AFTER_LAYER_CHANGE
;79
; printing object 20mm_cube.stl id:0 copy 0
G1 Z79.2
G1 X718 Y718
G1 Z79
G1 E3 F1200
M204 P800
G1 F89.387
G1 X482 Y718 E189.09081
G1 X482 Y482 E189.09081
M73 P36 R942
G1 X718 Y482 E189.09081
M73 P36 R940
G1 X718 Y717.4 E188.61008
M204 P1000
; stop printing object 20mm_cube.stl id:0 copy 0
;LAYER_CHANGE
;Z:82
;HEIGHT:3
;BEFORE_LAYER_CHANGE
G92 E0.0
;82


M73 P36 R937
G1 E-2.1 F2700
;WIPE_START
M73 P36 R934
G1 F48000
G1 X702 Y717.441 E-.855
;WIPE_END
G1 E-.045 F2700
G1 Z79.2 F60000
G1 Z82
;AFTER_LAYER_CHANGE
;82
; printing object 20mm_cube.stl id:0 copy 0
G1 Z82.2
G1 X718 Y718
G1 Z82
G1 E3 F1200
M204 P800
G1 F89.387
G1 X482 Y718 E189.09081
G1 X482 Y482 E189.09081
M73 P37 R932
G1 X718 Y482 E189.09081
M73 P37 R929
G1 X718 Y717.4 E188.61008
M204 P1000
; stop printing object 20mm_cube.stl id:0 copy 0
;LAYER_CHANGE
;Z:85
;HEIGHT:3
;BEFORE_LAYER_CHANGE
G92 E0.0
;85


M73 P37 R926
G1 E-2.1 F2700
;WIPE_START
M73 P37 R924
G1 F48000
G1 X702 Y717.441 E-.855
;WIPE_END
G1 E-.045 F2700
G1 Z82.2 F60000
G1 Z85
;AFTER_LAYER_CHANGE
;85
; printing object 20mm_cube.stl id:0 copy 0
G1 Z85.2
G1 X718 Y718
G1 Z85
G1 E3 F1200
M204 P800
G1 F89.387
G1 X482 Y718 E189.09081
G1 X482 Y482 E189.09081
M73 P37 R921
G1 X718 Y482 E189.09081
M73 P37 R918
G1 X718 Y717.4 E188.61008
M204 P1000
; stop printing object 20mm_cube.stl id:0 copy 0
;LAYER_CHANGE
;Z:88
;HEIGHT:3
;BEFORE_LAYER_CHANGE
G92 E0.0
;88


M73 P38 R916
G1 E-2.1 F2700
;WIPE_START
M73 P38 R913
G1 F48000
G1 X702 Y717.441 E-.855
;WIPE_END
G1 E-.045 F2700
G1 Z85.2 F60000
G1 Z88
;AFTER_LAYER_CHANGE
;88
; printing object 20mm_cube.stl id:0 copy 0
G1 Z88.2
G1 X718 Y718
G1 Z88
G1 E3 F1200
M204 P800
G1 F89.387
G1 X482 Y718 E189.09081
G1 X482 Y482 E189.09081
M73 P38 R911
G1 X718 Y482 E189.09081
M73 P38 R908
G1 X718 Y717.4 E188.61008
M204 P1000
; stop printing object 20mm_cube.stl id:0 copy 0
;LAYER_CHANGE
;Z:91
;HEIGHT:3
;BEFORE_LAYER_CHANGE
G92 E0.0
;91


M73 P38 R905
G1 E-2.1 F2700
;WIPE_START
M73 P39 R903
G1 F48000
G1 X702 Y717.441 E-.855
;WIPE_END
G1 E-.045 F2700
G1 Z88.2 F60000
G1 Z91
;AFTER_LAYER_CHANGE
;91
; printing object 20mm_cube.stl id:0 copy 0
G1 Z91.2
G1 X718 Y718
G1 Z91
G1 E3 F1200
M204 P800
G1 F89.387
G1 X482 Y718 E189.09081
G1 X482 Y482 E189.09081
M73 P39 R900
G1 X718 Y482 E189.09081
M73 P39 R897
G1 X718 Y717.4 E188.61008
M204 P1000
; stop printing object 20mm_cube.stl id:0 copy 0
;LAYER_CHANGE
;Z:94
;HEIGHT:3
;BEFORE_LAYER_CHANGE
G92 E0.0
;94


M73 P39 R895
G1 E-2.1 F2700
;WIPE_START
M73 P39 R892
G1 F48000
G1 X702 Y717.441 E-.855
;WIPE_END
G1 E-.045 F2700
G1 Z91.2 F60000
G1 Z94
;AFTER_LAYER_CHANGE
;94
; printing object 20mm_cube.stl id:0 copy 0
G1 Z94.2
G1 X718 Y718
G1 Z94
G1 E3 F1200
M204 P800
G1 F89.387
G1 X482 Y718 E189.09081
G1 X482 Y482 E189.09081
M73 P39 R889
G1 X718 Y482 E189.09081
M73 P40 R887
G1 X718 Y717.4 E188.61008
M204 P1000
; stop printing object 20mm_cube.stl id:0 copy 0
;LAYER_CHANGE
;Z:97
;HEIGHT:3
;BEFORE_LAYER_CHANGE
G92 E0.0
;97


M73 P40 R884
G1 E-2.1 F2700
;WIPE_START
M73 P40 R882
G1 F48000
G1 X702 Y717.441 E-.855
;WIPE_END
G1 E-.045 F2700
G1 Z94.2 F60000
G1 Z97
;AFTER_LAYER_CHANGE
;97
; printing object 20mm_cube.stl id:0 copy 0
G1 Z97.2
M73 P40 R881
G1 X718 Y718
G1 Z97
G1 E3 F1200
M204 P800
G1 F89.387
G1 X482 Y718 E189.09081
G1 X482 Y482 E189.09081
M73 P40 R879
G1 X718 Y482 E189.09081
M73 P40 R876
G1 X718 Y717.4 E188.61008
M204 P1000
; stop printing object 20mm_cube.stl id:0 copy 0
;LAYER_CHANGE
;Z:100
;HEIGHT:3
;BEFORE_LAYER_CHANGE
G92 E0.0
;100


M73 P41 R874
G1 E-2.1 F2700
;WIPE_START
M73 P41 R871
G1 F48000
G1 X702 Y717.441 E-.855
;WIPE_END
G1 E-.045 F2700
G1 Z97.2 F60000
G1 Z100
;AFTER_LAYER_CHANGE
;100
; printing object 20mm_cube.stl id:0 copy 0
G1 Z100.2
G1 X718 Y718
G1 Z100
G1 E3 F1200
M204 P800
G1 F89.387
G1 X482 Y718 E189.09081
G1 X482 Y482 E189.09081
M73 P41 R868
G1 X718 Y482 E189.09081
M73 P41 R866
G1 X718 Y717.4 E188.61008
M204 P1000
; stop printing object 20mm_cube.stl id:0 copy 0
;LAYER_CHANGE
;Z:103
;HEIGHT:3
;BEFORE_LAYER_CHANGE
G92 E0.0
;103


M73 P41 R863
G1 E-2.1 F2700
;WIPE_START
M73 P41 R860
G1 F48000
G1 X702 Y717.441 E-.855
;WIPE_END
G1 E-.045 F2700
G1 Z100.2 F60000
G1 Z103
;AFTER_LAYER_CHANGE
;103
; printing object 20mm_cube.stl id:0 copy 0
G1 Z103.2
G1 X718 Y718
G1 Z103
G1 E3 F1200
M204 P800
G1 F89.387
G1 X482 Y718 E189.09081
G1 X482 Y482 E189.09081
M73 P42 R858
G1 X718 Y482 E189.09081
M73 P42 R855
G1 X718 Y717.4 E188.61008
M204 P1000
; stop printing object 20mm_cube.stl id:0 copy 0
;LAYER_CHANGE
;Z:106
;HEIGHT:3
;BEFORE_LAYER_CHANGE
G92 E0.0
;106


M73 P42 R852
G1 E-2.1 F2700
;WIPE_START
M73 P42 R850
G1 F48000
G1 X702 Y717.441 E-.855
;WIPE_END
G1 E-.045 F2700
G1 Z103.2 F60000
G1 Z106
;AFTER_LAYER_CHANGE
;106
; printing object 20mm_cube.stl id:0 copy 0
G1 Z106.2
G1 X718 Y718
G1 Z106
G1 E3 F1200
M204 P800
G1 F89.387
G1 X482 Y718 E189.09081
G1 X482 Y482 E189.09081
M73 P42 R847
G1 X718 Y482 E189.09081
M73 P42 R845
G1 X718 Y717.4 E188.61008
M204 P1000
; stop printing object 20mm_cube.stl id:0 copy 0
;LAYER_CHANGE
;Z:109
;HEIGHT:3
;BEFORE_LAYER_CHANGE
G92 E0.0
;109


M73 P43 R842
G1 E-2.1 F2700
;WIPE_START
M73 P43 R839
G1 F48000
G1 X702 Y717.441 E-.855
;WIPE_END
G1 E-.045 F2700
G1 Z106.2 F60000
G1 Z109
;AFTER_LAYER_CHANGE
;109
; printing object 20mm_cube.stl id:0 copy 0
G1 Z109.2
G1 X718 Y718
G1 Z109
G1 E3 F1200
M204 P800
G1 F89.387
G1 X482 Y718 E189.09081
G1 X482 Y482 E189.09081
M73 P43 R837
G1 X718 Y482 E189.09081
M73 P43 R834
G1 X718 Y717.4 E188.61008
M204 P1000
; stop printing object 20mm_cube.stl id:0 copy 0
;LAYER_CHANGE
;Z:112
;HEIGHT:3
;BEFORE_LAYER_CHANGE
G92 E0.0
;112


M73 P43 R831
G1 E-2.1 F2700
;WIPE_START
M73 P44 R829
G1 F48000
G1 X702 Y717.441 E-.855
;WIPE_END
G1 E-.045 F2700
G1 Z109.2 F60000
G1 Z112
;AFTER_LAYER_CHANGE
;112
; printing object 20mm_cube.stl id:0 copy 0
G1 Z112.2
G1 X718 Y718
G1 Z112
G1 E3 F1200
M204 P800
G1 F89.387
G1 X482 Y718 E189.09081
G1 X482 Y482 E189.09081
M73 P44 R826
G1 X718 Y482 E189.09081
M73 P44 R823
G1 X718 Y717.4 E188.61008
M204 P1000
; stop printing object 20mm_cube.stl id:0 copy 0
;LAYER_CHANGE
;Z:115
;HEIGHT:3
;BEFORE_LAYER_CHANGE
G92 E0.0
;115


M73 P44 R821
G1 E-2.1 F2700
;WIPE_START
M73 P44 R818
G1 F48000
G1 X702 Y717.441 E-.855
;WIPE_END
G1 E-.045 F2700
G1 Z112.2 F60000
G1 Z115
;AFTER_LAYER_CHANGE
;115
; printing object 20mm_cube.stl id:0 copy 0
G1 Z115.2
G1 X718 Y718
G1 Z115
G1 E3 F1200
M204 P800
G1 F89.387
G1 X482 Y718 E189.09081
G1 X482 Y482 E189.09081
M73 P44 R815
G1 X718 Y482 E189.09081
M73 P45 R813
G1 X718 Y717.4 E188.61008
M204 P1000
; stop printing object 20mm_cube.stl id:0 copy 0
;LAYER_CHANGE
;Z:118
;HEIGHT:3
;BEFORE_LAYER_CHANGE
G92 E0.0
;118


M73 P45 R810
G1 E-2.1 F2700
;WIPE_START
M73 P45 R808
G1 F48000
G1 X702 Y717.441 E-.855
;WIPE_END
G1 E-.045 F2700
G1 Z115.2 F60000
G1 Z118
;AFTER_LAYER_CHANGE
;118
; printing object 20mm_cube.stl id:0 copy 0
G1 Z118.2
G1 X718 Y718
G1 Z118
G1 E3 F1200
M204 P800
G1 F89.387
G1 X482 Y718 E189.09081
G1 X482 Y482 E189.09081
M73 P45 R805
G1 X718 Y482 E189.09081
M73 P45 R802
G1 X718 Y717.4 E188.61008
M204 P1000
; stop printing object 20mm_cube.stl id:0 copy 0
;LAYER_CHANGE
;Z:121
;HEIGHT:3
;BEFORE_LAYER_CHANGE
G92 E0.0
;121


M73 P45 R800
G1 E-2.1 F2700
;WIPE_START
M73 P46 R797
G1 F48000
G1 X702 Y717.441 E-.855
;WIPE_END
G1 E-.045 F2700
G1 Z118.2 F60000
G1 Z121
;AFTER_LAYER_CHANGE
;121
; printing object 20mm_cube.stl id:0 copy 0
G1 Z121.2
G1 X718 Y718
G1 Z121
G1 E3 F1200
M204 P800
G1 F89.387
G1 X482 Y718 E189.09081
G1 X482 Y482 E189.09081
M73 P46 R794
G1 X718 Y482 E189.09081
M73 P46 R792
G1 X718 Y717.4 E188.61008
M204 P1000
; stop printing object 20mm_cube.stl id:0 copy 0
;LAYER_CHANGE
;Z:124
;HEIGHT:3
;BEFORE_LAYER_CHANGE
G92 E0.0
;124


M73 P46 R789
G1 E-2.1 F2700
;WIPE_START
M73 P46 R786
G1 F48000
G1 X702 Y717.441 E-.855
;WIPE_END
G1 E-.045 F2700
G1 Z121.2 F60000
G1 Z124
;AFTER_LAYER_CHANGE
;124
; printing object 20mm_cube.stl id:0 copy 0
G1 Z124.2
G1 X718 Y718
G1 Z124
G1 E3 F1200
M204 P800
G1 F89.387
G1 X482 Y718 E189.09081
G1 X482 Y482 E189.09081
M73 P47 R784
G1 X718 Y482 E189.09081
M73 P47 R781
G1 X718 Y717.4 E188.61008
M204 P1000
; stop printing object 20mm_cube.stl id:0 copy 0
;LAYER_CHANGE
;Z:127
;HEIGHT:3
;BEFORE_LAYER_CHANGE
G92 E0.0
;127


M73 P47 R778
G1 E-2.1 F2700
;WIPE_START
M73 P47 R776
G1 F48000
G1 X702 Y717.441 E-.855
;WIPE_END
G1 E-.045 F2700
G1 Z124.2 F60000
G1 Z127
;AFTER_LAYER_CHANGE
;127
; printing object 20mm_cube.stl id:0 copy 0
G1 Z127.2
G1 X718 Y718
G1 Z127
G1 E3 F1200
M204 P800
G1 F89.387
G1 X482 Y718 E189.09081
G1 X482 Y482 E189.09081
M73 P47 R773
G1 X718 Y482 E189.09081
M73 P47 R771
G1 X718 Y717.4 E188.61008
M204 P1000
; stop printing object 20mm_cube.stl id:0 copy 0
;LAYER_CHANGE
;Z:130
;HEIGHT:3
;BEFORE_LAYER_CHANGE
G92 E0.0
;130


M73 P48 R768
G1 E-2.1 F2700
;WIPE_START
M73 P48 R765
G1 F48000
G1 X702 Y717.441 E-.855
;WIPE_END
G1 E-.045 F2700
G1 Z127.2 F60000
G1 Z130
;AFTER_LAYER_CHANGE
;130
; printing object 20mm_cube.stl id:0 copy 0
G1 Z130.2
G1 X718 Y718
G1 Z130
G1 E3 F1200
M204 P800
G1 F89.387
G1 X482 Y718 E189.09081
G1 X482 Y482 E189.09081
M73 P48 R763
G1 X718 Y482 E189.09081
M73 P48 R760
G1 X718 Y717.4 E188.61008
M204 P1000
; stop printing object 20mm_cube.stl id:0 copy 0
;LAYER_CHANGE
;Z:133
;HEIGHT:3
;BEFORE_LAYER_CHANGE
G92 E0.0
;133


M73 P48 R757
G1 E-2.1 F2700
;WIPE_START
M73 P49 R755
G1 F48000
G1 X702 Y717.441 E-.855
;WIPE_END
G1 E-.045 F2700
G1 Z130.2 F60000
G1 Z133
;AFTER_LAYER_CHANGE
;133
; printing object 20mm_cube.stl id:0 copy 0
G1 Z133.2
G1 X718 Y718
G1 Z133
G1 E3 F1200
M204 P800
G1 F89.387
G1 X482 Y718 E189.09081
G1 X482 Y482 E189.09081
M73 P49 R752
G1 X718 Y482 E189.09081
M73 P49 R749
G1 X718 Y717.4 E188.61008
M204 P1000
; stop printing object 20mm_cube.stl id:0 copy 0
;LAYER_CHANGE
;Z:136
;HEIGHT:3
;BEFORE_LAYER_CHANGE
G92 E0.0
;136


M73 P49 R747
G1 E-2.1 F2700
;WIPE_START
M73 P49 R744
G1 F48000
G1 X702 Y717.441 E-.855
;WIPE_END
G1 E-.045 F2700
G1 Z133.2 F60000
G1 Z136
;AFTER_LAYER_CHANGE
;136
; printing object 20mm_cube.stl id:0 copy 0
G1 Z136.2
G1 X718 Y718
G1 Z136
G1 E3 F1200
M204 P800
G1 F89.387
G1 X482 Y718 E189.09081
G1 X482 Y482 E189.09081
M73 P49 R741
G1 X718 Y482 E189.09081
M73 P50 R739
G1 X718 Y717.4 E188.61008
M204 P1000
; stop printing object 20mm_cube.stl id:0 copy 0
;LAYER_CHANGE
;Z:139
;HEIGHT:3
;BEFORE_LAYER_CHANGE
G92 E0.0
;139


M73 P50 R736
G1 E-2.1 F2700
;WIPE_START
M73 P50 R734
G1 F48000
G1 X702 Y717.441 E-.855
;WIPE_END
G1 E-.045 F2700
G1 Z136.2 F60000
G1 Z139
;AFTER_LAYER_CHANGE
;139
; printing object 20mm_cube.stl id:0 copy 0
G1 Z139.2
G1 X718 Y718
G1 Z139
G1 E3 F1200
M204 P800
G1 F89.387
G1 X482 Y718 E189.09081
G1 X482 Y482 E189.09081
M73 P50 R731
G1 X718 Y482 E189.09081
M73 P50 R728
G1 X718 Y717.4 E188.61008
M204 P1000
; stop printing object 20mm_cube.stl id:0 copy 0
;LAYER_CHANGE
;Z:142
;HEIGHT:3
;BEFORE_LAYER_CHANGE
G92 E0.0
;142


M73 P50 R726
G1 E-2.1 F2700
;WIPE_START
M73 P51 R723
G1 F48000
G1 X702 Y717.441 E-.855
;WIPE_END
G1 E-.045 F2700
G1 Z139.2 F60000
G1 Z142
;AFTER_LAYER_CHANGE
;142
; printing object 20mm_cube.stl id:0 copy 0
G1 Z142.2
G1 X718 Y718
G1 Z142
G1 E3 F1200
M204 P800
G1 F89.387
G1 X482 Y718 E189.09081
G1 X482 Y482 E189.09081
M73 P51 R720
G1 X718 Y482 E189.09081
M73 P51 R718
G1 X718 Y717.4 E188.61008
M204 P1000
; stop printing object 20mm_cube.stl id:0 copy 0
;LAYER_CHANGE
;Z:145
;HEIGHT:3
;BEFORE_LAYER_CHANGE
G92 E0.0
;145


M73 P51 R715
G1 E-2.1 F2700
;WIPE_START
M73 P51 R712
G1 F48000
G1 X702 Y717.441 E-.855
;WIPE_END
G1 E-.045 F2700
G1 Z142.2 F60000
G1 Z145
;AFTER_LAYER_CHANGE
;145
; printing object 20mm_cube.stl id:0 copy 0
G1 Z145.2
G1 X718 Y718
G1 Z145
G1 E3 F1200
M204 P800
G1 F89.387
G1 X482 Y718 E189.09081
G1 X482 Y482 E189.09081
M73 P52 R710
G1 X718 Y482 E189.09081
M73 P52 R707
G1 X718 Y717.4 E188.61008
M204 P1000
; stop printing object 20mm_cube.stl id:0 copy 0
;LAYER_CHANGE
;Z:148
;HEIGHT:3
;BEFORE_LAYER_CHANGE
G92 E0.0
;148


M73 P52 R705
G1 E-2.1 F2700
;WIPE_START
M73 P52 R702
G1 F48000
G1 X702 Y717.441 E-.855
;WIPE_END
G1 E-.045 F2700
G1 Z145.2 F60000
G1 Z148
;AFTER_LAYER_CHANGE
;148
; printing object 20mm_cube.stl id:0 copy 0
G1 Z148.2
G1 X718 Y718
G1 Z148
G1 E3 F1200
M204 P800
G1 F89.387
G1 X482 Y718 E189.09081
G1 X482 Y482 E189.09081
M73 P52 R699
G1 X718 Y482 E189.09081
M73 P52 R697
G1 X718 Y717.4 E188.61008
M204 P1000
; stop printing object 20mm_cube.stl id:0 copy 0
;LAYER_CHANGE
;Z:151
;HEIGHT:3
;BEFORE_LAYER_CHANGE
G92 E0.0
;151


M73 P53 R694
G1 E-2.1 F2700
;WIPE_START
M73 P53 R691
G1 F48000
G1 X702 Y717.441 E-.855
;WIPE_END
G1 E-.045 F2700
G1 Z148.2 F60000
G1 Z151
;AFTER_LAYER_CHANGE
;151
; printing object 20mm_cube.stl id:0 copy 0
G1 Z151.2
G1 X718 Y718
G1 Z151
G1 E3 F1200
M204 P800
G1 F89.387
G1 X482 Y718 E189.09081
G1 X482 Y482 E189.09081
M73 P53 R689
G1 X718 Y482 E189.09081
M73 P53 R686
G1 X718 Y717.4 E188.61008
M204 P1000
; stop printing object 20mm_cube.stl id:0 copy 0
;LAYER_CHANGE
;Z:154
;HEIGHT:3
;BEFORE_LAYER_CHANGE
G92 E0.0
;154


M73 P53 R683
G1 E-2.1 F2700
;WIPE_START
M73 P54 R681
G1 F48000
G1 X702 Y717.441 E-.855
;WIPE_END
G1 E-.045 F2700
G1 Z151.2 F60000
G1 Z154
;AFTER_LAYER_CHANGE
;154
; printing object 20mm_cube.stl id:0 copy 0
G1 Z154.2
G1 X718 Y718
G1 Z154
G1 E3 F1200
M204 P800
G1 F89.387
G1 X482 Y718 E189.09081
G1 X482 Y482 E189.09081
M73 P54 R678
G1 X718 Y482 E189.09081
M73 P54 R675
G1 X718 Y717.4 E188.61008
M204 P1000
; stop printing object 20mm_cube.stl id:0 copy 0
;LAYER_CHANGE
;Z:157
;HEIGHT:3
;BEFORE_LAYER_CHANGE
G92 E0.0
;157


M73 P54 R673
G1 E-2.1 F2700
;WIPE_START
M73 P54 R670
G1 F48000
G1 X702 Y717.441 E-.855
;WIPE_END
G1 E-.045 F2700
G1 Z154.2 F60000
G1 Z157
;AFTER_LAYER_CHANGE
;157
; printing object 20mm_cube.stl id:0 copy 0
G1 Z157.2
G1 X718 Y718
G1 Z157
G1 E3 F1200
M204 P800
G1 F89.387
G1 X482 Y718 E189.09081
G1 X482 Y482 E189.09081
M73 P54 R668
G1 X718 Y482 E189.09081
M73 P55 R665
G1 X718 Y717.4 E188.61008
M204 P1000
; stop printing object 20mm_cube.stl id:0 copy 0
;LAYER_CHANGE
;Z:160
;HEIGHT:3
;BEFORE_LAYER_CHANGE
G92 E0.0
;160


M73 P55 R662
G1 E-2.1 F2700
;WIPE_START
M73 P55 R660
G1 F48000
G1 X702 Y717.441 E-.855
;WIPE_END
G1 E-.045 F2700
G1 Z157.2 F60000
G1 Z160
;AFTER_LAYER_CHANGE
;160
; printing object 20mm_cube.stl id:0 copy 0
G1 Z160.2
G1 X718 Y718
G1 Z160
G1 E3 F1200
M204 P800
G1 F89.387
G1 X482 Y718 E189.09081
G1 X482 Y482 E189.09081
M73 P55 R657
G1 X718 Y482 E189.09081
M73 P55 R654
G1 X718 Y717.4 E188.61008
M204 P1000
; stop printing object 20mm_cube.stl id:0 copy 0
;LAYER_CHANGE
;Z:163
;HEIGHT:3
;BEFORE_LAYER_CHANGE
G92 E0.0
;163


M73 P55 R652
G1 E-2.1 F2700
;WIPE_START
M73 P56 R649
G1 F48000
G1 X702 Y717.441 E-.855
;WIPE_END
G1 E-.045 F2700
G1 Z160.2 F60000
G1 Z163
;AFTER_LAYER_CHANGE
;163
; printing object 20mm_cube.stl id:0 copy 0
G1 Z163.2
G1 X718 Y718
G1 Z163
G1 E3 F1200
M204 P800
G1 F89.387
G1 X482 Y718 E189.09081
G1 X482 Y482 E189.09081
M73 P56 R646
G1 X718 Y482 E189.09081
M73 P56 R644
G1 X718 Y717.4 E188.61008
M204 P1000
; stop printing object 20mm_cube.stl id:0 copy 0
;LAYER_CHANGE
;Z:166
;HEIGHT:3
;BEFORE_LAYER_CHANGE
G92 E0.0
;166


M73 P56 R641
G1 E-2.1 F2700
;WIPE_START
M73 P56 R638
G1 F48000
G1 X702 Y717.441 E-.855
;WIPE_END
G1 E-.045 F2700
G1 Z163.2 F60000
G1 Z166
;AFTER_LAYER_CHANGE
;166
; printing object 20mm_cube.stl id:0 copy 0
G1 Z166.2
G1 X718 Y718
G1 Z166
G1 E3 F1200
M204 P800
G1 F89.387
G1 X482 Y718 E189.09081
G1 X482 Y482 E189.09081
M73 P57 R636
G1 X718 Y482 E189.09081
M73 P57 R633
G1 X718 Y717.4 E188.61008
M204 P1000
; stop printing object 20mm_cube.stl id:0 copy 0
;LAYER_CHANGE
;Z:169
;HEIGHT:3
;BEFORE_LAYER_CHANGE
G92 E0.0
;169


M73 P57 R631
G1 E-2.1 F2700
;WIPE_START
M73 P57 R628
G1 F48000
G1 X702 Y717.441 E-.855
;WIPE_END
G1 E-.045 F2700
G1 Z166.2 F60000
G1 Z169
;AFTER_LAYER_CHANGE
;169
; printing object 20mm_cube.stl id:0 copy 0
G1 Z169.2
G1 X718 Y718
G1 Z169
G1 E3 F1200
M204 P800
G1 F89.387
G1 X482 Y718 E189.09081
G1 X482 Y482 E189.09081
M73 P57 R625
G1 X718 Y482 E189.09081
M73 P57 R623
G1 X718 Y717.4 E188.61008
M204 P1000
; stop printing object 20mm_cube.stl id:0 copy 0
;LAYER_CHANGE
;Z:172
;HEIGHT:3
;BEFORE_LAYER_CHANGE
G92 E0.0
;172


M73 P58 R620
G1 E-2.1 F2700
;WIPE_START
M73 P58 R617
G1 F48000
G1 X702 Y717.441 E-.855
;WIPE_END
G1 E-.045 F2700
G1 Z169.2 F60000
G1 Z172
;AFTER_LAYER_CHANGE
;172
; printing object 20mm_cube.stl id:0 copy 0
G1 Z172.2
G1 X718 Y718
G1 Z172
G1 E3 F1200
M204 P800
G1 F89.387
G1 X482 Y718 E189.09081
G1 X482 Y482 E189.09081
M73 P58 R615
G1 X718 Y482 E189.09081
M73 P58 R612
G1 X718 Y717.4 E188.61008
M204 P1000
; stop printing object 20mm_cube.stl id:0 copy 0
;LAYER_CHANGE
;Z:175
;HEIGHT:3
;BEFORE_LAYER_CHANGE
G92 E0.0
;175


M73 P58 R609
G1 E-2.1 F2700
;WIPE_START
M73 P59 R607
G1 F48000
G1 X702 Y717.441 E-.855
;WIPE_END
G1 E-.045 F2700
G1 Z172.2 F60000
G1 Z175
;AFTER_LAYER_CHANGE
;175
; printing object 20mm_cube.stl id:0 copy 0
G1 Z175.2
G1 X718 Y718
G1 Z175
G1 E3 F1200
M204 P800
G1 F89.387
G1 X482 Y718 E189.09081
G1 X482 Y482 E189.09081
M73 P59 R604
G1 X718 Y482 E189.09081
M73 P59 R602
G1 X718 Y717.4 E188.61008
M204 P1000
; stop printing object 20mm_cube.stl id:0 copy 0
;LAYER_CHANGE
;Z:178
;HEIGHT:3
;BEFORE_LAYER_CHANGE
G92 E0.0
;178


M73 P59 R599
G1 E-2.1 F2700
;WIPE_START
M73 P59 R596
G1 F48000
G1 X702 Y717.441 E-.855
;WIPE_END
G1 E-.045 F2700
G1 Z175.2 F60000
G1 Z178
;AFTER_LAYER_CHANGE
;178
; printing object 20mm_cube.stl id:0 copy 0
G1 Z178.2
G1 X718 Y718
G1 Z178
G1 E3 F1200
M204 P800
G1 F89.387
G1 X482 Y718 E189.09081
G1 X482 Y482 E189.09081
M73 P59 R594
G1 X718 Y482 E189.09081
M73 P60 R591
G1 X718 Y717.4 E188.61008
M204 P1000
; stop printing object 20mm_cube.stl id:0 copy 0
;LAYER_CHANGE
;Z:181
;HEIGHT:3
;BEFORE_LAYER_CHANGE
G92 E0.0
;181


M73 P60 R588
G1 E-2.1 F2700
;WIPE_START
M73 P60 R586
G1 F48000
G1 X702 Y717.441 E-.855
;WIPE_END
G1 E-.045 F2700
G1 Z178.2 F60000
G1 Z181
;AFTER_LAYER_CHANGE
;181
; printing object 20mm_cube.stl id:0 copy 0
G1 X718 Y718
G1 E3 F1200
M204 P800
G1 F89.387
G1 X482 Y718 E189.09081
G1 X482 Y482 E189.09081
M73 P60 R583
G1 X718 Y482 E189.09081
M73 P60 R580
G1 X718 Y717.4 E188.61008
M204 P1000
; stop printing object 20mm_cube.stl id:0 copy 0
;LAYER_CHANGE
;Z:184
;HEIGHT:3
;BEFORE_LAYER_CHANGE
G92 E0.0
;184


M73 P60 R578
G1 E-2.1 F2700
;WIPE_START
M73 P61 R575
G1 F48000
G1 X702 Y717.441 E-.855
;WIPE_END
G1 E-.045 F2700
G1 Z184 F60000
;AFTER_LAYER_CHANGE
;184
; printing object 20mm_cube.stl id:0 copy 0
G1 X718 Y718
G1 E3 F1200
M204 P800
G1 F89.387
G1 X482 Y718 E189.09081
G1 X482 Y482 E189.09081
M73 P61 R572
G1 X718 Y482 E189.09081
M73 P61 R570
G1 X718 Y717.4 E188.61008
M204 P1000
; stop printing object 20mm_cube.stl id:0 copy 0
;LAYER_CHANGE
;Z:187
;HEIGHT:3
;BEFORE_LAYER_CHANGE
G92 E0.0
;187


M73 P61 R567
G1 E-2.1 F2700
;WIPE_START
M73 P61 R565
G1 F48000
G1 X702 Y717.441 E-.855
;WIPE_END
G1 E-.045 F2700
G1 Z187 F60000
;AFTER_LAYER_CHANGE
;187
; printing object 20mm_cube.stl id:0 copy 0
G1 X718 Y718
G1 E3 F1200
M204 P800
G1 F89.387
G1 X482 Y718 E189.09081
G1 X482 Y482 E189.09081
M73 P62 R562
G1 X718 Y482 E189.09081
M73 P62 R559
G1 X718 Y717.4 E188.61008
M204 P1000
; stop printing object 20mm_cube.stl id:0 copy 0
;LAYER_CHANGE
;Z:190
;HEIGHT:3
;BEFORE_LAYER_CHANGE
G92 E0.0
;190


M73 P62 R557
G1 E-2.1 F2700
;WIPE_START
M73 P62 R554
G1 F48000
G1 X702 Y717.441 E-.855
;WIPE_END
G1 E-.045 F2700
G1 Z190 F60000
;AFTER_LAYER_CHANGE
;190
; printing object 20mm_cube.stl id:0 copy 0
G1 X718 Y718
G1 E3 F1200
M204 P800
G1 F89.387
G1 X482 Y718 E189.09081
G1 X482 Y482 E189.09081
M73 P62 R551
G1 X718 Y482 E189.09081
M73 P62 R549
G1 X718 Y717.4 E188.61008
M204 P1000
; stop printing object 20mm_cube.stl id:0 copy 0
;LAYER_CHANGE
;Z:193
;HEIGHT:3
;BEFORE_LAYER_CHANGE
G92 E0.0
;193


M73 P63 R546
G1 E-2.1 F2700
;WIPE_START
M73 P63 R543
G1 F48000
G1 X702 Y717.441 E-.855
;WIPE_END
G1 E-.045 F2700
G1 Z193 F60000
;AFTER_LAYER_CHANGE
;193
; printing object 20mm_cube.stl id:0 copy 0
G1 X718 Y718
G1 E3 F1200
M204 P800
G1 F89.387
G1 X482 Y718 E189.09081
G1 X482 Y482 E189.09081
M73 P63 R541
G1 X718 Y482 E189.09081
M73 P63 R538
G1 X718 Y717.4 E188.61008
M204 P1000
; stop printing object 20mm_cube.stl id:0 copy 0
;LAYER_CHANGE
;Z:196
;HEIGHT:3
;BEFORE_LAYER_CHANGE
G92 E0.0
;196


M73 P63 R535
G1 E-2.1 F2700
;WIPE_START
M73 P64 R533
G1 F48000
G1 X702 Y717.441 E-.855
;WIPE_END
G1 E-.045 F2700
G1 Z196 F60000
;AFTER_LAYER_CHANGE
;196
; printing object 20mm_cube.stl id:0 copy 0
G1 X718 Y718
G1 E3 F1200
M204 P800
G1 F89.387
G1 X482 Y718 E189.09081
G1 X482 Y482 E189.09081
M73 P64 R530
G1 X718 Y482 E189.09081
M73 P64 R528
G1 X718 Y717.4 E188.61008
M204 P1000
; stop printing object 20mm_cube.stl id:0 copy 0
;LAYER_CHANGE
;Z:199
;HEIGHT:3
;BEFORE_LAYER_CHANGE
G92 E0.0
;199


M73 P64 R525
G1 E-2.1 F2700
;WIPE_START
M73 P64 R522
G1 F48000
G1 X702 Y717.441 E-.855
;WIPE_END
G1 E-.045 F2700
G1 Z199 F60000
;AFTER_LAYER_CHANGE
;199
; printing object 20mm_cube.stl id:0 copy 0
G1 X718 Y718
G1 E3 F1200
M204 P800
G1 F89.387
G1 X482 Y718 E189.09081
G1 X482 Y482 E189.09081
M73 P64 R520
G1 X718 Y482 E189.09081
M73 P65 R517
G1 X718 Y717.4 E188.61008
M204 P1000
; stop printing object 20mm_cube.stl id:0 copy 0
;LAYER_CHANGE
;Z:202
;HEIGHT:3
;BEFORE_LAYER_CHANGE
G92 E0.0
;202


M73 P65 R514
G1 E-2.1 F2700
;WIPE_START
M73 P65 R512
G1 F48000
G1 X702 Y717.441 E-.855
;WIPE_END
G1 E-.045 F2700
G1 Z202 F60000
;AFTER_LAYER_CHANGE
;202
; printing object 20mm_cube.stl id:0 copy 0
G1 X718 Y718
G1 E3 F1200
M204 P800
G1 F89.387
G1 X482 Y718 E189.09081
G1 X482 Y482 E189.09081
M73 P65 R509
G1 X718 Y482 E189.09081
M73 P65 R506
G1 X718 Y717.4 E188.61008
M204 P1000
; stop printing object 20mm_cube.stl id:0 copy 0
;LAYER_CHANGE
;Z:205
;HEIGHT:3
;BEFORE_LAYER_CHANGE
G92 E0.0
;205


M73 P65 R504
G1 E-2.1 F2700
;WIPE_START
M73 P66 R501
G1 F48000
G1 X702 Y717.441 E-.855
;WIPE_END
G1 E-.045 F2700
G1 Z205 F60000
;AFTER_LAYER_CHANGE
;205
; printing object 20mm_cube.stl id:0 copy 0
G1 X718 Y718
G1 E3 F1200
M204 P800
G1 F89.387
G1 X482 Y718 E189.09081
G1 X482 Y482 E189.09081
M73 P66 R498
G1 X718 Y482 E189.09081
M73 P66 R496
G1 X718 Y717.4 E188.61008
M204 P1000
; stop printing object 20mm_cube.stl id:0 copy 0
;LAYER_CHANGE
;Z:208
;HEIGHT:3
;BEFORE_LAYER_CHANGE
G92 E0.0
;208


M73 P66 R493
G1 E-2.1 F2700
;WIPE_START
M73 P66 R491
G1 F48000
G1 X702 Y717.441 E-.855
;WIPE_END
G1 E-.045 F2700
G1 Z208 F60000
;AFTER_LAYER_CHANGE
;208
; printing object 20mm_cube.stl id:0 copy 0
G1 X718 Y718
G1 E3 F1200
M204 P800
G1 F89.387
G1 X482 Y718 E189.09081
G1 X482 Y482 E189.09081
M73 P67 R488
G1 X718 Y482 E189.09081
M73 P67 R485
G1 X718 Y717.4 E188.61008
M204 P1000
; stop printing object 20mm_cube.stl id:0 copy 0
;LAYER_CHANGE
;Z:211
;HEIGHT:3
;BEFORE_LAYER_CHANGE
G92 E0.0
;211


M73 P67 R483
G1 E-2.1 F2700
;WIPE_START
M73 P67 R480
G1 F48000
G1 X702 Y717.441 E-.855
;WIPE_END
G1 E-.045 F2700
G1 Z211 F60000
;AFTER_LAYER_CHANGE
;211
; printing object 20mm_cube.stl id:0 copy 0
G1 X718 Y718
G1 E3 F1200
M204 P800
G1 F89.387
G1 X482 Y718 E189.09081
G1 X482 Y482 E189.09081
M73 P67 R477
G1 X718 Y482 E189.09081
M73 P67 R475
G1 X718 Y717.4 E188.61008
M204 P1000
; stop printing object 20mm_cube.stl id:0 copy 0
;LAYER_CHANGE
;Z:214
;HEIGHT:3
;BEFORE_LAYER_CHANGE
G92 E0.0
;214


M73 P68 R472
G1 E-2.1 F2700
;WIPE_START
M73 P68 R469
G1 F48000
G1 X702 Y717.441 E-.855
;WIPE_END
G1 E-.045 F2700
G1 Z214 F60000
;AFTER_LAYER_CHANGE
;214
; printing object 20mm_cube.stl id:0 copy 0
G1 X718 Y718
G1 E3 F1200
M204 P800
G1 F89.387
G1 X482 Y718 E189.09081
G1 X482 Y482 E189.09081
M73 P68 R467
G1 X718 Y482 E189.09081
M73 P68 R464
G1 X718 Y717.4 E188.61008
M204 P1000
; stop printing object 20mm_cube.stl id:0 copy 0
;LAYER_CHANGE
;Z:217
;HEIGHT:3
;BEFORE_LAYER_CHANGE
G92 E0.0
;217


M73 P68 R462
G1 E-2.1 F2700
;WIPE_START
M73 P68 R459
G1 F48000
G1 X702 Y717.441 E-.855
;WIPE_END
G1 E-.045 F2700
G1 Z217 F60000
;AFTER_LAYER_CHANGE
;217
; printing object 20mm_cube.stl id:0 copy 0
G1 X718 Y718
G1 E3 F1200
M204 P800
G1 F89.387
G1 X482 Y718 E189.09081
G1 X482 Y482 E189.09081
M73 P69 R456
G1 X718 Y482 E189.09081
M73 P69 R454
G1 X718 Y717.4 E188.61008
M204 P1000
; stop printing object 20mm_cube.stl id:0 copy 0
;LAYER_CHANGE
;Z:220
;HEIGHT:3
;BEFORE_LAYER_CHANGE
G92 E0.0
;220


M73 P69 R451
G1 E-2.1 F2700
;WIPE_START
M73 P69 R448
G1 F48000
G1 X702 Y717.441 E-.855
;WIPE_END
G1 E-.045 F2700
G1 Z220 F60000
;AFTER_LAYER_CHANGE
;220
; printing object 20mm_cube.stl id:0 copy 0
G1 X718 Y718
G1 E3 F1200
M204 P800
G1 F89.387
G1 X482 Y718 E189.09081
G1 X482 Y482 E189.09081
M73 P69 R446
G1 X718 Y482 E189.09081
M73 P70 R443
G1 X718 Y717.4 E188.61008
M204 P1000
; stop printing object 20mm_cube.stl id:0 copy 0
;LAYER_CHANGE
;Z:223
;HEIGHT:3
;BEFORE_LAYER_CHANGE
G92 E0.0
;223


M73 P70 R440
G1 E-2.1 F2700
;WIPE_START
M73 P70 R438
G1 F48000
G1 X702 Y717.441 E-.855
;WIPE_END
G1 E-.045 F2700
G1 Z223 F60000
;AFTER_LAYER_CHANGE
;223
; printing object 20mm_cube.stl id:0 copy 0
G1 X718 Y718
G1 E3 F1200
M204 P800
G1 F89.387
G1 X482 Y718 E189.09081
G1 X482 Y482 E189.09081
M73 P70 R435
G1 X718 Y482 E189.09081
M73 P70 R432
G1 X718 Y717.4 E188.61008
M204 P1000
; stop printing object 20mm_cube.stl id:0 copy 0
;LAYER_CHANGE
;Z:226
;HEIGHT:3
;BEFORE_LAYER_CHANGE
G92 E0.0
;226


M73 P70 R430
G1 E-2.1 F2700
;WIPE_START
M73 P71 R427
G1 F48000
G1 X702 Y717.441 E-.855
;WIPE_END
G1 E-.045 F2700
G1 Z226 F60000
;AFTER_LAYER_CHANGE
;226
; printing object 20mm_cube.stl id:0 copy 0
G1 X718 Y718
G1 E3 F1200
M204 P800
G1 F89.387
G1 X482 Y718 E189.09081
G1 X482 Y482 E189.09081
M73 P71 R425
G1 X718 Y482 E189.09081
M73 P71 R422
G1 X718 Y717.4 E188.61008
M204 P1000
; stop printing object 20mm_cube.stl id:0 copy 0
;LAYER_CHANGE
;Z:229
;HEIGHT:3
;BEFORE_LAYER_CHANGE
G92 E0.0
;229


M73 P71 R419
G1 E-2.1 F2700
;WIPE_START
M73 P71 R417
G1 F48000
G1 X702 Y717.441 E-.855
;WIPE_END
G1 E-.045 F2700
G1 Z229 F60000
;AFTER_LAYER_CHANGE
;229
; printing object 20mm_cube.stl id:0 copy 0
G1 X718 Y718
G1 E3 F1200
M204 P800
G1 F89.387
G1 X482 Y718 E189.09081
G1 X482 Y482 E189.09081
M73 P72 R414
G1 X718 Y482 E189.09081
M73 P72 R411
G1 X718 Y717.4 E188.61008
M204 P1000
; stop printing object 20mm_cube.stl id:0 copy 0
;LAYER_CHANGE
;Z:232
;HEIGHT:3
;BEFORE_LAYER_CHANGE
G92 E0.0
;232


M73 P72 R409
G1 E-2.1 F2700
;WIPE_START
M73 P72 R406
G1 F48000
G1 X702 Y717.441 E-.855
;WIPE_END
G1 E-.045 F2700
G1 Z232 F60000
;AFTER_LAYER_CHANGE
;232
; printing object 20mm_cube.stl id:0 copy 0
G1 X718 Y718
G1 E3 F1200
M204 P800
G1 F89.387
G1 X482 Y718 E189.09081
G1 X482 Y482 E189.09081
M73 P72 R403
G1 X718 Y482 E189.09081
M73 P72 R401
G1 X718 Y717.4 E188.61008
M204 P1000
; stop printing object 20mm_cube.stl id:0 copy 0
;LAYER_CHANGE
;Z:235
;HEIGHT:3
;BEFORE_LAYER_CHANGE
G92 E0.0
;235


M73 P73 R398
G1 E-2.1 F2700
;WIPE_START
M73 P73 R395
G1 F48000
G1 X702 Y717.441 E-.855
;WIPE_END
G1 E-.045 F2700
G1 Z235 F60000
;AFTER_LAYER_CHANGE
;235
; printing object 20mm_cube.stl id:0 copy 0
G1 X718 Y718
G1 E3 F1200
M204 P800
G1 F89.387
G1 X482 Y718 E189.09081
G1 X482 Y482 E189.09081
M73 P73 R393
G1 X718 Y482 E189.09081
M73 P73 R390
G1 X718 Y717.4 E188.61008
M204 P1000
; stop printing object 20mm_cube.stl id:0 copy 0
;LAYER_CHANGE
;Z:238
;HEIGHT:3
;BEFORE_LAYER_CHANGE
G92 E0.0
;238


M73 P73 R388
G1 E-2.1 F2700
;WIPE_START
M73 P73 R385
G1 F48000
G1 X702 Y717.441 E-.855
;WIPE_END
G1 E-.045 F2700
G1 Z238 F60000
;AFTER_LAYER_CHANGE
;238
; printing object 20mm_cube.stl id:0 copy 0
G1 X718 Y718
G1 E3 F1200
M204 P800
G1 F89.387
G1 X482 Y718 E189.09081
G1 X482 Y482 E189.09081
M73 P74 R382
G1 X718 Y482 E189.09081
M73 P74 R380
G1 X718 Y717.4 E188.61008
M204 P1000
M73 P74 R377
G1 E-2.1 F2700
;WIPE_START
M73 P74 R374
G1 F48000
G1 X702 Y717.441 E-.855
;WIPE_END
G1 E-.045 F2700
G1 X709.335 Y482.863 F60000
G1 E3 F1200
;TYPE:Bridge infill
;WIDTH:3.80879
;HEIGHT:3.79473
G1 F78.991
G1 X715.406 Y488.935 E7.78472
G1 X715.406 Y494.392 E4.94789
G1 X705.608 Y484.594 E12.56364
G1 X700.151 Y484.594 E4.94788
G1 X715.406 Y499.849 E19.56101
G1 X715.406 Y505.306 E4.94788
G1 X694.694 Y484.594 E26.55837
G1 X689.237 Y484.594 E4.94789
M73 P74 R373
G1 X715.406 Y510.763 E33.55574
G1 X715.406 Y516.22 E4.94788
G1 X683.78 Y484.594 E40.5531
G1 X678.322 Y484.594 E4.94788
M73 P74 R372
G1 X715.406 Y521.678 E47.55047
G1 X715.406 Y527.135 E4.94789
M73 P74 R371
G1 X672.865 Y484.594 E54.54783
G1 X667.408 Y484.594 E4.94788
M73 P74 R370
G1 X715.406 Y532.592 E61.5452
G1 X715.406 Y538.049 E4.94788
M73 P75 R370
G1 X661.951 Y484.594 E68.54256
M73 P75 R369
G1 X656.494 Y484.594 E4.94788
G1 X715.406 Y543.506 E75.53993
M73 P75 R368
G1 X715.406 Y548.963 E4.94789
M73 P75 R367
G1 X651.037 Y484.594 E82.5373
G1 X645.58 Y484.594 E4.94788
M73 P75 R366
G1 X715.406 Y554.42 E89.53466
G1 X715.406 Y559.878 E4.94788
M73 P75 R365
G1 X640.122 Y484.594 E96.53203
G1 X634.665 Y484.594 E4.94788
M73 P75 R363
G1 X715.406 Y565.335 E103.52939
G1 X715.406 Y570.792 E4.94788
M73 P75 R362
G1 X629.208 Y484.594 E110.52676
G1 X623.751 Y484.594 E4.94789
M73 P75 R360
G1 X715.406 Y576.249 E117.52412
G1 X715.406 Y581.706 E4.94788
M73 P75 R359
G1 X618.294 Y484.594 E124.52149
G1 X612.837 Y484.594 E4.94788
M73 P75 R357
G1 X715.406 Y587.163 E131.51885
G1 X715.406 Y592.621 E4.94788
M73 P76 R355
G1 X607.379 Y484.594 E138.51622
G1 X601.922 Y484.594 E4.94788
M73 P76 R353
G1 X715.406 Y598.078 E145.51358
G1 X715.406 Y603.535 E4.94789
M73 P76 R351
G1 X596.465 Y484.594 E152.51095
G1 X591.008 Y484.594 E4.94789
M73 P76 R349
G1 X715.406 Y608.992 E159.50831
M73 P76 R348
G1 X715.406 Y614.449 E4.94788
M73 P76 R346
G1 X585.551 Y484.594 E166.50568
G1 X580.094 Y484.594 E4.94788
M73 P76 R344
G1 X715.406 Y619.906 E173.50304
G1 X715.406 Y625.363 E4.94788
M73 P76 R341
G1 X574.637 Y484.594 E180.50041
G1 X569.179 Y484.594 E4.94788
M73 P77 R339
G1 X715.406 Y630.821 E187.49777
G1 X715.406 Y636.278 E4.94789
M73 P77 R336
G1 X563.722 Y484.594 E194.49514
G1 X558.265 Y484.594 E4.94789
M73 P77 R333
G1 X715.406 Y641.735 E201.49251
G1 X715.406 Y647.192 E4.94788
M73 P77 R330
G1 X552.808 Y484.594 E208.48987
G1 X547.351 Y484.594 E4.94788
M73 P77 R327
G1 X715.406 Y652.649 E215.48724
G1 X715.406 Y658.106 E4.94789
M73 P78 R324
G1 X541.894 Y484.594 E222.4846
G1 X536.437 Y484.594 E4.94788
M73 P78 R321
G1 X715.406 Y663.563 E229.48197
G1 X715.406 Y669.021 E4.94788
M73 P78 R318
G1 X530.979 Y484.594 E236.47933
G1 X525.522 Y484.594 E4.94788
M73 P78 R315
G1 X715.406 Y674.478 E243.4767
M73 P78 R314
G1 X715.406 Y679.935 E4.94788
M73 P78 R311
G1 X520.065 Y484.594 E250.47406
G1 X514.608 Y484.594 E4.94789
M73 P79 R308
G1 X715.406 Y685.392 E257.47143
M73 P79 R307
G1 X715.406 Y690.849 E4.94789
M73 P79 R304
G1 X509.151 Y484.594 E264.46879
G1 X503.694 Y484.594 E4.94788
M73 P79 R300
G1 X715.406 Y696.306 E271.46616
G1 X715.406 Y701.764 E4.94788
M73 P79 R296
G1 X498.236 Y484.594 E278.46352
G1 X492.779 Y484.594 E4.94788
M73 P80 R292
G1 X715.406 Y707.221 E285.46089
G1 X715.406 Y712.678 E4.94788
M73 P80 R288
G1 X487.322 Y484.594 E292.45825
G1 X484.594 Y484.594 E2.47393
M73 P80 R284
G1 X484.594 Y487.322 E2.47395
G1 X712.678 Y715.406 E292.45822
G1 X707.221 Y715.406 E4.94789
M73 P81 R280
G1 X484.594 Y492.779 E285.46086
G1 X484.594 Y498.236 E4.94788
M73 P81 R276
G1 X701.764 Y715.406 E278.46349
G1 X696.306 Y715.406 E4.94788
M73 P81 R272
G1 X484.594 Y503.694 E271.46613
G1 X484.594 Y509.151 E4.94789
M73 P81 R268
G1 X690.849 Y715.406 E264.46876
G1 X685.392 Y715.406 E4.94788
M73 P82 R264
G1 X484.594 Y514.608 E257.47139
G1 X484.594 Y520.065 E4.94788
M73 P82 R261
G1 X679.935 Y715.406 E250.47403
G1 X674.478 Y715.406 E4.94789
M73 P82 R257
G1 X484.594 Y525.522 E243.47666
G1 X484.594 Y530.979 E4.94788
M73 P82 R254
G1 X669.021 Y715.406 E236.4793
G1 X663.563 Y715.406 E4.94788
M73 P83 R250
G1 X484.594 Y536.437 E229.48193
G1 X484.594 Y541.894 E4.94789
M73 P83 R247
G1 X658.106 Y715.406 E222.48457
G1 X652.649 Y715.406 E4.94788
M73 P83 R244
G1 X484.594 Y547.351 E215.4872
G1 X484.594 Y552.808 E4.94788
M73 P83 R241
G1 X647.192 Y715.406 E208.48984
G1 X641.735 Y715.406 E4.94789
M73 P83 R238
G1 X484.594 Y558.265 E201.49247
G1 X484.594 Y563.722 E4.94789
M73 P84 R235
G1 X636.278 Y715.406 E194.49511
G1 X630.821 Y715.406 E4.94788
M73 P84 R232
G1 X484.594 Y569.179 E187.49774
G1 X484.594 Y574.637 E4.94788
M73 P84 R229
G1 X625.363 Y715.406 E180.50038
G1 X619.906 Y715.406 E4.94788
M73 P84 R227
G1 X484.594 Y580.094 E173.50301
G1 X484.594 Y585.551 E4.94788
M73 P84 R224
G1 X614.449 Y715.406 E166.50565
G1 X608.992 Y715.406 E4.94789
M73 P84 R222
G1 X484.594 Y591.008 E159.50828
G1 X484.594 Y596.465 E4.94789
M73 P85 R220
G1 X603.535 Y715.406 E152.51092
G1 X598.078 Y715.406 E4.94788
M73 P85 R217
G1 X484.594 Y601.922 E145.51355
G1 X484.594 Y607.379 E4.94788
M73 P85 R215
G1 X592.62 Y715.406 E138.51618
G1 X587.163 Y715.406 E4.94788
M73 P85 R213
G1 X484.594 Y612.837 E131.51882
G1 X484.594 Y618.294 E4.94788
M73 P85 R211
G1 X581.706 Y715.406 E124.52145
G1 X576.249 Y715.406 E4.94789
M73 P85 R210
G1 X484.594 Y623.751 E117.52409
G1 X484.594 Y629.208 E4.94789
M73 P85 R208
G1 X570.792 Y715.406 E110.52672
G1 X565.335 Y715.406 E4.94788
M73 P86 R206
G1 X484.594 Y634.665 E103.52936
G1 X484.594 Y640.122 E4.94788
M73 P86 R205
G1 X559.878 Y715.406 E96.53199
G1 X554.42 Y715.406 E4.94788
M73 P86 R203
G1 X484.594 Y645.58 E89.53463
G1 X484.594 Y651.037 E4.94788
M73 P86 R202
G1 X548.963 Y715.406 E82.53726
G1 X543.506 Y715.406 E4.94789
M73 P86 R201
G1 X484.594 Y656.494 E75.5399
G1 X484.594 Y661.951 E4.94789
M73 P86 R200
G1 X538.049 Y715.406 E68.54253
G1 X532.592 Y715.406 E4.94789
M73 P86 R199
G1 X484.594 Y667.408 E61.54517
G1 X484.594 Y672.865 E4.94788
M73 P86 R198
G1 X527.135 Y715.406 E54.5478
G1 X521.678 Y715.406 E4.94788
M73 P86 R197
G1 X484.594 Y678.322 E47.55044
G1 X484.594 Y683.78 E4.94789
M73 P86 R196
G1 X516.22 Y715.406 E40.55307
G1 X510.763 Y715.406 E4.94788
G1 X484.594 Y689.237 E33.55571
M73 P86 R195
G1 X484.594 Y694.694 E4.94788
G1 X505.306 Y715.406 E26.55834
G1 X499.849 Y715.406 E4.94788
G1 X484.594 Y700.151 E19.56098
M73 P86 R194
G1 X484.594 Y705.608 E4.94788
G1 X494.392 Y715.406 E12.56361
G1 X488.935 Y715.406 E4.94788
G1 X482.863 Y709.335 E7.78468
; stop printing object 20mm_cube.stl id:0 copy 0
;LAYER_CHANGE
;Z:241
;HEIGHT:3
;BEFORE_LAYER_CHANGE
G92 E0.0
;241


G1 E-2.1 F2700
;WIPE_START
G1 F48000
G1 X488.935 Y715.406 E-.45881
G1 X494.392 Y715.406 E-.29162
G1 X493.008 Y714.023 E-.10457
;WIPE_END
G1 E-.045 F2700
G1 Z241 F60000
;AFTER_LAYER_CHANGE
;241
; printing object 20mm_cube.stl id:0 copy 0
G1 X718 Y718
G1 E3 F1200
M204 P800
;TYPE:External perimeter
;WIDTH:4
G1 F89.387
G1 X482 Y718 E189.09081
G1 X482 Y482 E189.09081
M73 P87 R191
G1 X718 Y482 E189.09081
M73 P87 R188
G1 X718 Y717.4 E188.61008
M204 P1000
M73 P87 R186
G1 E-2.1 F2700
;WIPE_START
M73 P87 R183
G1 F48000
G1 X702 Y717.441 E-.855
;WIPE_END
G1 E-.045 F2700
G1 X717.161 Y710.313 F60000
G1 E3 F1200
;TYPE:Top solid infill
;WIDTH:4.03009
G1 F88.593
G1 X711.823 Y715.651 E6.10228
G1 X707.034 Y715.651 E3.87145
G1 X715.651 Y707.034 E9.85066
G1 X715.651 Y702.246 E3.87144
G1 X702.246 Y715.651 E15.32571
G1 X697.457 Y715.651 E3.87145
G1 X715.651 Y697.457 E20.80076
G1 X715.651 Y692.668 E3.87144
M73 P87 R182
G1 X692.668 Y715.651 E26.27581
G1 X687.879 Y715.651 E3.87145
G1 X715.651 Y687.879 E31.75086
G1 X715.651 Y683.09 E3.87144
M73 P87 R181
G1 X683.09 Y715.651 E37.22591
G1 X678.301 Y715.651 E3.87145
G1 X715.651 Y678.301 E42.70096
G1 X715.651 Y673.512 E3.87144
M73 P87 R180
G1 X673.512 Y715.651 E48.17602
G1 X668.723 Y715.651 E3.87145
M73 P87 R179
G1 X715.651 Y668.723 E53.65107
G1 X715.651 Y663.934 E3.87144
G1 X663.934 Y715.651 E59.12612
G1 X659.145 Y715.651 E3.87145
M73 P87 R178
G1 X715.651 Y659.145 E64.60117
G1 X715.651 Y654.356 E3.87144
M73 P88 R177
G1 X654.356 Y715.651 E70.07622
G1 X649.567 Y715.651 E3.87145
M73 P88 R176
G1 X715.651 Y649.567 E75.55127
G1 X715.651 Y644.778 E3.87145
M73 P88 R175
G1 X644.778 Y715.651 E81.02632
G1 X639.989 Y715.651 E3.87145
M73 P88 R173
G1 X715.651 Y639.989 E86.50137
G1 X715.651 Y635.201 E3.87144
M73 P88 R172
G1 X635.201 Y715.651 E91.97642
G1 X630.412 Y715.651 E3.87145
M73 P88 R171
G1 X715.651 Y630.412 E97.45147
G1 X715.651 Y625.623 E3.87144
M73 P88 R169
G1 X625.623 Y715.651 E102.92652
G1 X620.834 Y715.651 E3.87145
M73 P88 R168
G1 X715.651 Y620.834 E108.40157
G1 X715.651 Y616.045 E3.87144
M73 P88 R166
G1 X616.045 Y715.651 E113.87662
G1 X611.256 Y715.651 E3.87145
M73 P88 R165
G1 X715.651 Y611.256 E119.35167
G1 X715.651 Y606.467 E3.87144
M73 P88 R163
G1 X606.467 Y715.651 E124.82672
G1 X601.678 Y715.651 E3.87145
M73 P89 R161
G1 X715.651 Y601.678 E130.30177
G1 X715.651 Y596.889 E3.87144
M73 P89 R159
G1 X596.889 Y715.651 E135.77682
G1 X592.1 Y715.651 E3.87145
M73 P89 R157
G1 X715.651 Y592.1 E141.25187
G1 X715.651 Y587.311 E3.87144
M73 P89 R155
G1 X587.311 Y715.651 E146.72692
G1 X582.522 Y715.651 E3.87145
M73 P89 R153
G1 X715.651 Y582.522 E152.20197
G1 X715.651 Y577.733 E3.87144
M73 P89 R151
G1 X577.733 Y715.651 E157.67702
G1 X572.944 Y715.651 E3.87145
M73 P89 R149
G1 X715.651 Y572.944 E163.15208
G1 X715.651 Y568.156 E3.87144
M73 P90 R146
G1 X568.156 Y715.651 E168.62713
G1 X563.367 Y715.651 E3.87145
M73 P90 R144
G1 X715.651 Y563.367 E174.10218
G1 X715.651 Y558.578 E3.87144
M73 P90 R142
G1 X558.578 Y715.651 E179.57723
G1 X553.789 Y715.651 E3.87145
M73 P90 R139
G1 X715.651 Y553.789 E185.05228
G1 X715.651 Y549 E3.87144
M73 P90 R136
G1 X549 Y715.651 E190.52733
G1 X544.211 Y715.651 E3.87145
M73 P90 R134
G1 X715.651 Y544.211 E196.00238
G1 X715.651 Y539.422 E3.87144
M73 P91 R131
G1 X539.422 Y715.651 E201.47743
G1 X534.633 Y715.651 E3.87145
M73 P91 R128
G1 X715.651 Y534.633 E206.95248
G1 X715.651 Y529.844 E3.87144
M73 P91 R125
G1 X529.844 Y715.651 E212.42753
G1 X525.055 Y715.651 E3.87145
M73 P91 R122
G1 X715.651 Y525.055 E217.90258
G1 X715.651 Y520.266 E3.87144
M73 P91 R119
G1 X520.266 Y715.651 E223.37763
G1 X515.477 Y715.651 E3.87145
M73 P92 R116
G1 X715.651 Y515.477 E228.85268
G1 X715.651 Y510.688 E3.87144
M73 P92 R113
G1 X510.688 Y715.651 E234.32773
M73 P92 R112
G1 X505.899 Y715.651 E3.87145
M73 P92 R109
G1 X715.651 Y505.9 E239.80278
G1 X715.651 Y501.111 E3.87144
M73 P92 R106
G1 X501.111 Y715.651 E245.27783
G1 X496.322 Y715.651 E3.87145
M73 P93 R102
G1 X715.651 Y496.322 E250.75288
G1 X715.651 Y491.533 E3.87144
M73 P93 R99
G1 X491.533 Y715.651 E256.22793
G1 X486.744 Y715.651 E3.87145
M73 P93 R95
G1 X715.651 Y486.744 E261.70298
G1 X715.651 Y484.349 E1.93572
M73 P93 R91
G1 X713.256 Y484.349 E1.93572
G1 X484.349 Y713.256 E261.7029
G1 X484.349 Y708.467 E3.87144
M73 P94 R88
G1 X708.467 Y484.349 E256.22785
G1 X703.678 Y484.349 E3.87145
M73 P94 R84
G1 X484.349 Y703.678 E250.7528
G1 X484.349 Y698.889 E3.87144
M73 P94 R81
G1 X698.889 Y484.349 E245.27774
M73 P94 R80
G1 X694.1 Y484.349 E3.87145
M73 P94 R77
G1 X484.349 Y694.1 E239.80269
G1 X484.349 Y689.311 E3.87144
M73 P94 R74
G1 X689.312 Y484.349 E234.32764
G1 X684.523 Y484.349 E3.87145
M73 P95 R70
G1 X484.349 Y684.523 E228.85259
G1 X484.349 Y679.734 E3.87144
M73 P95 R67
G1 X679.734 Y484.349 E223.37754
G1 X674.945 Y484.349 E3.87145
M73 P95 R64
G1 X484.349 Y674.945 E217.90249
G1 X484.349 Y670.156 E3.87144
M73 P95 R61
G1 X670.156 Y484.349 E212.42744
G1 X665.367 Y484.349 E3.87145
M73 P96 R58
G1 X484.349 Y665.367 E206.95239
G1 X484.349 Y660.578 E3.87145
M73 P96 R55
G1 X660.578 Y484.349 E201.47734
G1 X655.789 Y484.349 E3.87145
M73 P96 R52
G1 X484.349 Y655.789 E196.00229
G1 X484.349 Y651 E3.87144
M73 P96 R49
G1 X651 Y484.349 E190.52724
G1 X646.211 Y484.349 E3.87145
M73 P96 R46
G1 X484.349 Y646.211 E185.05219
G1 X484.349 Y641.422 E3.87144
M73 P97 R44
G1 X641.422 Y484.349 E179.57714
G1 X636.633 Y484.349 E3.87145
M73 P97 R41
G1 X484.349 Y636.633 E174.10209
G1 X484.349 Y631.844 E3.87144
M73 P97 R39
G1 X631.844 Y484.349 E168.62704
G1 X627.055 Y484.349 E3.87145
M73 P97 R36
G1 X484.349 Y627.055 E163.15199
G1 X484.349 Y622.267 E3.87144
M73 P97 R34
G1 X622.267 Y484.349 E157.67694
G1 X617.478 Y484.349 E3.87145
M73 P97 R32
G1 X484.349 Y617.478 E152.20189
G1 X484.349 Y612.689 E3.87144
M73 P97 R30
G1 X612.689 Y484.349 E146.72684
G1 X607.9 Y484.349 E3.87145
M73 P98 R28
G1 X484.349 Y607.9 E141.25179
M73 P98 R27
G1 X484.349 Y603.111 E3.87144
M73 P98 R25
G1 X603.111 Y484.349 E135.77674
G1 X598.322 Y484.349 E3.87145
M73 P98 R24
G1 X484.349 Y598.322 E130.30168
M73 P98 R23
G1 X484.349 Y593.533 E3.87144
M73 P98 R22
G1 X593.533 Y484.349 E124.82663
G1 X588.744 Y484.349 E3.87145
M73 P98 R20
G1 X484.349 Y588.744 E119.35158
G1 X484.349 Y583.955 E3.87144
M73 P98 R18
G1 X583.955 Y484.349 E113.87653
G1 X579.166 Y484.349 E3.87145
M73 P98 R17
G1 X484.349 Y579.166 E108.40148
M73 P98 R16
G1 X484.349 Y574.377 E3.87144
M73 P98 R15
G1 X574.377 Y484.349 E102.92643
G1 X569.588 Y484.349 E3.87145
M73 P99 R13
G1 X484.349 Y569.588 E97.45138
G1 X484.349 Y564.799 E3.87144
M73 P99 R12
G1 X564.799 Y484.349 E91.97633
G1 X560.01 Y484.349 E3.87145
M73 P99 R11
G1 X484.349 Y560.01 E86.50128
G1 X484.349 Y555.222 E3.87144
M73 P99 R9
G1 X555.222 Y484.349 E81.02623
G1 X550.433 Y484.349 E3.87145
M73 P99 R8
G1 X484.349 Y550.433 E75.55118
G1 X484.349 Y545.644 E3.87144
M73 P99 R7
G1 X545.644 Y484.349 E70.07613
G1 X540.855 Y484.349 E3.87145
M73 P99 R6
G1 X484.349 Y540.855 E64.60108
G1 X484.349 Y536.066 E3.87144
M73 P99 R5
G1 X536.066 Y484.349 E59.12603
G1 X531.277 Y484.349 E3.87145
M73 P99 R4
G1 X484.349 Y531.277 E53.65098
G1 X484.349 Y526.488 E3.87144
M73 P99 R3
G1 X526.488 Y484.349 E48.17593
G1 X521.699 Y484.349 E3.87145
G1 X484.349 Y521.699 E42.70088
G1 X484.349 Y516.91 E3.87145
M73 P99 R2
G1 X516.91 Y484.349 E37.22583
G1 X512.121 Y484.349 E3.87145
G1 X484.349 Y512.121 E31.75078
M73 P99 R1
G1 X484.349 Y507.332 E3.87144
G1 X507.332 Y484.349 E26.27573
G1 X502.543 Y484.349 E3.87145
G1 X484.349 Y502.543 E20.80068
G1 X484.349 Y497.754 E3.87144
M73 P99 R0
G1 X497.754 Y484.349 E15.32563
G1 X492.965 Y484.349 E3.87145
G1 X484.349 Y492.965 E9.85057
G1 X484.349 Y488.177 E3.87144
G1 X489.687 Y482.839 E6.1022
; stop printing object 20mm_cube.stl id:0 copy 0
G1 E-2.1 F2700
;WIPE_START
G1 F48000;_WIPE
G1 X484.349 Y488.177 E-.40336
G1 F48000;_WIPE
G1 X484.349 Y492.965 E-.25591
G1 F48000;_WIPE
G1 X486.939 Y490.376 E-.19573
;WIPE_END
G1 E-.045 F2700
M107
;TYPE:Custom
; Filament-specific end gcode
G1 E-1 F2100 ; retract
G1 Z243 F720 ; Move print head up
G1 X178 Y178 F4200 ; park print head
G1 Z271 F720 ; Move print head further up
G4 ; wait
M104 S0 ; turn off temperature
M140 S0 ; turn off heatbed
M107 ; turn off fan
M221 S100 ; reset flow
M900 K0 ; reset LA
M84 ; disable motors
M73 P100 R0
; filament used [mm] = 106006.30
; filament used [cm3] = 1332.11
; filament used [g] = 1651.82
; filament cost = 59.94
; total filament used [g] = 1651.82
; total filament cost = 59.94
; estimated printing time (normal mode) = 1d 0h 41m 35s

; prusaslicer_config = begin
; avoid_crossing_perimeters = 0
; avoid_crossing_perimeters_max_detour = 0
; bed_custom_model = 
; bed_custom_texture = 
; bed_shape = 0x0,1200x0,1200x1200,0x1200
; bed_temperature = 60
; before_layer_gcode = ;BEFORE_LAYER_CHANGE\nG92 E0.0\n;[layer_z]\n\n
; between_objects_gcode = 
; bottom_fill_pattern = monotonic
; bottom_solid_layers = 1
; bottom_solid_min_thickness = 4
; bridge_acceleration = 1000
; bridge_angle = 0
; bridge_fan_speed = 100
; bridge_flow_ratio = 0.9
; bridge_speed = 1000
; brim_separation = 0.1
; brim_type = outer_only
; brim_width = 0
; clip_multipart_objects = 1
; color_change_gcode = M600
; compatible_printers_condition_cummulative = "printer_model==\"MINI\" and nozzle_diameter[0]==0.8";"nozzle_diameter[0]==0.8 and ! (printer_notes=~/.*PRINTER_VENDOR_PRUSA3D.*/ and printer_notes=~/.*PRINTER_MODEL_MK(2.5|3).*/ and single_extruder_multi_material)"
; complete_objects = 0
; cooling = 1
; cooling_tube_length = 5
; cooling_tube_retraction = 91.5
; default_acceleration = 1000
; default_filament_profile = "Prusament PLA @0.8 nozzle"
; default_print_profile = 0.40mm QUALITY @0.8 nozzle MINI
; deretract_speed = 20
; disable_fan_first_layers = 1
; dont_support_bridges = 0
; draft_shield = disabled
; duplicate_distance = 6
; elefant_foot_compensation = 0.2
; end_filament_gcode = "; Filament-specific end gcode"
; end_gcode = G1 E-1 F2100 ; retract\n{if max_layer_z < max_print_height}G1 Z{z_offset+min(max_layer_z+2, max_print_height)} F720 ; Move print head up{endif}\nG1 X178 Y178 F4200 ; park print head\n{if max_layer_z < max_print_height}G1 Z{z_offset+min(max_layer_z+30, max_print_height)} F720 ; Move print head further up{endif}\nG4 ; wait\nM104 S0 ; turn off temperature\nM140 S0 ; turn off heatbed\nM107 ; turn off fan\nM221 S100 ; reset flow\nM900 K0 ; reset LA\nM84 ; disable motors
; ensure_vertical_shell_thickness = 1
; external_perimeter_extrusion_width = 4
; external_perimeter_speed = 1000
; external_perimeters_first = 0
; extra_loading_move = -2
; extra_perimeters = 0
; extruder_clearance_height = 20
; extruder_clearance_radius = 45
; extruder_colour = ""
; extruder_offset = 0x0
; extrusion_axis = E
; extrusion_multiplier = 1
; extrusion_width = 4
; fan_always_on = 1
; fan_below_layer_time = 100
; filament_colour = #FF8000
; filament_cooling_final_speed = 3.4
; filament_cooling_initial_speed = 2.2
; filament_cooling_moves = 4
; filament_cost = 36.29
; filament_density = 1.24
; filament_diameter = 4
; filament_load_time = 0
; filament_loading_speed = 28
; filament_loading_speed_start = 3
; filament_max_volumetric_speed = 15
; filament_minimal_purge_on_wipe_tower = 15
; filament_notes = "Affordable filament for everyday printing in premium quality manufactured in-house by Josef Prusa"
; filament_ramming_parameters = "120 100 6.6 6.8 7.2 7.6 7.9 8.2 8.7 9.4 9.9 10.0| 0.05 6.6 0.45 6.8 0.95 7.8 1.45 8.3 1.95 9.7 2.45 10 2.95 7.6 3.45 7.6 3.95 7.6 4.45 7.6 4.95 7.6"
; filament_settings_id = "Prusament PLA @0.8 nozzle"
; filament_soluble = 0
; filament_spool_weight = 201
; filament_toolchange_delay = 0
; filament_type = PLA
; filament_unload_time = 0
; filament_unloading_speed = 90
; filament_unloading_speed_start = 100
; filament_vendor = Prusa Polymers
; fill_angle = 45
; fill_density = 0%
; fill_pattern = gyroid
; first_layer_acceleration = 800
; first_layer_acceleration_over_raft = 0
; first_layer_bed_temperature = 60
; first_layer_extrusion_width = 4
; first_layer_height = 4
; first_layer_speed = 1000
; first_layer_speed_over_raft = 30
; first_layer_temperature = 225
; full_fan_speed_layer = 4
; fuzzy_skin = none
; fuzzy_skin_point_dist = 0.8
; fuzzy_skin_thickness = 0.3
; gap_fill_enabled = 1
; gap_fill_speed = 1000
; gcode_comments = 0
; gcode_flavor = marlin2
; gcode_label_objects = 1
; gcode_resolution = 0.0125
; gcode_substitutions = 
; high_current_on_filament_swap = 0
; host_type = octoprint
; infill_acceleration = 1000
; infill_anchor = 2.5
; infill_anchor_max = 20
; infill_every_layers = 1
; infill_extruder = 1
; infill_extrusion_width = 4
; infill_first = 0
; infill_only_where_needed = 0
; infill_overlap = 30%
; infill_speed = 1000
; interface_shells = 0
; ironing = 0
; ironing_flowrate = 15%
; ironing_spacing = 0.1
; ironing_speed = 15
; ironing_type = top
; layer_gcode = ;AFTER_LAYER_CHANGE\n;[layer_z]
; layer_height = 3
; machine_limits_usage = emit_to_gcode
; machine_max_acceleration_e = 5000
; machine_max_acceleration_extruding = 1250
; machine_max_acceleration_retracting = 1250
; machine_max_acceleration_travel = 2500
; machine_max_acceleration_x = 2500
; machine_max_acceleration_y = 2500
; machine_max_acceleration_z = 2500
; machine_max_feedrate_e = 1000
; machine_max_feedrate_x = 1000
; machine_max_feedrate_y = 1000
; machine_max_feedrate_z = 1000
; machine_max_jerk_e = 10
; machine_max_jerk_x = 8
; machine_max_jerk_y = 8
; machine_max_jerk_z = 2
; machine_min_extruding_rate = 0
; machine_min_travel_rate = 0
; max_fan_speed = 100
; max_layer_height = 0.55
; max_print_height = 1200
; max_print_speed = 50
; max_volumetric_extrusion_rate_slope_negative = 0
; max_volumetric_extrusion_rate_slope_positive = 0
; max_volumetric_speed = 0
; min_bead_width = 85%
; min_fan_speed = 100
; min_feature_size = 25%
; min_layer_height = 0.2
; min_print_speed = 15
; min_skirt_length = 4
; mmu_segmented_region_max_width = 0
; notes = 
; nozzle_diameter = 4
; only_retract_when_crossing_perimeters = 0
; ooze_prevention = 0
; output_filename_format = {input_filename_base}_{nozzle_diameter[0]}n_{layer_height}mm_{initial_filament_type}_{printer_model}_{print_time}.gcode
; overhangs = 0
; parking_pos_retraction = 92
; pause_print_gcode = M601
; perimeter_acceleration = 800
; perimeter_extruder = 1
; perimeter_extrusion_width = 4
; perimeter_generator = arachne
; perimeter_speed = 1000
; perimeters = 1
; physical_printer_settings_id = 
; post_process = 
; print_settings_id = 0.40mm QUALITY @0.8 nozzle MINI
; printer_model = MINI
; printer_notes = Don't remove the following keywords! These keywords are used in the "compatible printer" condition of the print and filament profiles to link the particular print and filament profiles to this printer profile.\nPRINTER_VENDOR_PRUSA3D\nPRINTER_MODEL_MINI\n
; printer_settings_id = Original Prusa MINI & MINI+ 0.8 nozzle
; printer_technology = FFF
; printer_variant = 0.8
; printer_vendor = 
; raft_contact_distance = 0.2
; raft_expansion = 1.5
; raft_first_layer_density = 90%
; raft_first_layer_expansion = 3
; raft_layers = 0
; remaining_times = 1
; resolution = 0
; retract_before_travel = 1.5
; retract_before_wipe = 70%
; retract_layer_change = 1
; retract_length = 3
; retract_length_toolchange = 4
; retract_lift = 0.2
; retract_lift_above = 0
; retract_lift_below = 179
; retract_restart_extra = 0
; retract_restart_extra_toolchange = 0
; retract_speed = 45
; seam_position = aligned
; silent_mode = 0
; single_extruder_multi_material = 0
; single_extruder_multi_material_priming = 0
; skirt_distance = 3
; skirt_height = 2
; skirts = 1
; slice_closing_radius = 0.049
; slicing_mode = regular
; slowdown_below_layer_time = 20
; small_perimeter_speed = 1000
; solid_infill_below_area = 0
; solid_infill_every_layers = 0
; solid_infill_extruder = 1
; solid_infill_extrusion_width = 4
; solid_infill_speed = 1000
; spiral_vase = 0
; standby_temperature_delta = -5
; start_filament_gcode = "M900 K{if printer_notes=~/.*PRINTER_MODEL_MINI.*/ and nozzle_diameter[0]==0.6}0.12{elsif printer_notes=~/.*PRINTER_MODEL_MINI.*/ and nozzle_diameter[0]==0.8}0.06{elsif printer_notes=~/.*PRINTER_MODEL_MINI.*/}0.2{elsif nozzle_diameter[0]==0.8}0.01{elsif nozzle_diameter[0]==0.6}0.04{else}0.05{endif} ; Filament gcode LA 1.5\n{if printer_notes=~/.*PRINTER_MODEL_MINI.*/};{elsif printer_notes=~/.*PRINTER_HAS_BOWDEN.*/}M900 K200{elsif nozzle_diameter[0]==0.6}M900 K18{elsif nozzle_diameter[0]==0.8};{else}M900 K30{endif} ; Filament gcode LA 1.0"
; start_gcode = M862.3 P "[printer_model]" ; printer model check\nG90 ; use absolute coordinates\nM83 ; extruder relative mode\nM104 S170 ; set extruder temp for bed leveling\nM140 S[first_layer_bed_temperature] ; set bed temp\nM109 R170 ; wait for bed leveling temp\nM190 S[first_layer_bed_temperature] ; wait for bed temp\nM204 T1250 ; set travel acceleration\nG28 ; home all without mesh bed level\nG29 ; mesh bed leveling \nM204 T[machine_max_acceleration_travel] ; restore travel acceleration\nM104 S[first_layer_temperature] ; set extruder temp\nG92 E0\nG1 Y-2 X179 F2400\nG1 Z3 F720\nM109 S[first_layer_temperature] ; wait for extruder temp\n\n; intro line\nG1 X170 F1000\nG1 Z0.2 F720\nG1 X110 E8 F900\nG1 X40 E10 F700\nG92 E0\n\nM221 S95 ; set flow
; support_material = 0
; support_material_angle = 0
; support_material_auto = 1
; support_material_bottom_contact_distance = 0
; support_material_bottom_interface_layers = 0
; support_material_buildplate_only = 0
; support_material_closing_radius = 2
; support_material_contact_distance = 0.25
; support_material_enforce_layers = 0
; support_material_extruder = 0
; support_material_extrusion_width = 0.7
; support_material_interface_contact_loops = 0
; support_material_interface_extruder = 0
; support_material_interface_layers = 2
; support_material_interface_pattern = rectilinear
; support_material_interface_spacing = 0.4
; support_material_interface_speed = 100%
; support_material_pattern = rectilinear
; support_material_spacing = 2
; support_material_speed = 1000
; support_material_style = grid
; support_material_synchronize_layers = 0
; support_material_threshold = 50
; support_material_with_sheath = 0
; support_material_xy_spacing = 80%
; temperature = 225
; template_custom_gcode = 
; thick_bridges = 1
; thin_walls = 0
; threads = 12
; thumbnails = 16x16,220x124
; thumbnails_format = PNG
; toolchange_gcode = 
; top_fill_pattern = monotonic
; top_infill_extrusion_width = 4
; top_solid_infill_speed = 1000
; top_solid_layers = 1
; top_solid_min_thickness = 4
; travel_speed = 1000
; travel_speed_z = 1000
; use_firmware_retraction = 0
; use_relative_e_distances = 1
; use_volumetric_e = 0
; variable_layer_height = 1
; wall_distribution_count = 1
; wall_transition_angle = 10
; wall_transition_filter_deviation = 25%
; wall_transition_length = 0.8
; wipe = 1
; wipe_into_infill = 0
; wipe_into_objects = 0
; wipe_tower = 1
; wipe_tower_bridging = 10
; wipe_tower_brim_width = 2
; wipe_tower_no_sparse_layers = 0
; wipe_tower_rotation_angle = 0
; wipe_tower_width = 60
; wipe_tower_x = 170
; wipe_tower_y = 140
; wiping_volumes_extruders = 70,70
; wiping_volumes_matrix = 0
; xy_size_compensation = 0
; z_offset = 0
; prusaslicer_config = end
